<?xml version="1.0" encoding="UTF-8" standalone="no"?>
<!-- Generator: Adobe Illustrator 21.0.2, SVG Export Plug-In . SVG Version: 6.00 Build 0)  -->

<svg
   xmlns:dc="http://purl.org/dc/elements/1.1/"
   xmlns:cc="http://creativecommons.org/ns#"
   xmlns:rdf="http://www.w3.org/1999/02/22-rdf-syntax-ns#"
   xmlns:svg="http://www.w3.org/2000/svg"
   xmlns="http://www.w3.org/2000/svg"
   xmlns:sodipodi="http://sodipodi.sourceforge.net/DTD/sodipodi-0.dtd"
   xmlns:inkscape="http://www.inkscape.org/namespaces/inkscape"
   version="1.1"
   id="_x30_"
   x="0px"
   y="0px"
   viewBox="0 0 891.7 896"
   style="enable-background:new 0 0 891.7 896;"
   xml:space="preserve"
   sodipodi:docname="flowers.svg"
   inkscape:version="0.92.1 r15371"><metadata
     id="metadata4841"><rdf:RDF><cc:Work
         rdf:about=""><dc:format>image/svg+xml</dc:format><dc:type
           rdf:resource="http://purl.org/dc/dcmitype/StillImage" /><dc:title></dc:title></cc:Work></rdf:RDF></metadata><defs
     id="defs4839" /><sodipodi:namedview
     pagecolor="#ffffff"
     bordercolor="#666666"
     borderopacity="1"
     objecttolerance="10"
     gridtolerance="10"
     guidetolerance="10"
     inkscape:pageopacity="0"
     inkscape:pageshadow="2"
     inkscape:window-width="1440"
     inkscape:window-height="835"
     id="namedview4837"
     showgrid="false"
     inkscape:zoom="0.97069346"
     inkscape:cx="372.01628"
     inkscape:cy="648.45571"
     inkscape:window-x="0"
     inkscape:window-y="0"
     inkscape:window-maximized="1"
     inkscape:current-layer="_x30_" /><style
     type="text/css"
     id="style4683">
	.st0{fill:#25AAE1;}
	.st1{fill:#E4232A;}
	.st2{fill:#C5180F;}
	.st3{fill:#F1592A;}
	.st4{font-family:'ArialMT';}
	.st5{font-size:26.3959px;}
	.st6{fill:#0A8C44;}
	.st7{fill:#662D91;}
	.st8{fill:none;}
	.st9{fill:#F2D12F;}
	.st10{fill:#D91B5C;}
</style><path
     class="st0"
     d="M572.1,469.6c-0.2,3-0.9,5.9-2.3,8.5c-1.6,3-4.2,5.5-7.2,7.3c-2.1,1.2-4.5,2.1-6.9,2.5c-2.9,0.5-6,0.5-8.9-0.3  c-2.6-0.7-5-2.1-6.9-4c-1.8-1.9-3-4.3-3.4-6.9c-0.4-2.7,0-5.5,1.3-7.8c1.4-2.4,3.8-4.3,6.4-4.9c1.5-0.3,3-0.3,4.5-0.2  c-1.7,0.8-3.3,1.5-4.5,2.9c-1.6,1.8-2.4,4.8-1.6,7c0.6,1.9,2.4,3.4,4.3,4.3c2.8,1.3,6.2,1.4,8.8,0.1c2.4-1.2,4.1-3.5,5.1-6.1  c0.9-2.5,1-5.3,0.3-7.8c-0.9-2.8-2.8-5.2-5.2-7.1c-3.2-2.6-7-4.1-11-5c-3.5-0.7-7.1-0.9-10.7-0.5c-3.8,0.4-7.5,1.5-10.9,3.1  c-2,0.9-3.9,2.1-5.8,3.2c2.2-2.2,4.4-4.5,6.9-6.3c2.7-2,5.7-3.5,8.9-4.7c3.5-1.3,7.3-2,11-2.2c4.2-0.2,8.5,0.4,12.5,2.1  c5.6,2.3,10.6,6.6,13.2,12C571.7,462,572.3,465.8,572.1,469.6z M498.7,430c-2.2,1.1-4.2,2.3-6.2,3.8c-2.1,1.5-4.2,3.3-5.6,5.5  c-0.9,1.4-1.5,3-1.8,4.7c-0.1,0.7-0.2,1.4-0.3,2.1c0.8-0.6,1.6-1.2,2.5-1.7c1.3-0.8,2.8-1.4,4.2-1.8c1.6-0.5,3-0.8,5-0.9  c1.3-0.1,2.7-0.1,3.6,0.8c0.5,0.4,0.7,1.2,0.5,1.6c-0.2,0.5-1.1,0.6-1.8,0.6c-1.4,0.1-2.4,0.2-3.5,0.5c-1.7,0.4-3.5,1.4-5.1,2.6  c-1.3,1-2.5,2.2-3.7,3.3c-0.7,0.7-1.3,1.4-1.9,2.1c-0.6,0.8-1.2,1.6-1.8,2.4c3-0.3,6-0.6,8.9-0.5c3.1,0.1,6.3,0.6,9.2,1.6  c1.8,0.6,3.6,1.4,5.3,2.2c2.2-1.6,4.4-3.3,6.6-5c2.8-2.3,5.6-4.8,7.8-7.6c1.8-2.3,3.3-4.9,4.4-7.6c1.4-3.3,2.2-6.9,2.8-10.4  c0.4-2.3,0.8-4.7,1.2-7.1c0.4-2.4,0.6-4.9,0.9-7.3c-1,1.6-1.9,3.2-3,4.7c-1.3,1.7-3,3.2-4.8,4.3c-1.8,1.1-3.8,1.9-5.8,2.7  c-2,0.7-4,1.4-6.1,1.7c-2,0.3-4,0.2-5.9,0.5C502.5,428.3,500.6,429.1,498.7,430z M516.9,471.3c-3.4-3.1-7.2-5.8-11.2-8.1  c-2.7-1.6-5.6-2.9-8.6-3.8c-2.7-0.8-5.6-1.1-8.5-1.1c-1.6,0-3.3,0.1-4.8,0.6c-0.8,0.3-1.6,0.6-2.3,1c-0.5,1.2-0.9,2.4-1.6,3.5  c-0.7,1.1-1.5,2.2-2.4,3.2c0.8-0.4,1.7-0.8,2.5-1.1c1.5-0.5,3.1-0.6,4.7-0.6c2.2,0.1,4.4,0.6,6.6,1.3c2.4,0.8,4.8,1.7,6.6,3.5  c0.5,0.5,0.9,1,1.2,1.7c-2.4-0.6-4.9-1.2-7.3-1.5c-3.2-0.5-6.5-0.5-9.9-0.4c-2.8,0.1-5.7,0.3-8.1,1.4c-1.5,0.6-2.9,1.6-4.2,2.6  c1.4,2.2,2.9,4.3,4.6,6.3c1.4,1.7,3,3.2,4.7,4.6c1.4,1.2,3,2.3,4.7,2.9c2.3,0.9,4.8,0.9,7.3,0.9c4,0,7.9-0.3,11.9-0.6  c3.2-0.2,6.4-0.4,9.7-0.5c2.6-0.1,5.3-0.2,7.9-0.1c2,0.1,3.9,0.3,5.8,0.7c1.2,0.3,2.4,0.6,3.6,0.9c-1-2-2-4-3.1-6  C523.9,478.5,520.6,474.7,516.9,471.3z M517.1,508.3c-1.8-2.6-4.1-5-6.8-6.7c-3.3-2.1-7.2-3.2-11.2-3.2c-3.4,0-6.8,0.8-9.7,2.5  c-2.4,1.4-4.5,3.3-6,5.6c-1.3,1.9-2.2,3.9-2.8,6.2c-0.5,2.1-0.7,4.4-0.2,6.4c0.3,1.4,1,2.7,1.8,3.9c0.6,0.9,1.2,1.7,1.9,2.5  c-0.4-2.4-0.8-4.7-0.5-7c0.4-2.6,1.8-5.2,3.7-7.1c2.2-2.2,5.1-3.7,8.1-3.9c2.9-0.2,5.9,0.7,8.3,2.3c3,2,5.1,5,6.4,8.3  c1.3,3.4,1.7,7.2,0.8,10.6c-0.8,3-2.6,5.8-5,7.9c-2.3,2-5.2,3.4-8.1,4.2c-3.7,1-7.5,1.1-11.2,0.2c-2.7-0.7-5.3-1.9-7.5-3.7  c-2.4-1.9-4.3-4.4-5.9-7c-1.3-2-2.4-4.1-3.2-6.3c-1.2-3.2-1.8-6.5-2.4-9.9c-0.7,2-1.5,4-1.9,6.1c-0.8,4.2-0.1,8.8,1.6,12.8  c1.6,3.9,4,7.2,6.9,10.3c2.4,2.5,5.1,4.8,8.2,6.1c3.5,1.6,7.5,2,11.4,1.9c4.1-0.1,8.1-0.7,11.8-2.2c3.7-1.5,7.1-3.9,9.9-7  c2.3-2.5,4.1-5.5,5.3-8.7c1.7-4.8,1.8-10.1,0.7-15.1C520.8,514.7,519.2,511.3,517.1,508.3z M470.5,407.7c0.4-0.7,0.8-1.5,1.3-2.2  c0.5-0.8,1-1.7,1.6-2.3c0.5-0.5,1-0.9,1.6-1.3c0.6,0.6,1.1,1.3,1.7,1.9c0.2,0.2,0.5,0.5,0.7,0.7c0.7,0.7,1.4,1.4,2,2.1  c0.8,0.9,1.6,1.8,2.4,2.7c0.2-1.1,0.4-2.3,0.8-3.4c0.5-1.2,1.3-2.4,2-3.5c1.1-1.5,2.3-3.1,3.8-4.3c1.3-1.1,2.8-2,4.3-3  c-0.5,1.4-1,2.8-1.7,4.1c-0.8,1.8-1.9,3.5-2.7,5.3c-0.9,1.9-1.7,3.9-2.5,6c-0.7,1.8-1.6,3.8-1.2,5.6c0.1,0.7,0.4,1.3,0.6,1.9  c0.6,1.8,1,3.6,1.2,5.4c0.2,1.9,0.3,3.8,0.2,5.8c-0.1,2.2-0.2,4.3-0.4,6.5c1.8-1.9,3.5-3.8,5.5-5.3c1.8-1.3,3.8-2.4,5.8-3.5  c1.2-0.7,2.5-1.4,3.8-1.8c0.6-0.1,1.2-0.2,1.8-0.3c0.8-2.6,1.6-5.1,2.1-7.8c0.7-3.4,0.8-6.9,0.8-10.3c0-5.1-0.5-10.3-1.5-15.3  c-0.7-3.1-1.6-6.2-2.8-9.2c-0.7-1.8-1.5-3.5-2.6-5c-1-1.4-2.1-2.6-3.2-3.9c-0.5,1.8-0.9,3.6-1.6,5.4c-0.8,2-1.9,4-3.3,5.6  c-1.5,1.7-3.3,2.9-5.2,4.1c-1.8,1.1-3.5,2.2-5.4,3.3c-1.4,0.9-2.9,1.7-4.2,2.8c-1,0.8-1.9,1.8-2.8,2.8c-0.9,1.2-1.8,2.5-2.4,3.9  c-0.5,1.2-0.8,2.5-0.9,3.7c0,0.6,0,1.1,0.1,1.7C470.3,407,470.4,407.4,470.5,407.7z M477.5,556.9c-3.4-1.6-7.2-2.5-10.9-2.9  c-3.4-0.3-6.9-0.3-10.2,0.3c-3.4,0.6-6.8,1.7-10.1,2.8c0.3-2.6,0.7-5.2,0.5-7.7c-0.3-3.6-1.6-7.1-3.6-10.1c-2-3-4.7-5.4-7.8-7.2  c-3-1.8-6.3-2.9-9.7-3.5c-3.5-0.5-7.2-0.4-10.5,0.8c-2.7,1-5.2,2.6-7.1,4.7c-2.4,2.6-4,6-4.6,9.5c-0.5,2.8-0.3,5.8,0.8,8.4  c0.9,2.1,2.5,4,4.5,5.1c1.7,0.9,3.6,1.4,5.6,1.4c1.6,0,3.2-0.3,4.7-0.5c-1.4,0.1-2.8,0.1-4.1-0.3c-1.8-0.6-3.2-2-4.3-3.7  c-1.4-2.3-2.2-4.9-1.8-7.4c0.4-2.7,2.2-5.3,4.4-7c2.1-1.6,4.5-2.4,7.1-2.7c3.1-0.3,6.3,0.2,9,1.6c2.8,1.5,5,4.1,6.5,7  c1.7,3.5,2.2,7.5,1.6,11.2c-0.6,3.6-2.3,6.9-4.6,9.7c-2.5,2.9-5.7,5.2-9.2,6.6c-4,1.7-8.4,2.3-12.8,1.9c-4.5-0.4-9-1.9-12.7-4.5  c-3.2-2.2-5.7-5.2-7.7-8.6c-2.1-3.4-3.6-7.2-4.1-11.2c-0.7-5,0.3-10.2,2.3-14.8c1.8-4,4.4-7.6,7.6-10.7c3.5-3.4,7.6-6.1,12.1-7.9  c3.4-1.4,7-2.2,10.6-2.8c4.5-0.8,9.1-1.1,13.5-0.5c3.3,0.5,6.5,1.5,9.7,2.5c-3.3-2.5-6.7-5-10.4-7c-5-2.6-10.7-4-16.4-4.4  c-5.6-0.3-11.1,0.5-16.5,2.2c-3.7,1.2-7.3,2.8-10.2,5.2c-2.2,1.8-4,4.2-6.3,5.8c-3,2.1-6.7,3.2-10.4,3.6c-5.7,0.7-11.4-0.1-16.8-2.1  c-5.1-2-9.9-5.1-13.6-9.2c-2.5-2.8-4.6-6.1-5.9-9.6c-1.6-4.2-2.1-8.6-1.9-13.2c0.2-3.9,0.9-7.9,2.9-11c1.5-2.4,3.9-4.3,6.3-6  c2.8-1.9,5.8-3.5,9.1-4c3.4-0.5,7,0.4,10,2.2c2.5,1.5,4.5,3.7,5.4,6.4c0.8,2.3,0.7,4.9-0.3,7.2c-1,2.4-2.8,4.4-5,5.7  c-2.2,1.3-4.7,1.8-7.3,1.9c-2.1,0.1-4.3,0-6.3-0.6c-1.5-0.5-2.9-1.3-4.3-2c2,1.8,4.1,3.5,6.5,4.8c2.5,1.3,5.5,2,8.4,1.9  c3.1-0.1,6.2-1,8.9-2.6c3.1-1.8,5.8-4.6,7.3-7.8c1.8-3.9,2-8.5,0.8-12.5c-1.6-5.1-5.5-9.3-10-12.3c-4.6-3-10-4.8-15.3-4.7  c-4.9,0-9.8,1.5-14,4c-4.6,2.7-8.4,6.5-11.3,10.9c-2.3,3.4-4,7.1-5,11.1c-1.3,5-1.5,10.4-0.5,15.4c0.8,4,2.3,7.9,4.4,11.5  c1.8,3.2,4.1,6.1,6.7,8.7c3.5,3.4,7.6,6,12,8.1c6.7,3.2,14,5.4,21.2,5.2c4.2-0.1,8.4-1,12.6-1.9c-0.8,2.1-1.6,4.2-2.2,6.4  c-0.9,3.4-1.1,7-0.7,10.4c0.6,5.5,2.8,10.8,5.6,15.6c2.5,4.3,5.6,8.2,9.4,11.4c4.8,4.1,10.7,7,16.9,8.1c5.9,1.1,12.1,0.5,17.6-1.5  c4.5-1.7,8.5-4.4,12.6-7c4.4-2.8,9-5.5,14-6.9c4.7-1.3,9.6-1.3,14.6-0.5c4.9,0.7,9.9,2.2,13.3,5.7c3,3,4.7,7.6,4.5,12  c-0.1,3.4-1.5,6.6-3.5,9.5c-2,2.8-4.7,5.3-8,6.2c-2.9,0.8-6.2,0.3-8.7-1.4c-2.3-1.5-3.9-4.1-4.1-6.9c-0.2-2.9,1.3-6.1,3.6-7.7  c1.4-1,3.1-1.4,4.8-1.8c-2.2,0-4.3,0.1-6.2,0.9c-3.3,1.3-5.9,4.7-6.7,8.4c-0.7,3.1-0.1,6.4,1.5,9.1c1.6,2.7,4.2,4.7,7,5.8  c3.2,1.2,6.7,1.4,10,0.6c3.4-0.8,6.6-2.6,9.3-4.9c2.4-2.1,4.4-4.7,5.9-7.5c1.7-3.3,2.8-7,3-10.8c0.4-4.9-0.4-10.1-2.8-14.3  C485.5,562,481.7,558.9,477.5,556.9z M483.1,430.7c0.2-1,0.4-2,0.5-3c0.2-1.8,0.1-3.7-0.2-5.5c-0.4-2.2-1-4.3-1.9-6.3  c-0.8-1.8-1.8-3.5-2.7-5.3c-0.6-1.2-1.2-2.5-2-3.5c-0.4-0.5-0.9-0.9-1.4-1.3c-0.4,0.8-0.8,1.6-1.3,2.4c-0.7,1-1.5,2-2.5,2.8  c-1.3,1.2-2.8,2.1-4.1,3.2c-1,0.8-1.9,1.6-2.8,2.5c-0.4,0.5-0.9,0.9-1.2,1.5c-0.5,0.9-0.8,2-0.9,3.1c0,0.5-0.1,0.9-0.1,1.4  c0.8,0.7,1.5,1.4,2.3,2.1c0.5,0.5,1,1,1.5,1.5c0.6-0.5,1.2-1,1.8-1.5c0.8-0.7,1.4-1.4,2.6-2.4c1-0.8,2.4-1.9,2.6-1.5  c0.2,0.3-0.4,1.3-0.8,2.2c-0.7,1.5-1.1,2.5-1.6,3.7c-0.5,1.1-1,2.3-1.6,3.6c0.2,0.4,0.4,0.8,0.6,1.3c0.5,0.9,0.9,1.9,1.3,2.8  c0.3,0.7,0.5,1.5,0.7,2.2c0.4-0.7,0.9-1.3,1.2-2c0.7-1.5,0.9-3.2,1.3-4.8c0.4-1.5,1-2.9,1.2-4.7c0.1-0.6,0.1-1.3,0.5-1.7  c0.4-0.3,1-0.2,1.6-0.1c0.9,0.3,1.4,1,1.9,1.7c0.8,1.1,1.5,2.1,2.2,3.2c0.4,0.6,0.7,1.2,1,1.8C482.9,430.3,483,430.5,483.1,430.7z   M475.8,463.4c1.4-2.4,2.8-4.7,3.8-7.3c1.3-3.1,2.1-6.3,2.6-9.7c0.5-3.4,0.6-6.8,0.1-10.2c-0.3-1.9-0.8-3.9-1.8-5.5  c-0.1-0.2-0.3-0.5-0.4-0.7c-0.6-0.8-1.3-1.6-2.1-2.3c-0.3,1.2-0.6,2.5-1,3.7c-0.5,1.8-1.2,3.5-1.9,5.2c-0.7,1.7-1.5,3.4-2.5,5  c-1.2,1.8-2.6,3.4-4.4,4.6c-1,0.7-2.1,1.2-3.2,1.8c0.2,0.3,0.4,0.6,0.5,0.9c0.5,0.9,1.1,1.9,1.7,2.8c0.8,1.2,1.7,2.4,2.1,3.8  c0.5,1.5,0.5,3.2,0.4,4.8c-0.4,2.9-1.4,5.6-2.7,8.3c-0.6,1.3-1.3,2.5-2,3.8c0.4,0,0.8,0.1,1.2,0.1c0.8-0.1,1.6-0.6,2.3-1.1  c1.3-0.9,2.6-1.8,3.7-2.9C473.7,467.1,474.8,465.3,475.8,463.4z M431.5,501.8c1.5,1.2,3.2,2.1,4.8,3.1c2.7,1.6,5.2,3.3,7.4,5.3  c2.1,1.8,4,3.9,5.7,6c1,1.3,2,2.6,3,3.9c3.2-3.7,6.3-7.4,9.2-11.3c1.9-2.6,3.6-5.3,5.4-8c2.2-3.2,4.5-6.4,5.2-10.1  c0.6-3,0.1-6.4-1.3-9.2c-1.1-2.3-2.8-4.2-4.9-5.5c-1.8-1.2-4-1.9-6.1-2.3c-0.7-0.1-1.5-0.2-2.2-0.3c-2-0.1-4,0-6,0.1  c0.7,0.9,1.4,1.8,2.1,2.7c1.1,1.5,2.1,3.2,2.9,4.9c0.9,2,1.7,4,2.1,6.1c0.3,2.1,0.2,4.2,0,6.3c-0.2,1.9-0.5,3.7-1.1,5.4  c-0.5,1.3-1.1,2.5-1.8,3.7c-0.1-2.3-0.1-4.6-0.5-6.9c-0.4-2.8-1.1-5.5-2-8.2c-0.5-1.7-1.1-3.4-1.7-5c-1.1-2.8-2.5-5.7-4.8-7.7  c-1-0.8-2.1-1.5-3.2-2.2c-1.2,0.1-2.3,0.2-3.4,0.3c-1.1,0.2-2.2,0.4-3.3,0.7c-0.9,0.3-1.8,0.8-2.6,1.3c-0.2,0.1-0.3,0.2-0.5,0.3  c-1.6,1.1-3,2.5-4.3,4.1c-2.3,3-3.9,6.5-4,10.1c0,2.4,0.6,4.8,1.7,7.1C428.5,498.6,429.8,500.4,431.5,501.8z M421.3,407.9  c0.3,1.5,0.8,2.9,1.5,4.2c0.8,1.3,1.8,2.4,2.9,3.4c0.7,0.6,1.5,1.2,2.2,1.8c0.7-2.4,1.4-4.7,2.5-6.9c1.1-2.4,2.7-4.7,4.3-6.8  c1.7-2.4,3.6-4.7,5.7-6.7c1.1-1.1,2.4-2,3.6-3c1.8,1.2,3.6,2.5,5.2,3.9c1.6,1.3,3,2.7,4.4,4.2c1.7,1.9,3.2,3.8,4.7,5.8  c1,1.2,1.9,2.4,2.7,3.8c0.4,0.8,0.8,1.6,1.1,2.4c1.7-1.6,3.4-3.3,4.4-5.3c0.6-1.2,0.9-2.5,1.1-3.9c0.2-1.4,0.1-2.9-0.1-4.3  c-0.6-4-2.4-7.7-4.9-10.8c-2.3-2.8-5.2-5-7.9-7.5c-1.8-1.7-3.6-3.6-4.9-5.8c-1-1.7-1.8-3.6-2.1-5.5c-0.2-1.3-0.3-2.5-0.3-3.8  c-0.9,1.9-1.8,3.8-2.9,5.5c-2.3,3.6-5.6,6.6-8.9,9.5c-2.1,1.8-4.1,3.6-6.1,5.5c-1.6,1.5-3.1,3.1-4.3,4.9c-1.1,1.5-2,3.3-2.7,5  c-1,2.7-1.5,5.6-1.4,8.5C421.1,406.6,421.2,407.3,421.3,407.9z M430.6,462.5c0.6,1.9,1.4,3.8,2.5,5.5c0.8,1.2,1.8,2.3,2.8,3.4  c1.3-0.3,2.6-0.5,3.8-0.7c0.1,0,0.2,0,0.3,0c2.4-0.3,4.9-0.4,7.4-0.5c3.3-0.1,6.7-0.2,10,0.2c1,0.1,2,0.3,2.9,0.5  c0.5,0.1,1,0.2,1.5,0.3c0.9-1.2,1.9-2.4,2.6-3.8c0.9-1.8,1.5-3.8,1.7-5.8c0.2-2.4-0.1-4.8-0.8-7.1c-0.5-1.7-1.3-3.4-2.3-4.9  c-0.3-0.5-0.7-1-1-1.5c-1.3-1.6-2.8-2.9-4.2-4.4c-1.3-1.3-2.5-2.7-3.4-4.3c-0.8-1.3-1.4-2.8-1.7-4.3c-0.3-1.5-0.3-3-0.5-4.4  c-0.1-0.8-0.2-1.6-0.4-2.5c-1.3,1.1-2.6,2.3-3.9,3.4c-3.1,2.6-6.3,5-9.5,7.6c-1.8,1.5-3.5,3-5,4.8c-0.9,1.1-1.8,2.3-2.4,3.6  c-1.1,2.4-1.5,5.1-1.5,7.8C429.6,457.7,429.9,460.1,430.6,462.5z M436.9,418.2c1.2-0.1,2.4-0.1,3.8,0.1c1,0.2,2.1,0.4,2.7-0.2  c0.2-0.2,0.4-0.5,0.6-0.9c0.3-0.7,0.6-1.3,0.7-2c0.1-0.5,0.1-1.1,0.4-1.5c0.2-0.3,0.7-0.6,1.2-0.6c0.3,0,0.7,0,0.9,0.2  c0.4,0.3,0.6,0.8,0.8,1.4c0.3,0.8,0.5,1.6,0.8,2.3c0.2,0.7,0.4,1.4,1,1.8c0.3,0.2,0.7,0.4,1.1,0.5c0.6,0.1,1.2,0,1.8-0.1  c1.4-0.2,2.9,0,4.3,0.3c0.9,0.2,1.8,0.5,2.6,0.7c0-1.2,0-2.5-0.2-3.7c-0.3-1.8-1-3.5-2-5c-1-1.6-2.4-3-3.8-4.4  c-1.7-1.5-3.4-3-5.1-4.5c-1.4-1.2-2.8-2.5-4.2-3.8c-1.3,1.2-2.5,2.4-3.7,3.7c-1.8,2-3.5,4.1-5,6.3c-0.9,1.3-1.7,2.6-2.5,3.9  c-0.8,1.4-1.6,2.8-2,4.3c-0.3,0.9-0.4,1.9-0.6,2.9c0.7-0.3,1.4-0.5,2.2-0.8C434,418.8,435.5,418.4,436.9,418.2z M409.9,431  c-0.6,1.7-0.9,3.5-1.1,5.3c-0.4,2.7-0.6,5.5-0.5,8.2c0.1,1.8,0.3,3.6,0.6,5.3c0.5,2.2,1.2,4.3,2.1,6.3c0.5,0.9,1,1.9,1.6,2.7  c0.4,0.5,0.8,1,1.2,1.4c0.4,0.4,0.8,0.7,1.3,1c1.3,0.8,2.9,1.1,4.4,1.6c1.6,0.6,3,1.4,4.5,2.4c2.3,1.6,4.5,3.4,6.3,5.4  c0.9,1,1.8,2.1,2.7,3.1c-1.1-1.8-2.3-3.5-3.3-5.4c-1.2-2.1-2.2-4.4-2.9-6.8c-0.7-2.5-1-5.3-0.8-7.7c0.1-0.9,0.2-1.8,0.4-2.6  c0.2-0.9,0.5-1.8,0.4-2.7c-0.1-0.9-0.6-1.8-1.1-2.6c-0.8-1.4-1.5-2.8-2.5-4.1c-1.3-1.7-2.9-3.1-4.4-4.7c-1.2-1.2-2.2-2.5-3.3-3.9  c-0.5-0.6-1-1.3-1.4-1.9c-0.7-1.1-1.3-2.3-1.4-3.5c-0.1-0.9,0.1-1.9,0.3-2.9C411.7,427,410.6,428.9,409.9,431z M422.9,482.3  c0.9-2,2.3-3.9,4-5.1c1.4-1,3.1-1.5,4.8-2c-0.6-0.4-1.2-0.8-1.8-1.2c-0.9-0.6-1.8-1.1-2.8-1.4c-1.8-0.5-3.7-0.4-5.6-0.2  c-2,0.2-3.9,0.6-5.7,1.2c-2,0.6-3.9,1.5-5.8,2.4c-2.8,1.4-5.5,3.1-8,5c-1.4,1-2.7,2.1-4,3.2c0.3-0.8,0.5-1.5,0.9-2.2  c0.6-1.2,1.4-2.3,2.2-3.4c1.1-1.4,2.1-2.8,3.4-4c1.4-1.4,3-2.7,4.7-3.6c2.4-1.3,5.2-1.8,7.9-2.4c1.6-0.3,3.2-0.7,4.8-1  c-1.4-0.7-2.9-1.4-4.4-1.8c-2.2-0.6-4.5-0.7-6.8-0.7c-1.3,0-2.7,0.1-4,0.2c-1.3,0.1-2.6,0.4-3.9,0.7c-2.4,0.7-4.8,1.8-7,3  c-2.9,1.6-5.5,3.6-7.9,5.8c-2.8,2.5-5.3,5.3-7.4,8.3c-2.6,3.7-4.6,7.9-6.2,12.1c-1,2.6-1.8,5.3-2.6,8c1.9-0.5,3.9-0.9,5.8-1.3  c3-0.5,6.1-0.6,9.1-0.7c4.7-0.1,9.4-0.2,14,0c3.2,0.1,6.4,0.2,9.6-0.1c2.8-0.3,5.6-0.9,7.9-2.3c1.3-0.8,2.5-2,3.7-3.1  c-0.2-1-0.4-1.9-0.5-2.9c-0.2-1.6-0.3-3.2-0.1-4.8C421.6,486,422.1,484.1,422.9,482.3z M416.4,412c-0.5,0.2-1.1,0.5-1.5,0.8  c-1.2,0.9-1.8,2.3-2.4,3.7c-0.6,1.2-1.2,2.3-1.5,3.6c-0.2,0.6-0.3,1.2-0.4,1.9c0.5-0.5,0.9-1,1.4-1.4c0.6-0.5,1.2-0.8,2-1  c0.6-0.2,1.3-0.2,1.6,0c0.5,0.3,0.4,1.2,0.4,2c-0.1,1.6-0.2,2.7-0.2,4c0,1.3,0,2.8,0.4,4.1c0.1,0.3,0.2,0.6,0.3,0.9  c0.1,0.3,0.3,0.6,0.4,0.9c0.6-1,1.2-1.9,1.9-2.8c0.8-1.1,1.7-2.1,2.6-3.1c0.7-0.8,1.5-1.6,2.3-2.2c1.2-0.9,2.5-1.7,3.8-2.4  c-1-0.7-2-1.4-3.1-2.1c-1.1-0.8-2.2-1.5-3.3-2.3c-0.9-0.7-1.9-1.3-2.7-2.1C417.6,413.7,417,412.8,416.4,412z M389.5,425.3  c1.7,3.2,3.9,6.2,6.4,8.9c0.8,0.9,1.7,1.7,2.6,2.5c0.9,0.8,1.8,1.6,2.8,2.3c1.1,0.9,2.3,1.8,3.4,2.7c0.1-2.5,0.2-4.9,0.4-7.4  c0.2-2.6,0.5-5.3,0.9-7.9c0.3-1.4,0.5-2.7,1-4.1c0.3-0.9,0.6-1.8,0.7-2.7c0-0.9-0.3-1.9-0.6-2.7c-0.8-1.9-1.9-3.5-3.2-5  c-1.1-1.4-2.3-2.7-3.2-4.3c-0.5-1-0.9-2-1.3-3c-0.3-0.8-0.7-1.5-0.7-2.3c0-0.6,0.1-1.2,0.2-1.8c0.3,0.4,0.5,0.9,0.8,1.3  c0.5,0.8,1,1.7,1.6,2.5c0.7,0.9,1.4,1.8,2.3,2.5c0.9,0.8,2,1.4,2.9,2.1c1.2,0.9,2.4,1.9,3.5,2.9c0.2-0.4,0.5-0.8,0.8-1.1  c0.4-0.4,0.9-0.7,1.4-1c0.9-0.5,2-0.9,3-0.9c1.1,0,2.2,0.3,3,1c0.1,0.1,0.2,0.2,0.3,0.3c0.3,0.4,0.5,0.8,0.7,1.2  c0.2-0.9,0.4-1.8,0.3-2.7c0-0.2,0-0.3-0.1-0.5c-0.2-1.2-0.9-2.3-1.6-3.4c-1.6-2-3.6-3.4-5.6-4.9c-2.2-1.5-4.4-3-6.4-4.6  c-1.3-1-2.6-2.1-3.8-3.3c-1.2-1.2-2.3-2.5-3-4.1c-0.5-1-0.7-2.2-0.7-3.3c0-1.2,0.3-2.3,0.6-3.4c-1.7,1.4-3.4,2.9-4.9,4.5  c-1.8,2-3.1,4.3-4.5,6.7c-1.5,2.8-3,5.6-3.8,8.6c-1,3.9-1,8.1-0.3,12.1C386.2,417.4,387.6,421.5,389.5,425.3z M369,456.3  c2,2.2,4.4,4,6.9,5.5c2.4,1.4,5.1,2.6,7.7,3.4c1.8,0.6,3.7,1,5.5,1.5c1.1,0.3,2.3,0.6,3.4,0.8c0.2-0.3,0.4-0.6,0.7-0.9  c0.6-0.6,1.3-1.1,2-1.6c1.3-0.8,2.8-1.3,4.2-1.6c2.1-0.5,4.3-0.6,6.5-0.9c0.2,0,0.5-0.1,0.7-0.1c1.6-0.2,3.1-0.5,4.6-0.7  c-0.4-0.6-0.8-1.2-1.3-1.7s-1.1-0.9-1.5-1.5c-0.5-0.7-0.7-1.7-1.1-2.5c-1-2-3-3.1-4.9-4.3c-1.7-1.1-3.1-2.3-4.8-3.3  c-2.3-1.4-4.8-2.3-7.3-3.3c-1.7-0.7-3.4-1.4-5.2-1.9c-1.2-0.4-2.4-0.6-3.7-0.9c0.4-0.3,0.9-0.5,1.3-0.6c1.1-0.4,2.2-0.4,3.3-0.3  c2,0.1,4,0.4,6.1,0.8c2.5,0.5,5.1,1.2,7.4,2.4c1.7,0.9,3.3,2,4.8,3.2c-0.6-1.4-1.2-2.8-1.9-4.1c-1.1-1.9-2.7-3.7-4.4-5.1  c-0.2-0.2-0.5-0.4-0.7-0.6c-1.6-1.3-3.4-2.5-5.2-3.6c-1.4-0.9-2.9-1.8-4.5-2.3c-1.3-0.4-2.7-0.5-4.1-0.7c-1.6-0.2-3.1-0.4-4.6-0.8  c-2.2-0.7-4.3-2-6.1-3.6c-1.6-1.4-3-3-4.2-4.8c-0.7-1.1-1.4-2.3-1.9-3.6c-0.4-0.8-0.7-1.7-1-2.6c-0.7,2-1.5,4-2.1,6  c-1.1,3.6-1.9,7.3-2.2,11c-0.3,4.3,0.2,8.8,1.6,12.9C364.2,449.8,366.3,453.4,369,456.3z"
     id="flower2"
     inkscape:label="#path4685" /><path
     class="st1"
     d="M144.2,256.9c-19.3-47.5-63.2-74.1-114.3-69.1c28-11.1,57.8-7.6,82.5,9.5c-6.4-13.5-11.8-27.4-16.3-41.7  c-3-1-6-2-9-3.3c-4.7-2-9.2-4.4-13-7.8c-2.9-2.7-5.4-6-7.5-9.4c-3.4-5.6-5.8-11.6-7.3-17.9C56,103,56.8,88,58.8,73.3  c1.2-9.1,2.8-18.1,5.8-26.7c2.3-6.5,5.3-12.8,8.3-19.1c1.7,2.7,3.3,5.3,4.7,8.1c2.4,4.9,3.8,10.4,4.5,15.8c1,7.5,0.6,15-0.2,22.5  c-0.7,6.2-1.6,12.3-2.4,18.5c-0.7,6-1.3,12-0.8,18.1c0.4,5.3,1.5,10.6,3.3,15.2c1.6,4.1,3.7,7.7,7.5,10.7c1.9,1.5,4.2,2.9,6.5,3.8  c3.9,1.5,8,1.8,11.7,1.2c3.8-0.6,7.2-2.2,10.4-4.4c3.2-2.2,6.3-5.1,8.5-8.4c3-4.3,4.7-9.3,5.4-14.3c0.5-3.4,0.5-6.7,0.3-10  c-0.3-3.5-0.9-7.1-1.7-10.5c-0.4-1.7-0.8-3.4-1.1-5c-0.6-3.3-0.9-6.6-1.2-9.9c-0.6,1.7-1.2,3.3-1.6,5c-0.9,4-0.8,8.3-0.7,12.5  c0.1,2.9,0.2,5.8,0.2,8.8c0,3.5-0.1,7.1-0.8,10.5c-0.8,4.4-2.6,8.6-5,12.4c-1.2,2-2.6,3.8-4.4,5.2c-2.2,1.8-4.8,2.8-7.4,3.4  c-2.5,0.6-5,0.8-7.6,0.5c-2.3-0.2-4.5-0.8-6.4-2.1c-3.6-2.4-5.4-7.2-6.4-11.9c-0.8-3.7-1.1-7.4-1-11.2c0.2-6.2,1.4-12.5,3.3-18.5  c3.3-10.2,8.7-19.4,14.7-28.2c4.7-6.9,9.8-13.6,15.3-20c3-3.5,6-6.9,9.7-9.6c1.7-1.2,3.5-2.3,5.5-2.9c2.5-0.7,5.2-0.7,7.7-0.1  c1.6,0.4,3.1,0.9,4.4,2c0.7,0.6,1.4,1.5,1.6,2.3c0.3,1.4-0.8,2.9-1.8,4.4c-1.3,1.9-2.4,3.7-3,5.6c-1.7,5.1-0.5,11,0.2,16.8  c0.9,6.7,1.2,13.1,1.8,19.6c0.5,5.8,1.3,11.7,1.3,17.6c0.1,7.7-1.1,15.5-3.6,22.8c-2.3,6.8-5.9,13.2-10.7,18.6  c-3.2,3.5-6.9,6.6-11.1,8.7c-3.7,1.9-7.7,3-11.7,4.2c2.9,19.1,10,37.1,21.1,52.9c3-56.5,29.5-106.5,74.6-140.7  C163.3,121.8,141.6,187.6,144.2,256.9z M90.5,52.8c0.6,4.2,0.7,8.5,0.4,12.8c-0.2,3.4-0.7,6.7-1.1,10c3.3-6.3,6.7-12.6,10.6-18.5  c3-4.4,6.4-8.6,9.9-12.7c2-2.3,4.1-4.6,6.1-6.9c1.2-1.4,2.3-2.8,3.5-4.1c-2.6-2.6-5.2-5.2-7.9-7.8c-2-2-4-4-6.6-5  c-1.6-0.6-3.4-0.9-5-0.6c-2.1,0.5-3.8,2-5.3,3.6c-1.5,1.8-2.7,3.7-3.9,5.6c-1.6,2.5-3.3,5-5,7.5c0.8,2.4,1.6,4.9,2.3,7.3  C89.5,46.9,90.1,49.9,90.5,52.8z"
     id="tupli"
     inkscape:label="#path4687" /><path
     class="st2"
     d="M519.9,156.5c-0.7,2.2-1.5,4.4-2.1,6.6c-1,3.5-1.8,7-2.8,10.5c-1.6,5.7-3.8,11.2-6.5,16.7  c-1.5,3.2-3.3,6.3-5.8,8.7c-2,1.8-4.5,3.2-7.1,4.2c-4,1.6-8.2,2.5-12.4,2.4c-2.5-0.1-4.9-0.5-7.4-0.9c0.8-1.6,1.5-3.2,2.5-4.7  c1.7-2.6,3.8-4.9,6.1-7c2.1-2,4.3-3.8,6.6-5.3c2.8-1.8,5.8-3.3,8.8-4.7c-2.3,0.6-4.7,1.2-6.9,2.1c-2.3,0.9-4.4,2.1-6.5,3.5  c-2.7,1.8-5.3,3.9-7.5,6.2c-1.7,1.9-3.3,3.9-4.8,6c0.1-2.4,0.3-4.9,0.6-7.3c0.5-3.4,1.5-6.7,3.1-9.7c2.1-4,5.2-7.5,8.9-10  c3.6-2.5,7.8-4.1,12.1-5.5c5.5-1.8,11.2-3.3,15.7-6.6C516.5,160,518.2,158.3,519.9,156.5z M486.3,91.1c-1.6,3-2.3,6.7-2.2,10.2  c0.2,4.9,2.1,9.4,3.9,14c1.6-1.8,3.3-3.5,4.8-5.4c2.3-2.9,4.3-6.1,5.6-9.6c1.3-3.3,2-6.7,2.7-10.2c0,2,0.1,3.9-0.1,5.8  c-0.5,4.1-2,8-4.2,11.6c-1.1,1.8-2.3,3.5-3.6,5.3c-0.8,1.1-1.5,2.1-2.3,3.2c2.8-0.9,5.4-1.8,7.9-3.1c4.1-2,7.9-4.9,10.4-8.6  c2.8-4.1,3.9-9.2,4.6-14.2c0.5-3.7,0.8-7.3,1.2-11c0.2-2.4,0.5-4.9,1.4-7.1c0.7-1.7,1.8-3.3,2.9-4.9c-4,2.3-8,4.5-11.9,6.9  c-4.3,2.6-8.5,5.3-12.5,8.4C491.5,84.8,488.2,87.5,486.3,91.1z M500.2,277.1c-3.3-2.4-7.3-3.9-11.3-4.8c-4.7-1.1-9.4-1.4-14.1-1.1  c-3.8,0.2-7.5,0.7-11.4,1.6c-1.9,0.4-3.9,0.9-5.6,2c-0.5,0.3-1,0.7-1.5,1.2c-0.2,0.2-0.2,0.4-0.1,0.6c0.1,0.2,0.3,0.3,0.5,0.4  c2,0.2,4.1,0.4,6.1,0.9c2.1,0.5,4.1,1.4,6,2.5c2,1.2,3.9,2.5,5.8,4c1.2,1,2.4,2,3.6,3c-2.1-1-4.1-2-6.2-3c-2.7-1.3-5.5-2.7-8.4-3.3  c-1.8-0.4-3.7-0.4-5.6-0.6c-0.6,0-1.1-0.1-1.7-0.2c-0.4,0-0.8,0.1-1.1,0.5c-0.2,0.4-0.3,0.8,0,1.2c0.3,0.6,0.7,1.2,1,1.8  c1.3,2.3,2.4,4.6,3.9,6.7c1.6,2.3,3.6,4.4,5.5,6.5c-1.5-0.8-2.9-1.6-4.2-2.6c-2.5-1.9-4.6-4.5-6.4-7.1c-0.8-1.1-1.5-2.2-2.2-3.3  c-0.2-0.3-0.5-0.3-0.8-0.2c-0.7,0.4-1.3,0.9-1.7,1.5c-0.3,0.5-0.5,1.1-0.5,1.8c0,1,0.4,1.9,0.8,2.8c1.6,3.7,3.3,7.3,5.2,10.8  c2.8,5.1,6,10,10.2,14.2c3.9,4,8.7,7.5,14.2,8.8c5.9,1.5,12.7,0.5,17.8-2.8c4.9-3.1,8.3-8.3,10.2-14c2.2-6.3,2.6-13.1,0.3-19.1  C506.7,283.6,503.8,279.8,500.2,277.1z M459.4,262.3c-1.3,0.4-2.6,0.7-3.9,1.1c-0.3,0.1-0.5,0.4-0.4,0.7c0.2,0.8,0.4,1.5,0.9,2.1  c0.4,0.5,0.9,0.8,1.5,1c0.9,0.3,1.9,0.3,2.9,0.2c4-0.3,7.9-0.9,11.8-1.6c5.7-1.1,11.3-2.7,16.6-5.3c5.1-2.5,9.8-5.9,12.8-10.7  c3.2-5.2,4.4-11.9,2.9-17.8c-1.4-5.6-5.3-10.4-10.1-14c-5.3-4-11.7-6.5-18.1-6.2c-4.5,0.2-9,1.8-12.7,4.4c-3.4,2.4-6,5.7-8.1,9.3  c-2.5,4.1-4.2,8.6-5.5,13.1c-1,3.7-1.6,7.4-2,11.3c-0.2,2-0.3,4,0.2,5.9c0.2,0.6,0.4,1.2,0.7,1.8c0.1,0.2,0.3,0.3,0.5,0.3  c0.2,0,0.4-0.1,0.5-0.3c0.8-1.9,1.6-3.8,2.7-5.5c1.2-1.8,2.6-3.4,4.2-4.9c1.7-1.6,3.6-3,5.6-4.2c1.3-0.9,2.7-1.7,4-2.5  c-1.6,1.7-3.2,3.3-4.8,5c-2.1,2.2-4.3,4.4-5.8,7c-0.9,1.6-1.6,3.4-2.3,5.2c-0.2,0.5-0.4,1-0.7,1.6c-0.2,0.4-0.1,0.8,0.2,1.2  c0.3,0.3,0.7,0.5,1.1,0.4c0.7-0.2,1.4-0.3,2-0.4c2.5-0.5,5.1-0.9,7.6-1.6c2.7-0.8,5.3-2,7.9-3.2c-1.2,1.1-2.4,2.3-3.7,3.2  C465.6,260.3,462.5,261.4,459.4,262.3z M472.7,74.2c1.5,2.1,3.1,4.1,4.7,6c-0.4-2.9-0.8-5.7-0.8-8.6c0-3.7,0.6-7.4,1.7-10.9  c1.4-4.2,3.7-8,5.9-11.8c-0.8,2.3-1.6,4.7-2.4,7.1c-1.1,3.4-2,6.9-2.2,10.5c-0.4,5.2,0.5,10.4,1.4,15.6c3.4-1.6,6.9-3.2,9.8-5.6  c2.8-2.3,5.3-5.2,6.6-8.5c1.4-3.4,1.6-7.2,1.2-10.9c-0.7-7-3.4-13.5-6.3-19.8c-3.3-7.1-6.8-14.1-10.3-21c-0.3,2.6-0.7,5.2-1.3,7.6  c-1.3,4.5-3.7,8.6-6.3,12.6c-2.4,3.7-4.9,7.2-6.4,11.3c-1.6,4.4-2.1,9.3-1.2,13.9C467.7,66.2,470,70.4,472.7,74.2z M484.3,154.2  c2.3-4,3.6-8.7,3.8-13.2c0.3-7.1-2.1-14.1-4.8-20.8c-1.9-4.8-4-9.3-5.5-14.2c-1-3.2-1.7-6.5-2.5-9.9c-0.3,3.4-0.6,6.7-1.6,9.9  c-1.4,4.6-4.3,8.7-7.3,12.7c-2.8,3.8-5.7,7.4-7.5,11.6c-2.2,5-3,10.8-2.3,16.3c0.6,4.6,2.1,9,4.2,13c1.3,2.5,2.9,4.9,4.5,7.3  c-0.1-2.5-0.2-5-0.1-7.5c0.1-3.3,0.5-6.5,1.4-9.7c0.9-3.2,2.2-6.2,3.7-9.2c1.2-2.3,2.5-4.5,3.7-6.7c-1,2.5-1.9,4.9-2.8,7.4  c-1,3.2-1.9,6.4-2.5,9.7c-0.7,3.9-0.9,8-0.6,11.9c0.1,1.7,0.4,3.5,0.6,5.2c2.3-1.3,4.5-2.5,6.6-4C479,161.4,482.1,158.1,484.3,154.2  z M445,104.6c3.8,3.7,8,6.6,12.2,9.5c-0.7-1.8-1.5-3.6-2.3-5.4c-1.2-2.6-2.5-5.1-3.3-7.8c-1-3.4-1-7.1-0.6-10.7  c0.3-2.8,0.9-5.5,1.5-8.1c-0.2,2.8-0.3,5.7-0.2,8.5c0.2,3.7,1,7.3,2.2,10.8c1,2.9,2.3,5.6,4,8c0.9,1.4,2,2.6,3,3.9  c2.1-2.4,4.2-4.9,5.7-7.7c2.3-4.2,3.5-9.2,2.9-14c-0.6-5.1-3.1-9.8-6.1-14.1c-3.1-4.4-6.7-8.3-10.4-12.1  c-5.2-5.1-10.6-9.9-16.1-14.7c0.8,2.8,1.6,5.5,1.9,8.3c0.6,5.3-0.7,10.8-1.9,16.3c-1.1,5-2.2,10-1.3,14.8  C437.2,95.5,440.9,100.6,445,104.6z M424.1,177.9c1.3,3.3,3.2,6.4,5.6,9.1c3,3.3,6.6,5.9,10.7,7.6c4.4,1.8,9.1,2.6,13.8,3.3  c-0.5-2.8-1-5.5-1.8-8.2c-1-3.5-2.5-7-4.3-10.2c-1.3-2.3-2.7-4.5-4.3-6.5c-2.5-3.3-5.3-6.2-8.1-9.2c2.3,1.4,4.6,2.8,6.7,4.5  c2.6,2.1,4.9,4.6,6.9,7.4c2.1,3,3.8,6.2,5,9.5c1.3,3.5,2.2,7.2,3.1,10.9c1.5-5.9,3-11.8,2.8-17.8c-0.1-4.7-1.3-9.5-3.3-13.9  c-2.1-4.7-5.2-9-8.8-12.7c-3.5-3.6-7.6-6.6-11.8-9.6c-4-2.9-8.2-5.8-10.9-9.8c-1.4-2-2.3-4.3-3.3-6.6c-0.6,6.7-1.1,13.4-1.2,20.1  c-0.1,5.2,0.1,10.4,0.5,15.6C421.6,167.1,422.1,172.7,424.1,177.9z M451.2,304.7c-1.4-3.6-3-6.9-5-10.3c-1-1.7-2.1-3.4-3.7-4.7  c-0.5-0.4-1-0.7-1.6-1c-0.2-0.1-0.4-0.1-0.6,0.1c-0.2,0.1-0.3,0.4-0.2,0.6c0.5,2,0.9,4,1,6c0.1,2.1-0.1,4.3-0.6,6.4  c-0.5,2.3-1.2,4.5-2,6.7c-0.5,1.5-1.1,3-1.7,4.4c0.3-2.3,0.6-4.5,0.9-6.8c0.4-3,0.9-6.1,0.6-9.1c-0.2-1.8-0.8-3.7-1.2-5.5  c-0.1-0.6-0.3-1.1-0.4-1.7c-0.1-0.4-0.4-0.8-0.8-0.9c-0.4-0.1-0.9,0-1.2,0.3c-0.5,0.5-0.9,1-1.4,1.6c-1.8,1.9-3.6,3.7-5.2,5.8  c-1.7,2.2-3.1,4.8-4.5,7.3c0.3-1.6,0.6-3.3,1.1-4.8c1-3,2.8-5.7,4.8-8.3c0.8-1.1,1.7-2.1,2.5-3.1c0.2-0.3,0.2-0.6-0.1-0.8  c-0.6-0.5-1.2-1-2-1.1c-0.6-0.1-1.2-0.1-1.8,0.1c-0.9,0.3-1.7,0.9-2.5,1.6c-3.1,2.6-5.9,5.4-8.6,8.3c-3.9,4.2-7.6,8.8-10.4,14  c-2.6,5-4.4,10.6-4,16.2c0.5,6.1,3.5,12.2,8.1,16.1c4.5,3.7,10.4,5.3,16.4,5.4c6.6,0.1,13.3-1.6,18.3-5.7c3.5-2.8,6.3-6.8,7.7-11  c1.3-3.9,1.5-8.1,1.1-12.3C454.1,313.7,452.9,309,451.2,304.7z M439.9,286.3c8,0,14.5-6.5,14.5-14.5c0-8-6.5-14.5-14.5-14.5  s-14.5,6.5-14.5,14.5C425.4,279.8,431.9,286.3,439.9,286.3z M400.6,242.5c3.1,3.6,6.8,6.7,10.8,9.2c3.2,2.1,6.5,3.8,10.1,5.4  c1.8,0.8,3.7,1.5,5.7,1.6c0.6,0,1.2,0,1.9-0.1c0.2,0,0.4-0.2,0.5-0.4c0.1-0.2,0-0.4-0.2-0.6c-1.6-1.3-3.1-2.7-4.4-4.3  c-1.4-1.7-2.4-3.6-3.3-5.5c-1-2.1-1.7-4.4-2.3-6.6c-0.4-1.5-0.8-3-1.2-4.6c1.1,2,2.2,4,3.3,6c1.4,2.7,2.8,5.4,4.9,7.7  c1.3,1.4,2.8,2.5,4.2,3.8c0.4,0.4,0.9,0.8,1.3,1.1c0.3,0.3,0.8,0.4,1.2,0.2c0.4-0.2,0.7-0.5,0.7-1c0.1-0.7,0.1-1.4,0.2-2.1  c0.3-2.6,0.7-5.1,0.8-7.7c0.1-2.8-0.3-5.7-0.6-8.5c0.7,1.5,1.4,3,1.9,4.6c1,3,1.1,6.3,1,9.5c0,1.3-0.1,2.7-0.2,4  c0,0.3,0.2,0.6,0.5,0.6c0.8,0.1,1.6,0.1,2.3-0.2c0.5-0.2,1-0.6,1.4-1.1c0.6-0.8,0.8-1.8,1.1-2.7c0.9-4,1.6-7.8,2.1-11.8  c0.7-5.8,1-11.6,0.1-17.5c-0.8-5.6-2.6-11.2-6.3-15.5c-3.9-4.6-10-7.8-16-8.2c-5.8-0.4-11.6,1.8-16.4,5.3  c-5.4,3.8-9.8,9.1-11.5,15.3c-1.2,4.4-1.1,9.1,0.3,13.4C395.6,235.9,397.9,239.4,400.6,242.5z M420.4,284.7c1.3-1.5,2.6-3.1,3.3-4.9  c0.2-0.6,0.4-1.2,0.5-1.9c0-0.2-0.1-0.4-0.3-0.6c-0.2-0.1-0.4-0.1-0.6,0c-1.8,1.1-3.5,2.1-5.4,2.9c-2,0.8-4.2,1.2-6.3,1.5  c-2.3,0.3-4.7,0.3-7,0.1c-1.6-0.1-3.2-0.2-4.7-0.3c2.2-0.4,4.5-0.8,6.8-1.2c3-0.5,6-1,8.8-2.3c1.7-0.8,3.3-1.8,4.9-2.8  c0.5-0.3,1-0.6,1.5-0.9c0.4-0.2,0.6-0.6,0.6-1c0-0.5-0.3-0.8-0.7-1c-0.6-0.3-1.3-0.6-1.9-0.8c-2.4-1.1-4.7-2.3-7.1-3.1  c-2.7-1-5.5-1.5-8.3-2c1.6-0.2,3.3-0.4,4.9-0.4c3.2,0,6.3,0.9,9.3,2c1.3,0.5,2.5,0.9,3.8,1.4c0.3,0.1,0.6,0,0.7-0.3  c0.3-0.7,0.5-1.5,0.5-2.2c0-0.6-0.3-1.2-0.7-1.7c-0.6-0.8-1.4-1.3-2.3-1.8c-3.5-2.1-7-4-10.5-5.6c-5.3-2.4-10.8-4.5-16.6-5.5  c-5.6-1-11.4-0.9-16.6,1.2c-5.6,2.3-10.5,7.1-12.8,12.7c-2.1,5.4-1.8,11.6-0.1,17.3c1.9,6.3,5.7,12.1,11,15.7  c3.8,2.5,8.4,3.9,12.9,3.9c4.1,0,8.2-1.1,12-2.7c4.4-1.9,8.5-4.4,12.1-7.4C415.1,290.3,417.8,287.7,420.4,284.7z M410.8,186.8  c0,2.7,2.2,4.9,4.9,4.9c2.7,0,4.9-2.2,4.9-4.9c0-2.7-2.2-4.9-4.9-4.9C413,181.9,410.8,184.1,410.8,186.8z M404.2,175.6  c0,2.7,2.2,4.9,4.9,4.9c2.7,0,4.9-2.2,4.9-4.9s-2.2-4.9-4.9-4.9C406.4,170.7,404.2,172.9,404.2,175.6z M406.7,155  c2.7,0,4.9-2.2,4.9-4.9c0-2.7-2.2-4.9-4.9-4.9c-2.7,0-4.9,2.2-4.9,4.9C401.7,152.8,403.9,155,406.7,155z M406.6,168.4  c2.7,0,4.9-2.2,4.9-4.9c0-2.7-2.2-4.9-4.9-4.9c-2.7,0-4.9,2.2-4.9,4.9C401.6,166.2,403.8,168.4,406.6,168.4z M398.4,181.7  c1.6,4.7,3.8,9.2,6.2,13.7c0.7,1.3,2.1,1.7,3.4,1c1.3-0.7,1.8-2,1.2-3.3c-3-6-5.8-12-7.6-18.4c-1.2-4.4-1.9-9-2.1-13.6  c-0.2-4.8,0.2-9.6,0.5-14.4c0.4-5.7,0.7-11.5,1-17.2c-1.8,5.7-3.6,11.4-4.7,17.3c-1.1,5.8-1.6,11.7-1.3,17.6  C395.4,170.3,396.5,176.1,398.4,181.7z M393.7,326.5c-2.2,1.9-4.7,3.4-7.1,4.9c-2.6,1.6-5.3,3.2-8.6,3.6c-1.2,0.2-2.5,0.2-4.5-0.2  c3.1-0.8,6.2-1.6,9.1-2.9c3.9-1.8,7.3-4.4,10.4-7.5c1.9-1.9,3.6-3.9,5.3-5.9c-1.1-0.5-2.2-1.1-3.3-1.5c-3.8-1.4-8-1.6-12.1-1.2  c-3.4,0.3-6.8,1-9.7,2.5c-3.2,1.6-6,4.1-8.2,6.9c-3.1,3.8-5.2,8.1-7.5,12.4c-1.8,3.5-3.7,7-5.4,10.5c-1.6,3.4-3.1,6.9-4.6,10.4  c2.5-2,5-4,7.8-5.2c5.2-2.3,11.6-1.7,17.4-2.8c4.8-0.9,9.2-3,13.3-5.8c3.5-2.4,6.8-5.2,8.9-8.7c2.6-4.3,3.5-9.5,4.4-14.8  C397.4,323.2,395.6,324.9,393.7,326.5z M393,195c2.7,0,4.9-2.2,4.9-4.9c0-2.7-2.2-4.9-4.9-4.9c-2.7,0-4.9,2.2-4.9,4.9  C388.1,192.8,390.3,195,393,195z M389.2,154.6c2.7,0,4.9-2.2,4.9-4.9c0-2.7-2.2-4.9-4.9-4.9c-2.7,0-4.9,2.2-4.9,4.9  C384.2,152.4,386.4,154.6,389.2,154.6z M392.1,177.7c0-2.7-2.2-4.9-4.9-4.9c-2.7,0-4.9,2.2-4.9,4.9c0,2.7,2.2,4.9,4.9,4.9  C389.9,182.6,392.1,180.4,392.1,177.7z M386.4,167.6c2.7,0,4.9-2.2,4.9-4.9s-2.2-4.9-4.9-4.9s-4.9,2.2-4.9,4.9  S383.7,167.6,386.4,167.6z M367.9,199.5c3.6,7.2,7.7,14.1,12,20.9c1,1.6,2.6,2.5,4.5,2.4c1.9-0.1,3.4-1.1,4.3-2.8  c0.8-1.7,0.6-3.6-0.5-5.1c-2.6-3.8-5.1-7.7-7.5-11.6c-5.1-8.3-9.8-16.9-13.3-26c-4.3-11.4-6.8-23.6-7.4-35.8  c-0.5-9.7,0.1-19.5,0.9-29.2c0.5-6.8,1.1-13.7,1.7-20.5c-2.1,6.3-4.2,12.6-5.9,19c-2,7.2-3.6,14.5-4.2,21.8  c-1,11.6,0.6,23.4,3.5,34.8C358.8,178.6,362.8,189.3,367.9,199.5z M346.7,205.6c3,5.6,6.6,10.8,10.8,15.6c3.9,4.6,8.3,8.8,12.9,12.7  c3.7,3.1,7.5,6.1,11.4,9c2.4,1.5,5.2,0.9,6.8-1.5c1.6-2.4,1.1-5.2-1.3-6.9c-2.7-1.8-5.3-3.6-7.8-5.6c-3.1-2.4-6.1-5-9-7.6  c-6-5.4-11.9-11.1-16.4-17.7c-3.8-5.6-6.5-11.8-9.6-17.8c-2.8-5.6-5.8-11-8.9-16.4c0.8,4.7,1.7,9.5,2.8,14.1  C340.2,191.2,342.9,198.7,346.7,205.6z M360.7,307.9c0-3-2.4-5.5-5.4-5.5c-3,0-5.5,2.4-5.5,5.5s2.4,5.5,5.5,5.5  C358.2,313.3,360.7,310.9,360.7,307.9z M349.6,293c0,2.9,2.4,5.3,5.2,5.3c2.9,0,5.3-2.4,5.3-5.3c0-2.9-2.3-5.3-5.3-5.3  C352,287.7,349.6,290.1,349.6,293z M352.8,325.8c2.6,0,4.8-2.1,4.8-4.8c0-2.6-2.1-4.8-4.8-4.8s-4.8,2.1-4.8,4.8  C348.1,323.7,350.2,325.8,352.8,325.8z M348.8,274.8c-3,0-5.5,2.5-5.5,5.5c0,3,2.5,5.5,5.5,5.5c3,0,5.5-2.5,5.5-5.5  C354.3,277.3,351.9,274.8,348.8,274.8z M343.7,290.1c-1.1-3.7-2.6-7.4-4-11c-0.5-1.3-1-2.5-1.6-3.8c-0.6-1.5-2.1-2.1-3.6-1.5  c-1.5,0.6-2.1,2.1-1.5,3.6c1,2.2,2,4.4,3.1,6.6c1.8,4,3.7,8,4.9,12.2c1.4,4.8,1.8,9.8,2,14.8c0.1,6.2-0.3,12.3-1.2,18.4  c-0.4,2.7-0.9,5.3-1.4,7.9c1.6-3.5,3.2-7,4.3-10.6c1.9-6.2,2.3-12.8,2-19.4C346.4,301.5,345.4,295.7,343.7,290.1z M335.7,315.2  c-2.7,0-5,2.2-5,5c0,2.7,2.2,5,5,5s5-2.2,5-5C340.6,317.4,338.4,315.2,335.7,315.2z M331,308.3c0,2.6,2.1,4.7,4.7,4.7  s4.7-2.1,4.7-4.7c0-2.6-2.1-4.7-4.7-4.7S331,305.7,331,308.3z M338.2,295.9c0-2.7-2.2-4.9-4.9-4.9c-2.7,0-4.9,2.2-4.9,4.9  c0,2.7,2.2,4.9,4.9,4.9C336.1,300.8,338.2,298.6,338.2,295.9z M331.7,284.1c0-2.9-2.4-5.3-5.2-5.3c-2.9,0-5.3,2.3-5.3,5.3  c0,2.9,2.3,5.2,5.3,5.2C329.3,289.3,331.7,287,331.7,284.1z"
     id="flower1"
     inkscape:label="#path4689" /><path
     class="st3"
     d="M879.5,641.5c-1.9,4.6-4.9,8.8-8.9,12.2c-3.1,2.6-6.8,4.7-10.7,5.9c-3.8,1.2-7.9,1.5-11.3,0  c-2.5-1.1-4.7-3.1-6-5.5c-1.5-2.8-1.8-5.9-1.3-9.1c0.4-2.7,1.3-5.5,2.8-7.7c1.1-1.7,2.6-3.2,5.7-6c-1.5,3.9-1.9,6.4-1.6,9.1  c0.2,2.1,0.8,4.3,2,5.8c1.7,2,4.6,2.7,7.3,2.4c3.6-0.4,6.5-2.8,8.9-5.6c2.6-3,4.6-6.5,5.5-10.4c0.9-3.9,0.6-8.2-1.1-11.8  c-1.3-2.6-3.4-4.9-5.9-6.5c-4.7-3-10.7-3.4-16.3-2.6c-9.1,1.3-17.2,5.6-24.1,11.3c-7.2,5.9-13,13.3-19,20.5  c-5.8,6.9-11.8,13.6-17.8,20.3c2.2-0.7,4.3-1.4,6.6-1.5c2.6-0.2,5.2,0.3,7.5,1.6c1.6,0.9,2.9,2.2,3.8,3.8c1.4,2.6,1.5,6.1,0.3,8.7  c-0.7,1.4-1.7,2.5-2.9,3.3c-1.2,0.8-2.5,1.3-3.9,1.3c-1.1,0-2.1-0.5-3-1.2c-0.9-0.8-1.7-1.8-1.9-2.9c-0.3-1.5,0.3-3,0.9-4.5  c0.3,0.8,0.4,1.9,0.8,2.7c0.4,0.8,1,1.4,1.7,1.5c0.9,0.2,1.8-0.3,2.5-1.1c0.8-0.9,0.9-2.2,0.7-3.4c-0.2-1.3-0.9-2.4-1.8-3.3  c-1.7-1.6-4.2-2.3-6.5-2.3c-3.7,0-7.1,1.4-10,2.8c-4.5,2.2-7.9,4.3-11,6.2c-0.4,0.3-0.9,0.5-1.4,0.8c-0.9,0.5-1.8,0.3-2.5-0.5  c-0.6-0.8-0.6-1.8,0.1-2.5c1.5-1.5,1.6-1.6,1.7-1.8c5.1-5,11.4-10.4,16.6-16.6c6.8-8.1,12-17.6,18.3-26.4  c6.3-8.7,13.6-16.7,23.8-22.5c9.1-5.2,20.3-8.6,30.1-6.7c5.9,1.2,11.4,4.3,15.4,9.1c4.5,5.4,7.4,12.9,7.9,19.7  C881.9,633,881.2,637.4,879.5,641.5z M787.8,685.3c-6.9-2.7-14.4-4.2-21.7-2.9c-6.4,1.1-12.6,4.3-16.8,9c-2.8,3.2-4.7,7.1-6.5,11  c2.9-3.2,5.8-6.5,9.4-8.4c3.8-2,8.4-2.6,12.8-2.3c4.6,0.3,9.1,1.5,13.1,3.5c2.3,1.1,4.4,2.4,6.5,3.7c-5.3-1.3-10.7-2.6-16.2-2.1  c-4.2,0.3-8.5,1.7-11.6,4.3c-2.3,2-4,4.8-6.3,6.9c-2.3,2.2-5.2,3.6-8.1,5.1c5.2,3.8,10.3,7.5,16.4,10.6c3.8,1.9,8.1,3.6,12,2.9  c2.7-0.5,5.3-2.1,7.7-3.9c4-3,7.4-6.3,11-9.5c4-3.6,8.3-7.2,13.3-9c3.2-1.2,6.7-1.5,10.3-1.9c-3.4-3.1-6.8-6.1-10.5-8.8  C798.1,690.1,793.1,687.4,787.8,685.3z M760.9,727.4c-3.1-2.1-6.5-3.4-10-4.6c-4-1.4-8.2-2.8-12.3-4.1c2.9,2.1,5.8,4.3,8.3,7  c2.4,2.7,4.4,5.9,5.1,9.3c0.7,3.5,0.2,7.3-0.6,10.9c-0.5,2.2-1.1,4.4-1.7,6.6c-0.1-3.3-0.1-6.6-1-9.8c-1-4-3.3-7.7-6.2-10.5  c-2.5-2.3-5.5-4-8.5-5.5c-2.2-1-4.4-2-6.6-2.9c-1.6,2.5-3.3,5-4.9,7.6c-1.5,2.4-2.9,4.9-3.6,7.6c-0.7,2.9-0.7,6,0.3,8.8  c1.4,4,4.7,7.2,8.4,9.5c2.9,1.8,5.9,3,8.5,5.1c2.2,1.8,4,4.2,4.9,6.8c1.2,3.5,0.8,7.3,0.4,11.1c3.4-3.4,6.9-6.9,10.3-10.3  c3.6-3.6,7.3-7.2,10.4-11.3c2.6-3.5,4.8-7.4,6-11.8c1-3.4,1.3-7.1,0.3-10.3C767.3,732.8,764.3,729.6,760.9,727.4z M756.9,617.8  c-8.3,5.2-16.6,10.5-24.3,16.6c-7.4,5.9-14.3,12.7-18.4,21.5c-2.5,5.4-4.1,11.6-2.8,17.2c0.2,1,0.5,1.9,0.9,2.9h0  c0.5,1.4,1.2,2.8,2,4.1c1.7,2.9,3.8,5.5,6.3,7.7c0.7,0.6,1.3,1.1,2,1.7c0.8,0.6,1.8,0.9,2.8,0.9c0.3,0,0.6,0,1-0.1  c1.3-0.3,2.4-1.1,3.1-2.3c0.6-1.1,1.1-2.2,1.3-3.4c0.4-2.1,0.1-4.5-0.6-6.6c-0.9-3-2.3-5.8-2.8-8.8c-0.4-2.5,0-5.2,0.8-7.8  c1.1-3.7,3-7.2,5.9-9.5c1.5-1.2,3.2-2,5-2.8c-1.8,2.1-3.5,4.1-5,6.5c-1.7,2.7-3,5.7-3,8.7c0,3.7,2,7.2,3.3,10.9c1.1,3,1.7,6,1.3,8.9  c-0.3,1.9-1.1,3.7-2.1,5.4c-0.3,0.5-0.2,1.1,0.1,1.5c0.4,0.4,0.9,0.6,1.5,0.4c5.2-1.6,10.3-3.4,15.1-6.3c4.5-2.7,8.8-6.3,10.8-10.9  c2-4.4,2-9.6,1.3-14.5c-0.9-6.3-2.9-11.9-4.8-18c-1.7-5.4-3.3-11.1-2.6-16.5C755.3,622.8,756.1,620.3,756.9,617.8z M718,708.8  c0.1,1.7,0.3,3.3,1.1,4.8c0.8,1.5,2.1,2.9,3.6,3.6c2.4,1.2,5.4,0.9,8.1,0c2.8-0.9,5.3-2.4,6.7-4.7c1.9-3.1,1.6-7.5,0-11.3  c-1.6-3.8-4.5-6.9-8-8c-1.3-0.4-2.7-0.6-4.1-0.5c-2.3,0.1-4.6,0.8-6.7,2c-3.7,2.2-6.5,5.8-7.2,10c-0.6,3.2,0,6.8,1.8,9.4  c0.9,1.4,2.2,2.5,3.6,3.6c0.8,0.6,1.7,1.2,2.6,1.8c-1.3-2.2-2.5-4.4-3.2-7c-0.5-2-0.6-4.1,0-6c0.3-1.1,0.9-2.1,1.9-2.9  C718.1,705.3,718,707,718,708.8z M682.2,622.1c2.8,8.4,6.8,16.4,11.5,23.8c1.7,2.7,3.5,5.3,8.3,12.9c0.5,0.8,1.5,1.1,2.4,0.7  c0.9-0.4,1.3-1.3,1-2.3c-2.9-10.1-4.3-14.4-5.3-18.8c-1.1-5-1.8-10.2-1.9-15.2c-0.1-3,0.1-5.8,1.4-8.8c0.9-2.1,2.5-4.3,5.1-4.6  c1-0.1,2.1,0.1,2.9,0.6c1.3,0.9,1.8,2.7,1.5,4c-0.2,0.9-0.8,1.6-1.5,1.6c-0.7,0-1.4-0.6-1.8-1.4c-0.4-0.8-0.4-1.9-0.5-2.8  c-0.6,0.8-1.3,1.5-1.6,2.5c-0.6,1.6-0.1,3.7,0.8,5c0.6,0.9,1.3,1.4,2.2,1.8c1.2,0.4,2.6,0.5,3.9,0.1c1.5-0.4,2.7-1.5,3.5-2.8  c0.9-1.6,1-3.6,0.7-5.5c-0.4-2.1-1.4-4.1-2.8-5.7c-1.5-1.6-3.5-2.8-5.6-3.1c-2.3-0.3-4.8,0.4-6.7,1.8c-2.2,1.5-3.7,3.9-4.5,6.4  c-1.1,3.2-1.1,6.6-1,10c0.1,3.7,0.3,7.3,0.7,10.9c0.4,3.2,1,6.4,1.5,9.6c-4.7-11.1-9.4-22.3-10.8-34c-0.8-6.9-0.5-13.9,0.5-20.9  c1-6.9,2.7-13.6,5.7-19.8c2.6-5.4,6.2-10.3,10.9-14.3c3.3-2.8,7-5.1,11.2-5.4c2.8-0.2,5.8,0.5,8.1,2c2.8,1.9,4.5,5,5.6,8.3  c1.3,4,1.5,8.2,0.4,12.3c-0.9,3.4-2.8,6.8-6,8.4c-2.2,1.2-5.1,1.5-7.2,0.5c-2.1-1-3.5-3.2-4.3-5.5c-1.2-3.2-1.4-6.5-1.2-9.7  c0.1-2.1,0.5-4.3,0.8-6.4c-2,2.5-4.1,5-5.4,7.8c-1.6,3.3-2.1,7.1-1.2,11c0.7,3,2.2,6.1,4.8,8.4c2.9,2.5,7.1,4,10.9,3.8  c5-0.1,9.3-3,12.4-6.1c3-3.1,4.7-6.5,5.6-10.8c1.1-5.1,0.9-11.4-1.6-17.2c-2.5-5.6-7.1-10.7-12.4-13.2c-6-2.7-12.8-2.1-18.5,0.1  c-6.7,2.5-12,7.1-16.1,12.4c-4.4,5.8-7.5,12.5-9.3,19.5c-2,8-2.3,16.3-1.6,24.5C677.9,606.7,679.6,614.6,682.2,622.1z M717,764.1  c-1-0.1-1.8,0.4-2.1,1.4c-2,7.1-4.5,11-7.2,14.3c-3.4,4.2-7.3,7.4-12.1,9.6c-3.7,1.7-8,2.8-12.5,3.1c6.3-4.6,12.7-9,18-13.8  c3.5-3.1,6.6-6.4,9-10.4c0.9-1.6,1.7-3.2,2.5-5.7c0.3-0.9,0-1.8-0.9-2.3c-0.9-0.5-1.8-0.2-2.4,0.6c-2.3,3.2-4.4,5.8-6.6,8.2  c-5.5,6-11.7,11.4-18.2,16.4c-3.2,2.4-6.4,4.7-9.7,7c-2.1-0.2-4.2-0.6-6.3-1.2c-4.1-1.1-8-2.9-11.3-5.6c-2.8-2.3-5.1-5.4-5.8-9.1  c-0.6-3.2,0-6.9,2.3-9c1.3-1.2,3.1-2,4.8-1.9c2.2,0.1,4.2,1.5,5.6,3.3c1,1.3,1.7,2.9,1.8,4.5c0.1,1.5-0.3,3.1-0.6,4.6  c1.3-0.9,2.6-1.8,3.2-3c1.2-2.2,0.4-5.3-0.9-7.9c-1.3-2.6-3.1-4.5-5.3-5.8c-2.6-1.5-5.6-2-8.6-1.8c-4.5,0.3-9,2.1-12,5.4  c-2.2,2.4-3.6,5.6-3.8,8.9c-0.2,3,0.6,6.2,2,8.9c1.8,3.3,4.6,6,7.8,8.1c5.4,3.5,12,5.6,18.2,6.6c0.5,0.1,0.9,0.2,1.4,0.2  c-2.5,1.8-5.1,3.6-7.6,5.5c-9.7,7.4-18.7,16-24.8,26.5c-4.2,7.3-6.9,15.5-7.1,24.1c-0.2,9,2.5,18.6,8.9,24.8c3.6,3.5,8.4,6,13.4,6.7  c5.4,0.7,11-0.6,15.7-3.4c4.8-2.9,8.6-7.5,11-12.5c2.1-4.5,3.1-9.3,3.1-14.3c0-5-0.9-10.1-3.7-14.1c-2.8-3.9-7.3-6.8-12.1-7.5  c-4.1-0.6-8.4,0.5-11.9,2.9c-3.7,2.5-6.5,6.6-7.3,10.9c-0.6,3-0.1,6.2,1.1,9.2c1.2,3,3.3,5.9,6.2,7c2.8,1.1,6.5,0.6,9-1.3  c2.1-1.6,3.2-4.2,3.3-6.9c0.1-2.8-1-5.8-3.1-7.5c-1.2-1.1-2.8-1.7-4.3-2.3c1.7,2.4,3.5,4.8,2.9,7.6c-0.2,1.1-0.8,2.3-1.8,2.8  c-1.1,0.6-2.6,0.4-3.7-0.3c-2.2-1.3-2.8-4.3-2.6-7c0.2-3,1.3-5.8,3.5-7.5c2-1.7,5-2.5,7.6-2c3.1,0.5,5.8,2.8,7.5,5.5  c2.5,3.8,3.1,8.6,2.6,13c-0.5,4.2-1.9,8.2-4.4,11.7c-3.1,4.2-7.9,7.6-12.9,8.1c-3.6,0.4-7.4-0.7-10.6-2.6c-3.9-2.4-6.9-6.1-8.6-10.2  c-1.9-4.6-2.2-9.8-1.3-14.7c0.9-5,3-9.7,5.6-14c4.1-6.8,9.3-12.9,14.7-18.7c5.6-6,11.3-11.8,17.8-17.1c0.6-0.5,1.3-1,1.9-1.6  c2.4,0,4.9-0.1,7.3-0.4c3-0.3,6.1-0.8,9.2-1.7c6-1.7,11.9-4.9,16.7-9.1c3.4-3,6.3-6.7,8-10.7c1.1-2.7,1.7-5.5,1.8-10.2  C718.7,765,718,764.2,717,764.1z M691.5,740.1c1.3-2.2,1.8-4.9,2.1-7.6c0.3-3,0.4-6,1.5-8.7c1-2.6,3.1-4.8,5.3-6.6  c2.4-1.9,5-3.3,7.6-4.7c-3.6-0.4-7.1-0.9-10.8-1.2c-1.8-0.2-3.7-0.3-5.5-0.3c-2.7,0-5.4,0.2-8,1c-2.5,0.7-4.9,2-6.7,3.8  c-2.4,2.4-3.8,5.9-4.4,9.3c-0.8,4.4-0.5,8.9-1.2,13.2c-0.5,3.1-1.5,6.2-2.9,9.1c-0.9,1.8-1.9,3.5-3.2,5c-1,1.1-2.1,2.1-3.3,3.1  c3.2,0.9,6.3,1.7,9.6,2.4c5.5,1.1,11.1,1.5,16.7,1.2c5-0.3,10-1.3,14.6-3.5c3.3-1.6,6.5-3.9,8.6-6.8c2-2.8,3.2-6.1,4.2-9.5  c0.8-2.8,1.4-5.6,1.4-8.5c0-3.5-0.9-7.1-1.8-10.6c-2,0.1-4,0.1-5.9,0.5c-2.6,0.6-5.2,1.9-6.9,3.8c-1.4,1.5-2.3,3.5-3,5.4  c-0.8,2.4-1.3,4.9-2.3,7.2c-0.9,2.1-2.3,4.1-4.1,5.6c-2.3,1.8-5.1,2.7-8,3.6C687.5,744.5,690,742.6,691.5,740.1z M667.4,691.3  c2.5,4.4,5.7,8.4,9.7,11.7c3.2,2.6,6.9,4.7,10.8,5.5c1.3,0.2,2.5,0.3,3.8,0.3c2.8,0,5.7-0.5,8.4-1.3c2.9-0.8,5.7-2,8.4-3.1  c-2.4-0.2-4.9-0.4-7.3-0.9c-3.3-0.7-6.5-1.9-9.2-3.9c-2.4-1.7-4.4-3.9-6.1-6.2c-2.3-3-4.1-6.3-5.9-9.5c2.3,2.9,4.5,5.8,7.3,8.1  c2.6,2.2,5.7,4,9,5c3.6,1.1,7.5,1.3,11.1,0.6c2.5-0.5,4.9-1.4,7.3-2.3c-0.7-3.7-1.5-7.3-2.3-11c-0.6-2.6-1.2-5.1-2-7.6  c-0.5-1.5-1.2-2.9-2-4.3c-2.2-3.7-5.5-6.9-9.4-8.6c-4.2-1.8-8.9-2-13.5-2.3c-5-0.3-9.8-0.8-14.6-1.8c-2.9-0.6-5.9-1.3-8.6-2.5  c-2.2-1-4.2-2.3-6.2-3.6c1,4.8,1.9,9.5,3,14.3C661.1,676.1,663.4,684.2,667.4,691.3z"
     id="path4691" /><g
     id="MTEXT"><text
       transform="matrix(1 0 0 1 333.724 642.1972)"
       class="st4 st5"
       id="text4693">freepatternsarea.com</text>
</g><path
     class="st6"
     d="M205.3,388c-1.8,5.2-4.9,10.3-10.2,11.9c-3.3,1-7.5,0.6-9.7-1.8c-1.5-1.6-2-4.1-2.2-6.4c-0.2-3,0.3-5.8,0.9-8.5  c0.7-3.5,1.5-6.9,2.1-10.5c1-5.4,1.6-10.8,1.2-16.2c-0.2-2.8-0.7-5.6-1.2-8.4c4.1,0.8,8.2,1.2,12.4,1c2.3,3.3,4.6,6.6,6.2,10.3  c1.8,4.1,2.6,8.7,2.8,13.1C207.8,377.9,207.1,382.9,205.3,388z M192.9,335.5c0.6,0,1.3-0.1,1.9-0.1c11.2-9.8,12.3-26.8,2.5-37.9  c-9.8-11.2-26.8-12.3-38-2.5c-1.8,1.6-3.3,3.4-4.7,5.3C155.5,320.6,172.6,336.4,192.9,335.5z M179.9,424.1c-3.2-2.7-7-4.7-10.8-6.3  c-5-2.1-10.2-3.6-15.5-3.9c-5.1-0.2-10.3,0.7-15,2.8c-4.3,2-8.2,5-11,8.7c-1.8,2.3-3.3,4.8-4.7,7.4c-0.3,0.5-0.2,1.1,0.3,1.5  c1.8,1.6,3.7,3.2,5.8,4.6c2.3,1.5,4.9,2.8,7.7,3.5c3.2,0.8,6.5,0.7,9.8,0.3c3.5-0.5,6.9-1.5,9.7-3.3c2.3-1.5,4.3-3.6,6.1-6  c1.1-1.5,2.3-3,3.8-3.8c1.3-0.6,2.8-0.6,4.3-0.5c2.9,0.1,5.7,0.4,8.5,0.5c1.1,0.1,2.2,0.1,3.3,0.2c0.6,0,1.1-0.3,1.4-0.9  c0.3-0.6,0.2-1.2-0.3-1.6C182.2,426.2,181.1,425.1,179.9,424.1z M153.6,364.4c-2.2,4-4.2,8.1-5.7,12.4c-1.4,4-2.3,8.1-1.3,12.4  c0.8,3.6,3.1,7.3,6.4,8.5c2.3,0.9,5.2,0.5,7.6-0.4c5.5-2.2,8.6-7.8,11.1-13.3c2.4-5.2,4.1-10.2,5.5-15.4c1.1-4.1,2-8.3,2.6-12.6  c0.5-3,0.8-6.1,1.1-9.1c-3.9-1.2-7.7-2.9-11.2-5c-2.7,2.9-5.3,5.8-7.7,9C158.8,355,156.1,359.7,153.6,364.4z M128.1,347  c-4.1,3.6-7.9,7.5-10.5,12.6c-1.7,3.3-2.9,7.1-1.7,10.3c0.8,2.2,2.6,4.2,4.8,5.2c3.3,1.6,7.4,1.1,10.9-0.2c7.8-2.8,13.1-9.6,18-16  c4-5.3,7.8-10.4,11.3-16.1c1-1.7,2-3.4,2.6-5.3c-3.4-2.7-6.5-5.9-9.1-9.4c-4,2.5-8.1,5-12,7.6C137.4,339.2,132.6,342.9,128.1,347z   M111.7,316.6c-4.2,1.5-8.3,3.2-12,5.8c-2.8,2-5.4,4.5-6.3,7.9c-0.6,2.3-0.5,4.9,0.6,6.8c1.7,3.1,5.9,4.4,9.8,4.8  c5,0.6,9.5-0.3,13.9-1.6c5.8-1.8,11.4-4.7,16.7-7.9c3.1-1.9,6.1-4,9.1-6.2c2.2-1.6,4.3-3.4,6.5-5.1c-1.9-3.5-3.3-7.2-4.4-11  c-5.8,0.5-11.6,1-17.4,2C122.6,313.2,117.1,314.7,111.7,316.6z M107,304.8c6.3-1.1,11.6-1.9,17.2-1.9c6.5,0,13.3,1,20.2,2  c-0.7-4.1-0.9-8.3-0.6-12.5c-3.8-2.3-7.6-4.7-11.8-6.4c-5.1-2.1-10.6-3.3-16.2-3.1c-4.3,0.2-8.5,1.2-12.2,3.1  c-2.9,1.5-5.4,3.6-7.7,6.2c-1.9,2.1-3.6,4.5-3.5,7.1c0.1,1.5,0.7,3.2,1.7,4.3C96.9,306.7,102.2,305.7,107,304.8z M135,383.7  c0.2-0.4,0.2-0.8,0-1.3c-0.2-0.4-0.5-0.7-0.9-0.9c-0.3-0.1-0.5-0.2-0.8-0.3c-0.2-0.1-0.5-0.2-0.7-0.3c-0.4-0.2-0.8-0.2-1.2-0.1  c-0.4,0.1-0.7,0.5-0.9,0.8c-2.3,5.1-4.6,10.2-6.6,15.4c-3.1,7.8-5.8,15.8-8.2,23.9c-3.3,11.3-6,22.7-7.9,34.3  c-2.4,13.9-3.7,28-4.2,42c-0.6,16-0.3,32.1,0.2,48.1c0,0.9,0.6,1.5,1.5,1.5c0.5,0,0.9,0.1,1.4,0c0.3,0,0.5,0,0.8,0  c0.9-0.1,1.5-0.7,1.5-1.6c0-5.3,0-10.6,0-15.9c0-10.9-0.1-21.7,0.4-32.5c0.5-11.4,1.5-22.8,3.2-34.1c2-14.2,5-28.4,9-42.2  c2.7-9.1,5.8-18.1,9.4-26.9C132.1,390.4,133.5,387.1,135,383.7z M105.6,429c0.7-0.3,1.2-0.9,1.4-1.7c0.9-4.3,1.8-8.5,2.6-12.9  c0.8-4.4,1.4-8.8,0.6-13.1c-0.6-3.5-2.2-6.9-4.2-10c-2.1-3.3-4.6-6.4-7.7-8.6c-3.2-2.3-7.1-3.7-11-5c-3.5-1.2-7.1-2.3-10.6-3.5  c0.9,1.4,1.8,2.7,2.8,4.1c1,1.4,2.1,2.8,2.6,4.3c0.7,2.1,0.2,4.6-0.4,7c-0.8,3.4-1.7,6.6-2.2,10c-0.7,4.5-0.7,9.5,1.4,13.3  c1.8,3.3,5.2,5.6,8.5,7.7c4.6,3,9.2,5.6,13.8,8.1C104.1,429.3,104.9,429.3,105.6,429z"
     id="daisy"
     inkscape:label="#path4696" /><path
     class="st2"
     d="M851.4,129.6c-0.8,1.7-2.3,3.1-3.8,4.4c-1.2,1.1-2.5,2.1-3.9,2.7c-2.8,1.2-6.1,0.6-9.3,0  c-4.2-0.7-8.1-1.4-12.1-2.3c-3.8-0.9-7.6-1.9-11.5-2.8c-3.8-0.9-7.6-1.6-11.5-1.7c-3.5-0.1-7.1,0.3-10.6,1.2c-1.8,0.5-3.6,1-5.4,1.4  c-0.7,0.1-1.4,0.2-2.2,0.3c-0.7,0-1.4,0.1-2.1,0.1c-1.2,0-2.5-0.1-3.7-0.2c2.1-1.4,4.2-2.8,6.4-4.1c1.9-1.1,4-2.2,6-3.1  c1.2-0.6,2.5-1.1,3.7-1.6c3.9-1.6,7.9-2.8,12-3.7c4.4-1,9-1.6,13.4-1.5c3,0.1,6,0.4,9.2,0.5c2,0.1,4.2,0.1,5.8-1.1  c0.9-0.6,1.7-1.7,2-2.7c0.3-1.3,0-2.6-0.5-3.9c-0.5-1.3-1-2.5-1.7-3.6c-0.7-1.2-1.6-2.3-2.4-3.4c2.5,0.7,5,1.5,7.4,2.5  c3.1,1.4,5.9,3.4,8.4,5.8c1.6,1.5,3.1,3.2,4.3,5.1c1,1.6,1.9,3.2,2.4,5.1C852.3,125,852.3,127.6,851.4,129.6z M820.9,54  c0.7,0.9,1.4,1.9,2.1,2.9c1.1,1.7,2,3.6,2.6,5.6c1.2,3.8,1.7,7.8,1.6,11.7c-0.1,4.3-0.9,8.6-2.1,12.7c-1,3.6-2.3,7.1-3.9,10.5  c-1.8,3.5-4,6.9-6.7,9.7c-1.8,1.9-3.8,3.6-5.9,5.3c3-1.2,5.9-2.4,8.5-4.1c2.9-2,5.3-4.6,7.5-7.5c3.6-4.8,6.3-10.2,8.3-15.8  c1.6-4.6,2.8-9.3,3.2-14.1c0.3-3.1,0.2-6.2,0.6-9.3c0.4-2.8,1.2-5.6,2-8.3c0.6-2,1.3-4.1,2-6.1c-1.1,0.4-2.1,0.8-3.2,1.3  c-2.2,0.9-4.3,2-6.5,2.9c-1.3,0.6-2.6,1.1-4,1.4c-1.2,0.3-2.4,0.5-3.7,0.4c-1.2-0.1-2.3-0.5-3.4-0.9C820.1,52.9,820.5,53.4,820.9,54  z M810.3,213.2c-5.5-1.1-11.1-2-16.7-2.2c-4.4-0.1-8.9,0.1-13.3,0.9c-3.8,0.7-7.6,1.7-11.1,3.5c-2.1,1.1-4.1,2.4-5.9,4  c-1.5,1.3-2.9,2.8-4.1,4.4c-0.9,1.2-1.7,2.6-2.5,3.9c1.7-0.5,3.4-1,5.1-1.5c3.4-1,6.9-1.9,10.4-2.7c3-0.6,6-1.2,9-1.5  c3.1-0.4,6.3-0.5,9.4-0.2c1.8,0.2,3.7,0.5,5.4,1.1c1.3,0.4,2.5,0.9,3.5,1.4c-0.6,0.7-1.2,1.5-1.9,2.2c-1.4,1.5-3.2,2.7-5,3.8  c-2.8,1.7-5.7,3-8.8,4c-2.5,0.8-5.1,1.3-7.6,1.5c-2.4,0.2-4.8,0.2-7.2-0.1c-2.1-0.2-4.2-0.6-6.1-1.3c-1.8-0.7-3.4-1.7-4.9-2.9  c-1.2-1-2.4-2.1-3.3-3.4c-1.2-1.8-2-3.9-2.4-6.1c-0.6-2.9-0.7-5.9-0.8-8.9c-0.1-5.9-0.1-11.9,0.4-17.8c0.6-6.4,1.8-12.7,3.6-18.9  c1.4-4.8,3.2-9.5,5.3-14c1.9-4.2,4-8.3,6.5-12.1c2.1-3.3,4.6-6.4,7.2-9.3c2.1-2.3,4.3-4.4,6.6-6.5c-1.4,0.6-2.8,1.1-4.2,1.6  c-2,0.7-4.1,1.2-6.2,1.4c-2.6,0.3-5.3,0.3-7.8-0.3c-2-0.4-3.9-1.1-5.8-2c-1.3-0.6-2.5-1.4-3.6-2.3c-1-0.8-1.9-1.8-2.8-2.7  c0.2,1.2,0.4,2.4,0.7,3.6c0.2,1,0.5,2,1,2.9c0.7,1.6,1.7,3.1,2.4,4.6c0.9,1.9,1.4,4,1.7,6.1c0.5,3.8,0.3,7.7-0.2,11.5  c-0.6,5-1.8,9.9-3.1,14.8c-1.4,4.9-2.9,9.7-4,14.6c-1,4.9-1.6,9.9-1.7,14.9c-0.2,5.9,0.1,11.7,0.4,17.6c0.3,3.8,0.6,7.7,1.7,11.3  c0.8,2.5,2,4.9,3.5,7.1c1.5,2.1,3.3,4,5.4,5.6c2.5,1.9,5.3,3.2,8.3,4.2c2.7,0.9,5.5,1.4,8.3,1.7c4.1,0.4,8.4,0.4,12.2-1.1  c1.9-0.7,3.6-1.8,5.3-3c1.2-0.9,2.3-1.8,3.5-2.7c2.9-2.3,5.8-4.5,8.9-6.6c3.7-2.6,7.6-5.1,11.6-7.2c4.3-2.3,8.9-4.1,13.6-5.2  c3.1-0.8,6.3-1.2,9.5-1.7c-3.4-1.8-6.9-3.5-10.5-5C823.1,216,816.7,214.5,810.3,213.2z M811.3,43.3c-2.8,2.4-6.4,3.8-9.9,4.9  c-3.5,1-7,1.7-10.6,2.5c-2.6,0.6-5.3,1.2-7.7,2.3c-1.8,0.8-3.5,1.9-4.8,3.3c-1,1-1.8,2.1-2.4,3.3c-0.5,1-0.9,2-1.4,3  c0.1,0.3,0.1,0.5,0.2,0.8c0.1,0.3,0.3,0.6,0.4,0.9c0.3,0.8,0.1,1.7,0.1,2.5c-0.1,1,0,2,0,2.9c1.1-1.2,2.2-2.4,3.5-3.3  c1.3-0.9,2.8-1.5,4.3-1.9c2.5-0.8,5.1-1.3,7.7-1.7c2.8-0.5,5.5-0.9,8.3-1.5c2.4-0.5,4.8-1,6.8-2.3c1.1-0.7,2.1-1.5,3-2.3  c0.3,3.6,0.6,7.2,0.6,10.8c0,5-0.5,9.9-1.5,14.8c-1.2,6.2-3.1,12.3-6.2,17.8c-2,3.5-4.5,6.8-7.5,9.6c-2.7,2.4-5.8,4.4-9.1,5.9  c-3.5,1.5-7.2,2.3-10.9,3.2c2.3,0.3,4.5,0.6,6.8,0.8c2.7,0.2,5.4,0.4,8,0c0.7-0.1,1.3-0.2,2-0.4c2.9-0.7,5.7-2.3,8.2-4  c3.5-2.4,6.6-5.2,9.5-8.3c2.7-3,5.3-6.2,7-9.8c1.8-3.8,2.7-8,3.2-12.3c0.6-4.8,0.5-9.6,0.5-14.4c0-3.7,0-7.4-0.2-11.2  c-0.3-4.7-0.8-9.5-0.5-14.1c0.2-2.8,0.7-5.5,0.8-8.4c0-1.3,0-2.7,0.5-3.9c0.4-1.1,1.3-2.1,1.5-3.2c0.2-0.9,0-1.9-0.3-2.8  c-0.5,0.9-0.9,1.8-1.4,2.7c-0.2,0.4-0.4,0.7-0.5,1.1c-1,2.2-2,4.4-3.2,6.5C814.9,39.4,813.3,41.6,811.3,43.3z M783.2,24.2  c-0.2,0.3-0.5,0.7-0.7,1c-1,1.4-2.3,2.6-3.7,3.6c-1.7,1.3-3.6,2.4-5.4,3.7c-0.2,0.1-0.3,0.2-0.4,0.3c9.7-2.1,18.9,1.7,24.2,10.1  c0.2-0.1,0.4-0.2,0.5-0.3c3.3-2.1,6.4-4.5,9.7-6.6c2.7-1.7,5.6-3.2,8.2-4.9c1.1-0.7,2.1-1.4,3.1-2.1c-1.8,0.5-3.6,0.9-5.4,1.2  c-2.5,0.4-5.2,0.4-7.7,0.2c-2.7-0.2-5.4-0.6-8-1.3c-2.1-0.5-4.1-1.2-6.1-2.1c-1.5-0.6-3-1.4-4.5-2.1c-1.1-0.6-2.2-1.1-3.3-1.7  C783.6,23.5,783.4,23.9,783.2,24.2z M722,100.4c-1.7-1.2-3.3-2.6-4.6-4.2c-1.7-2.1-3.1-4.5-4.4-6.9c0.3,1.6,0.6,3.2,1.1,4.8  c0.7,2.3,1.7,4.4,2.9,6.5c2,3.7,4.5,7.1,7.3,10.2c2.1,2.3,4.4,4.5,6.8,6.5c3.3,2.7,6.9,5,10.6,7.1c3.1,1.7,6.3,3.2,9.7,4.4  c0.2,0.1,0.4,0.2,0.6,0.2c3.1,1.1,6.3,1.9,9.5,2.5c2.2,0.5,4.3,0.8,6.5,1.3c0.6-0.5,1.3-0.9,1.9-1.3c1.3-0.8,2.7-1.5,4.1-2.2  c3.1-1.4,6.4-2.6,9.4-4.2c1.1-0.5,2.2-1.1,3.2-1.7c0.9-0.5,1.9-1,2.8-1.6c-1.6,0.5-3.2,0.9-4.9,1.2c-2.6,0.4-5.4,0.3-8-0.3  c-2.8-0.6-5.5-1.7-8.1-2.9c-1.7-0.7-3.4-1.5-5.1-2.3c-0.7-0.3-1.4-0.6-2.1-1c-2.5-1.1-4.9-2.3-7.3-3.4c0.3,0.6,0.6,1.2,1,1.7  c0.8,1,2,1.7,3,2.6c0.8,0.6,1.5,1.3,1.9,2.2c0.2,0.6,0.3,1.3,0.1,1.9c-0.2,0.8-0.8,1.6-1.4,2.3c-1.5-0.2-2.9-0.4-4.4-0.7  c-2.1-0.4-4.2-1-6.2-1.9c-1.3-0.6-2.5-1.3-3.6-2.3c-0.9-0.8-1.7-1.9-2.2-3c-0.3-0.7-0.5-1.4-0.6-2.1c-0.1-0.8,0-1.5,0-2.3  c0.4,0,0.8,0,1.2,0c0.6,0,1.1-0.1,1.8-0.3c0.6-0.1,1.2-0.4,1.9-0.6c-1.3-0.5-2.6-1-4-1.5c-3.8-1.4-7.7-2.5-11.4-4  C728.1,104.1,724.8,102.5,722,100.4z M769,41.8c-0.6-0.5-1.1-1.1-1.5-1.8c0,0.1,0,0.1-0.1,0.2c-0.6,1.9-0.7,4-0.4,6  c0.2,1.4,0.6,2.8,1,4.2c0.7,2.4,1.4,4.7,2.6,6.9c0.7,1.2,1.4,2.4,2.2,3.6c0.9-1.7,1.9-3.3,3.1-4.8c1.1-1.3,2.4-2.5,3.8-3.5  c1.6-1.2,3.4-2.1,5.2-3c1.4-0.7,2.8-1.4,4.2-2.2c-2-0.3-4.1-0.7-6.1-1c-2.3-0.3-4.7-0.7-6.9-1.3c-1.7-0.5-3.4-1.2-5-2  C770.3,42.6,769.6,42.3,769,41.8z M790,42.5c-2.1-5.1-7.9-7.5-13-5.4c-0.8,0.3-1.6,0.8-2.3,1.3C778,43.4,784.6,45.1,790,42.5z   M745.4,63.3c0.5-1.1,0.9-2.3,1.3-3.4c0.7-1.8,1.3-3.6,2.1-5.5c0.6-1.6,1.3-3.2,2.2-4.7c0.8-1.3,1.7-2.4,2.9-3.3  c0.5-0.4,1.1-0.8,1.7-1.1c0,0.4,0,0.8,0,1.2c0.1,1.2,0.2,2.3,0.4,3.5c0.4,2.6,1.2,5.1,2.1,7.6c1.3,3.6,2.8,7.2,4.3,10.7  c2.3,5,4.7,9.9,6.3,15c1,3.2,1.6,6.5,2,9.9c0.4,3.6,0.4,7.2-0.4,10.6c-0.6,2.3-1.5,4.5-2.5,6.7c0.5-0.8,1.1-1.6,1.5-2.4  c0.4-0.7,0.7-1.4,1.1-2c1.1-2.1,2.1-4.3,3-6.5c1.3-3.1,2.2-6.3,2.8-9.7c0.6-3.7,0.8-7.6,0.1-11.3c-0.5-2.8-1.6-5.4-2.9-8  c0-0.1-0.1-0.1-0.1-0.2c-1.3-2.7-2.9-5.4-4.4-8c-1.8-3-3.6-6-5.1-9.3c-1.4-3.4-2.4-7-2-10.6c0.3-2.6,1.4-5.1,2.9-7.3  c1.2-1.7,2.6-3.1,4.2-4.4c1.7-1.5,3.5-2.8,5.4-4.1c2.2-1.4,4.4-2.7,6.5-4.3c0.3-0.2,0.6-0.4,0.9-0.7c1.4-1.1,2.8-2.4,4.1-3.6  c-2.8,0.8-5.6,1.6-8.3,2.6c-2.3,0.9-4.6,1.9-6.9,3c-3.1,1.6-6.1,3.5-9,5.6c-2.9,2.2-5.6,4.6-8,7.4c-2.7,3.1-4.9,6.6-6.7,10.3  c-1.1,2.5-2.1,5.1-2.7,7.7c-0.4,1.9-0.7,3.8-0.8,5.6c-0.1,2,0,4,0.1,6C744.4,65.4,744.9,64.4,745.4,63.3z M743.3,77.5  c0.2,2.6,0.4,5.3,0.8,7.9c0.5,2.9,1.2,5.7,2.2,8.5c0.7,2.1,1.6,4.1,2.7,6c0.8,1.2,1.7,2.4,2.7,3.4c0.8,0.7,1.6,1.2,2.4,1.8  c-0.2-0.8-0.4-1.7-0.6-2.5c-0.5-1.5-1.3-2.8-2-4.3c-0.7-1.6-1.2-3.4-1.5-5.2c-0.3-1.4-0.4-2.9-0.1-4.3c0.2-0.7,0.5-1.4,0.8-2.1  c0.5,0.5,1.1,1,1.6,1.6c0.5,0.6,0.9,1.3,1.3,2c0.8,1.4,1.6,2.8,2.3,4.2c1.5,3.3,2.4,6.9,3.4,10.4c0.7,2.2,1.4,4.3,2.5,6.2  c0.8,1.4,1.7,2.7,2.7,4.1c0.2-1.6,0.3-3.2,0.4-4.7c0.1-2.5,0.1-5-0.1-7.4c-0.3-3.5-1-6.9-2-10.2c-0.9-3-1.9-5.8-3.3-8.6  c-1.1-2.3-2.4-4.5-3.9-6.5c-1.6-2.2-3.6-4.2-5.7-5.9c-1-0.8-2.1-1.6-3.2-2.3c-1.2-0.8-2.4-1.5-3.6-2.3c-0.1-0.1-0.2-0.1-0.3-0.2  c0,1.2,0,2.4,0,3.6C743,73.1,743.1,75.3,743.3,77.5z M757.2,252.2c-1.1-3.7-2.4-7.3-4.1-10.7c-1.9-4.1-4.3-8-7.3-11.3  c-3.2-3.5-7.1-6.3-11.3-8.5c-3.8-2-7.9-3.5-12.1-4.2c-4.6-0.8-9.4-0.5-14.2-0.3c-4.4,0.2-8.8,0.3-13.2,0.8c-3.4,0.4-6.7,1.1-10,2  c-1,0.3-2,0.6-3,1.1c-0.9,0.5-1.7,1.1-2.3,1.8c-0.8,0.9-1.3,1.9-1.7,3.1c1.5-0.2,2.9-0.5,4.4-0.8c2.1-0.4,4.2-1,6.4-1.2  c2.5-0.2,5.2,0,7.7,0.5c4.1,0.8,8.2,1.9,11.9,3.8c2.9,1.5,5.5,3.4,8,5.4c2.7,2.1,5.3,4.2,8,6.3c2.6,2,5.4,3.9,8.4,4.9  c2.3,0.8,4.7,1.1,7.2,1.4c-1.5-1.6-3-3.2-3.1-5.1c0-1,0.4-2.1,1.1-2.9c0.9-0.9,2.3-1.4,3.4-1c0.7,0.2,1.3,0.7,1.8,1.3  c0.9,1,1.5,2.2,2.1,3.3c0.9,1.7,1.7,3.5,2.5,5.2c1.6,3.8,2.8,7.7,3.8,11.7c1.8,7.4,2.5,14.9,2.5,22.5c0,8.9-1.2,17.9-3.5,26.4  c-1.8,6.7-4.4,13.2-6.9,19.6c2.1-1.6,3.9-3.5,5.5-5.5c2.1-2.7,3.8-5.8,5.1-8.9c3.4-8.1,4.6-17,5.4-25.9c0.5-6.3,0.9-12.6,0.4-18.8  C759.8,262.8,758.7,257.4,757.2,252.2z M702.8,41.8c1.4,0.1,2.8,0.1,4.2,0.2c1.9,0.1,3.8,0.4,5.6,1.2c1.7,0.7,3.2,1.8,4.3,3.2  c1.1,1.4,1.7,3,2.3,4.7c0.7,2,1.5,3.9,2.1,5.9c1.2,3.7,2,7.6,2.9,11.4c0.7,3.2,1.4,6.4,2.2,9.6c0.8,3,1.7,6,2.7,9  c1.2,3.4,2.7,6.7,4.5,9.8c1.3,2.2,2.9,4.4,4.9,6c0.9,0.7,1.9,1.3,2.9,1.9c-1.3-2-2.6-3.9-3.8-6c-1.9-3.1-3.5-6.4-4.7-9.9  c-1.1-3-1.8-6-2.5-9.1c-0.6-2.7-1.2-5.5-1.3-8.2c-0.2-3.2,0.1-6.4,0.3-9.6c0.1-2,0.3-3.9,0.6-5.8c0.2-1,0.5-1.9,0.7-2.8  c0.6,0.4,1.2,0.8,1.8,1.3c0.9,0.7,1.7,1.5,2.4,2.3c1.3,1.5,2.3,3.3,3.5,4.8c0.8,1.1,1.8,2.1,2.8,3.1c-0.2-1.2-0.4-2.5-0.7-3.6  c-0.5-2.2-1.4-4.2-2.4-6.2c-1.2-2.5-2.5-4.8-4.1-7c-1.1-1.5-2.3-2.9-3.6-4.1c-1.4-1.3-3-2.4-4.6-3.4c-1.7-1.1-3.5-2.1-5.4-2.7  c-1.8-0.6-3.7-0.9-5.5-0.9c-1.2,0-2.3,0.1-3.4,0.3c-1.2,0.3-2.3,0.7-3.4,1.1c-1.3,0.5-2.6,1-3.9,1.3c-1,0.3-2.1,0.5-3.1,0.6  c-1.4,0.1-2.9-0.2-4.3-0.4c1,0.7,2,1.3,3.2,1.7C700.7,41.6,701.7,41.7,702.8,41.8z M722.4,95.2c1.2,2,2.6,3.8,4.3,5.5  c1.5,1.5,3.3,2.9,5.2,3.6c1.2,0.4,2.5,0.6,3.8,0.7c-1.1-0.7-2.2-1.5-3.1-2.4c-1.7-1.7-2.8-4-3.7-6.2c-1.8-4.5-3.1-9.1-4.5-13.6  c-0.8-2.7-1.7-5.3-3-7.8c-0.8-1.6-1.9-3.2-3.1-4.6c-0.9-1-2-1.9-3.1-2.6c-1.6-0.9-3.4-1.4-5.2-1.5c-1.3-0.1-2.6,0-3.8,0.2  c-1.7,0.2-3.3,0.6-5,1c0.9,0.2,1.7,0.5,2.6,0.7c0.9,0.3,1.7,0.6,2.5,1c1.8,0.9,3.4,2.1,4.7,3.5c1.2,1.3,2.2,2.7,3.1,4.2  c1.2,2.1,2.2,4.3,3.2,6.6C718.8,87.5,720.2,91.6,722.4,95.2z"
     id="rose"
     inkscape:label="#path4698" /><path
     class="st7"
     d="M887.5,472.8c0,1.3-0.6,2.5-1.3,3.6c-1.4,2.1-3,4-4.8,5.8c-2.9,2.8-6.4,5.2-10.1,7.1c-4.4,2.2-9.1,3.7-13.8,4.8  c-5.6,1.3-11.2,2-16.8,3.1c-5.7,1.2-11.4,2.7-16.7,5.3c-3.6,1.8-7,4-10,6.7c-3.7,3.3-6.7,7.2-9.5,11.2c-1.4,2.1-2.8,4.2-4.2,6.3  c0.2-1.8,0.4-3.6,0.8-5.3c0.7-3,1.8-5.8,3-8.6c1.4-3.3,2.8-6.5,4.7-9.5c2.2-3.6,4.9-7,7.7-10.2c3.3-3.7,6.7-7.3,10.8-9.9  c2.9-1.9,6.1-3.4,9.5-4.2c1.1-0.3,2.3-0.5,3.5-0.7c3.5-0.5,7.1-0.5,10.6-0.4c4.4,0.1,8.7,0.4,13.1,0c4.1-0.4,8.2-1.3,11.6-3.2  c2.1-1.2,3.9-2.7,6.6-3.9c1.5-0.7,3.4-1.3,4.4-0.4C887.1,470.8,887.5,471.8,887.5,472.8z M843.7,447c-1.1,2.2-2.3,4.3-3.7,6.3  c-2.1,3.1-4.7,5.8-7.2,8.6c-2.4,2.7-4.7,5.4-7.1,8c-1.7,1.8-3.4,3.5-4.8,5.4c-0.8,1.1-1.6,2.4-2.4,3.6c1.7-1.3,3.3-2.6,5-3.9  c1.9-1.6,3.9-3.1,5.8-4.6c3.4-2.6,6.9-5,10.5-7.3c4.1-2.6,8.4-5.1,11.8-8.5c1.9-1.9,3.6-4,5.3-6.1c2.7-3.3,5.6-6.6,7.6-10.3  c1.3-2.4,2.2-5,3.5-7.3c0.9-1.6,2.1-3.2,3.2-4.7c1-1.3,2.1-2.6,3.5-3.5c0.9-0.6,2-1,3.1-1c1.2-0.1,2.4,0.1,3.5,0.5  c0.6,0.2,1.2,0.4,1.7,0.7c0.6,0.4,1,1,1.4,1.6c0-1,0-2.1-0.3-3c-0.5-1.6-1.9-3-3.5-4c-1.7-1.1-3.6-1.7-5.5-1.6c-1.8,0-3.6,0.6-5,1.6  c-1.4,1-2.4,2.4-3.6,3.6c-0.6,0.6-1.3,1.1-2,1.4c-1.5,0.7-3.2,0.8-4.9,1c-1.3,0.2-2.5,0.4-3.6,1c-1.2,0.7-2.2,1.9-3,3.1  c-1.1,1.5-2,3.1-2.8,4.7c-1.2,2.6-2.2,5.3-3.3,7.9C845.9,442.4,844.8,444.7,843.7,447z M800.8,501.2c0.6-2.7,2-5,3.3-7.3  c1.6-2.7,3-5.5,4.6-8.2c3.2-5.3,7.2-10.3,11-15.4c6.1-8.1,11.8-16.4,16.7-25.2c2.9-5.1,5.4-10.3,7.6-15.8c1.7-4.3,3-8.8,3.7-13.4  c0.7-4.7,0.6-9.5-0.4-14.1c-0.8-3.7-2.3-7.3-4.2-10.6c-2.3-3.8-5.3-7-8.6-10c-2.2-1.9-4.4-3.7-7-5c-3-1.5-6.3-2.3-9.6-2.7  c-1.9-0.2-3.8-0.3-5.7,0.1c-2.2,0.4-4.3,1.3-6.3,2.4c-1,0.6-2,1.4-2.8,2.3c-0.7,0.8-1.2,1.8-1.4,2.8c-0.3,1.4-0.1,2.8,0.3,4.2  c0.4,1.3,0.9,2.5,1.4,3.7c0.2-1.2,0.4-2.3,1.1-3.1c0.6-0.8,1.7-1.2,2.8-1.4c2.3-0.3,4.4,0.7,6.4,2c2.4,1.6,4.4,3.7,6,6  c2,3,3.4,6.5,4.3,10.1c1.1,4.4,1.6,9,1.5,13.6c-0.1,7.4-1.4,14.8-3.5,21.9c-2.4,8-5.9,15.7-9.6,23.2c-3,6.1-6.2,12-10,17.7  c-1.7,2.5-3.5,5-4.9,7.7c-1.6,3.2-2.6,6.7-3.5,10.2c-0.6,2.4-1.1,4.8-1.4,7.3c-0.2,1.6-0.2,3.2,0.4,4.6c0.4,0.8,1,1.5,1.9,1.9  c0.6,0.2,1.4,0.3,2,0.1c1.3-0.4,1.9-1.9,2.4-3.3c0.3-0.7,0.5-1.4,0.7-2.1C800.4,504,800.5,502.5,800.8,501.2z M824.5,540.6  c-1-2.5-2.1-4.9-3.9-6.7c-1.8-1.9-4.2-3.1-6.8-4c-2.9-1-6.1-1.7-8.9-0.9c-1.8,0.5-3.5,1.6-5.2,2.7c1.8,0.9,3.6,1.9,5.2,3.1  c3.2,2.5,5.6,6.1,7.1,9.9c1.2,3.1,1.8,6.3,2.1,9.5c0.1,1.2,0.2,2.4,0.5,3.6c0.5,1.6,1.4,3.3,2.8,3.9c1.4,0.7,3.4,0.5,4.7-0.3  c1.7-1,2.6-3,3.2-5c0.7-2,1-4,1.1-6c0-1.5-0.2-3-0.5-4.5C825.8,544.2,825.2,542.3,824.5,540.6z M739.9,359.5  c1.1,0.8,2.4,0.8,3.5-0.1c1-0.9,2-1.8,3-2.6c1.9-1.5,4-2.9,6.3-3.6c2.3-0.8,4.9-1,7.4-0.6c3.2,0.4,6.3,1.5,8.9,3.3  c6.1,4.2,9.2,11.9,11.9,19.3c2.5,6.7,4.6,13.1,6.4,19.7c2.4,8.9,4.2,18.2,5.6,27.5c1.7,10.8,2.8,21.7,3,32.6  c0.2,8.1-0.2,16.3-0.6,24.4c0,0.4,0.1,0.7,0.4,1c0.2,0.1,0.4,0.2,0.6,0.2c0.4,0,0.8-0.4,1-0.8c0.3-0.5,0.3-1,0.4-1.5  c0.3-1,1-1.9,1.8-2.7c0.5-0.5,1.1-1,1.6-1.5c0.2-0.2,0.4-0.5,0.4-0.8c0-0.8,0.1-1.6,0.1-2.5c0.6-12.8,0.6-25.7-0.3-38.5  c-0.7-9.8-2-19.6-4-29.3c-1.9-9.2-4.6-18.3-8.2-27.1c-2.6-6.3-5.6-12.4-9.6-18c-2.2-3-4.6-5.9-7.6-8.1c-2.3-1.8-4.9-3.2-7.7-3.9  c-3.3-0.9-6.8-1-10.2-0.2c-3.3,0.8-6.5,2.3-9.1,4.4c-2.1,1.7-4,3.8-5.7,5.9c-0.1,0.1-0.2,0.2-0.2,0.3  C738.5,357.4,738.9,358.7,739.9,359.5z M793,516.2c-0.1,0.7-0.3,1.3-0.4,2c-1.3,6.5-3.7,12.8-5.3,19.3c-1.5,6.1-2.5,12.3-3,18.6  c-0.4,4.8-0.6,9.8,0.3,14.4c0.6,2.9,1.5,5.7,2.6,8.5c0.2,0.6,0.7,1,1.3,1.2c1.3,0.3,2.6,0.1,3.8-0.6s1.9-1.8,2.2-3.1  c0.1-0.4,0.1-0.8,0-1.2c-0.6-4.1-1.2-8.2-1.4-12.3c-0.5-8.5,0.4-17.1,1.5-25.6c0.9-7.1,1.9-14.2,2.9-21.3c-1,0.1-1.9,0.1-2.8,0.1  C794.1,516.3,793.5,516.3,793,516.2z M788,448.6c0.1-1.1-0.5-2.3-1.3-3.2c-1.1-1.2-2.7-1.7-4.2-2.3c-2.9-1.1-5.8-2.3-8.3-4  c-2.1-1.4-3.9-3.1-5.9-4.8c-1-0.9-2.1-1.8-2.8-3c-0.3-0.5-0.6-1.1-0.9-1.6c-0.4-0.5-1-1-1.5-1.4c-1.5-1.1-3-2.2-4.6-3  c-1.6-0.8-3.4-1.4-5.2-1.9c-2.3-0.6-4.5-1.1-6.8-1.6c-3.2-0.7-6.5-1.3-9.7-2.5c-0.9-0.3-1.8-0.7-2.4-1.3c-0.7-0.7-1.1-1.6-1.6-2.5  c-0.1-0.2-0.3-0.5-0.4-0.7c-0.3-0.4-0.7-0.5-1.2-0.4c-0.5,0.2-0.7,0.6-0.7,1.1c0.1,0.8,0.2,1.5,0.3,2.3c0.2,1.2,0.5,2.4,0.8,3.6  c0.7,2.6,1.4,5.2,2.2,7.7c0.9,2.7,1.9,5.3,3.3,7.8c1.4,2.6,3,5,5,7.3c1.9,2.2,4.1,4.2,6.5,5.9c2.8,1.9,5.9,3.3,9.1,4.4  c3.3,1.1,6.7,1.9,10.2,2c1.1,0,2.3,0,3.4-0.2c1.6-0.2,3.2-0.4,4.7-0.7c2.4-0.5,4.6-1,7.1-2.2C785.5,452.3,787.9,450.7,788,448.6z   M779.3,484.6c-1-0.8-2.1-1.2-3.3-1.5c-1-0.2-2-0.4-3-0.5c-2-0.2-4-0.3-6-0.8c-1.4-0.3-2.7-0.9-4.1-1.5c-2-0.9-3.9-2-5.7-3.2  c-3.4-2.2-6.5-5-9-8.1c-3.5-4.5-5.8-9.8-8.2-15c-3.3-7.3-6.9-14.4-9-22c-0.9-3.5-1.6-7.2-2.6-10.7c-0.2-0.7-0.4-1.3-0.6-2  c-0.1-0.3-0.4-0.6-0.8-0.5c-0.4,0-0.6,0.3-0.7,0.7c-0.1,0.7-0.2,1.4-0.2,2.1c-0.1,2.1,0,4.3,0,6.5c0,3.7-0.3,7.3-0.1,11  c0.2,5.2,1.4,10.4,3,15.4c1.3,3.9,2.8,7.7,4.8,11.4c0.3,0.6,0.7,1.3,1.1,1.9c2.6,4.3,5.8,8.2,9.8,11.1c2.1,1.5,4.5,2.8,6.8,3.9  c3.2,1.5,6.5,2.7,10,3.7c3.9,1.1,8,2,11.8,2.3c1.5,0.1,3,0.2,4.7-0.4c1.1-0.3,2.3-0.9,2.4-1.7C780.7,486,780,485.2,779.3,484.6z   M739.7,479.1c-2.5-2.4-4.9-4.9-6.9-7.7c-1.5-2.3-2.8-4.8-3.9-7.3c-1-2.4-1.8-4.8-2.6-7.4c-0.3-1.1-0.6-2.3-0.8-3.4  c-0.2-1.5-0.1-3-0.2-4.6c-0.1-0.9-0.2-1.8-0.8-2.4c-0.3-0.3-0.7-0.5-1.1-0.8c-0.1,0.6-0.1,1.3-0.3,1.8c-0.3,0.9-1,1.7-1.8,2.2  c-0.8,0.6-1.7,0.9-2.7,1.1c-0.7,0.1-1.5,0.2-2,0.6c-0.3,0.3-0.5,0.7-0.7,1.1c-0.2,0.9,0,1.8,0.3,2.7c0.9,3.5,1.4,7,2.4,10.4  c0.7,2.3,1.6,4.5,2.5,6.8c0.5,1.2,0.9,2.4,1.5,3.5c0.8,1.6,2,3,3.2,4.3c1.3,1.4,2.6,2.7,4.1,3.8c1.7,1.3,3.7,2.3,5.7,3.3  c1.6,0.8,3.3,1.4,5,1.9c1.3,0.4,2.6,0.8,4,0.9c1.2,0.1,2.5,0.1,3.7,0c1.1-0.1,2.1-0.2,3.3-0.3c0.6-0.1,1.3-0.1,1.8-0.4  c0.6-0.3,1-0.8,1.4-1.3c-1.6-0.4-3.3-0.8-4.8-1.4C746.2,484.9,742.8,482,739.7,479.1z M729.6,381.2c-1.1,2.4-2.1,4.8-2.8,7.3  c-0.9,3.4-1.3,7-1.6,10.5c-0.3,2.7-0.5,5.5,0.2,8.2c0.2,0.8,0.5,1.7,1.3,2.2c0.5,0.3,1.1,0.5,1.5,0.3c0.3-0.1,0.5-0.4,0.7-0.7  c0.4-0.6,0.8-1.1,1.1-1.7c0.4-0.9,0.7-1.9,0.9-2.9c0.6-2.4,0.9-4.8,1.4-7.1c0.4-1.8,0.9-3.6,1.5-5.4c0.8-2.5,1.9-4.8,2.9-7.2  c1-2.4,1.9-4.7,3.2-7.4c0.7-1.3,1.5-2.7,2.7-2.9c0.7-0.1,1.5,0.2,2.2,0c0.3-0.1,0.6-0.3,1-0.5c1.7-2.9,1-6.3-1.7-8.3  c-1.3-0.1-2.7,0-3.6,0.6c-0.4,0.3-0.8,0.6-1.1,1c-0.8,0.9-1.7,1.8-2.6,2.7c-1.3,1.4-2.5,3-3.6,4.6  C731.9,376.7,730.7,378.9,729.6,381.2z M739.4,398.7c1-3.2,1.8-6.5,2.9-9.7c0.7-2,1.6-4.1,2.1-6.2c0.3-1.3,0.5-2.6,0.6-3.9  c0.1-0.6-0.3-1.1-0.8-1.4c-0.6-0.2-1.2,0-1.6,0.4c-0.2,0.3-0.5,0.7-0.7,1c-1.6,2.4-2.5,5.1-3.5,7.9c-0.8,2.2-1.6,4.4-2.3,6.6  c-0.8,2.6-1.3,5.3-1.7,8c-0.3,2.3-0.5,4.5-0.5,6.9c0,1.6,0.1,3.3,1,4.5c0.3,0.4,0.7,0.8,1.1,1.1c0.1,0.1,0.2,0.2,0.3,0.2  c0.3,0.2,0.7,0.2,1,0c0.3-0.2,0.5-0.5,0.4-0.9c-0.2-1.5-0.3-3-0.3-4.6c0-1.2,0-2.4,0.1-3.6C737.9,403,738.8,400.9,739.4,398.7z   M722,370.8c0.2,0.3,0.3,0.5,0.4,0.8c0.5,1.7,1.3,3.3,1.8,5c0.5,1.6,0.8,3.3,1.2,5c1.1-2.2,2.2-4.5,3.5-6.6c1-1.7,2.1-3.3,3-5  c1-1.8,1.9-3.5,2.7-5.4c0.6-1.5,1.2-3,1.3-4.6c0-0.7-0.1-1.5-0.4-2.1c-0.3-0.6-0.8-1.2-1.5-1.5c-0.6-0.3-1.4-0.4-2.1-0.2  c-0.8,0.2-1.4,0.7-2,1.2c-1,0.8-1.9,1.5-2.7,2.4c-1.1,1.2-2.1,2.5-3.1,3.9c-1.1,1.5-2.4,3.1-2.6,4.9c-0.1,0.5-0.1,1.1-0.1,1.7  C721.6,370.4,721.8,370.6,722,370.8z M691.6,398.3c1.8,0.8,3.8,1.1,5.8,1.3c3.1,0.4,6.2,0.8,8.8,2.2c1.8,1,3.3,2.4,4.8,3.8  c1.9,1.8,3.6,3.7,5.8,5.2c1.6,1.1,3.4,1.9,5.2,2.1c1.1,0.1,2.3,0,3.5-0.1c-0.8-0.5-1.7-1.1-2.4-1.8c-0.4-0.4-0.7-0.8-0.9-1.3  c-0.3-0.7-0.3-1.5-0.5-2.4c-0.1-0.5-0.3-1.1-0.5-1.8c-0.3-1.6-0.3-4.3-0.3-6.3c0.1-4.2,0.3-5,0.4-6.4c0.3-2.8,0.4-7.8-0.6-12.8  c-0.6-2.7-1.5-5.4-2.8-7.9c-1.7-3.1-3.9-5.8-5.4-9c-1.2-2.4-1.9-5.1-2-7.9c-0.1-2.7,0.3-5.6-1.6-7.7c-0.6-0.7-1.5-1.3-2.2-1.2  c-0.8,0.1-1.4,0.9-1.9,1.7c-0.8,1.3-1.2,2.5-1.7,3.8c-0.4,1-1,2-1.7,2.9c-1.3,1.8-3.1,3.2-4.6,4.8c-2,2.1-3.6,4.6-5,7.3  c-2.2,3.9-4,8.1-4.6,12.4c-0.4,2.5-0.3,5-0.4,7.7c-0.1,3.1-0.3,6.4,1.4,8.7C689.1,396.8,690.3,397.7,691.6,398.3z M717.6,445.8  c0.9-0.4,1.6-1,2.2-1.7c0.6-0.6,1.1-1.3,1.6-2.1c0.6-1,1-2.1,1.1-3.3c0.2-1.1,0.1-2.2,0.1-3.3c-0.3-0.6-0.6-1.3-0.9-1.9  c-0.4-0.8-0.9-1.5-1.1-2.3c-0.3-0.8-0.3-1.6-0.3-2.4c-0.1-1.8-0.2-3.5-0.1-5.3c0.1-1.4,0.2-2.7,0.3-4c0-0.6,0-1.1,0-1.7  c0-0.3-0.1-0.6-0.3-0.8c-0.2-0.2-0.5-0.3-0.8-0.4c-0.4-0.1-0.8,0-1.1,0.2c-0.3,0.2-0.5,0.7-0.6,1.1c-0.2,0.7-0.3,1.3-0.3,2  c0,0.8,0,1.6,0.1,2.4c0.2,2.8,0.1,5.5-0.1,8.3c-0.1,2-0.4,4-0.9,5.8c-0.4,1.5-0.9,2.9-1.3,4.5c-0.3,1.4-0.6,3,0,4.3  c0.2,0.4,0.5,0.8,0.8,0.9C716.5,446.2,717.1,446,717.6,445.8z M712.4,449.6c-0.3,0-0.6,0.3-0.8,0.6c-0.4,0.6-0.3,1.3-0.5,2  c-0.2,0.8-0.6,1.5-0.9,2.3c-0.3,0.7-0.5,1.5-0.9,2.1c-0.4,0.8-1.1,1.4-1.7,2.1c-1,1.2-2,2.5-3.3,3.2c-1.1,0.5-2.4,0.6-3.7,0.5  c-1.1,0-2.1-0.2-2.9-0.7c-0.6-0.5-1.1-1.2-1.4-2c-0.3-0.6-0.5-1.3-0.8-1.9c-0.2-0.3-0.3-0.6-0.4-1c-0.2-0.6-0.1-1.4,0-2.1  c0.2-0.8,0.4-1.6,0.7-2.3c-0.3,0-0.7,0-1,0.1c-0.5,0.2-0.9,0.9-1.1,1.5c-0.5,1-0.8,2-1.3,2.9c-0.5,1-1.2,2-1.7,3.1  c-1.1,1.9-2,3.8-2.5,5.8c-0.5,2-0.8,4.1-0.7,6.3c0,1.4,0.2,2.9,0.8,4c0.5,0.9,1.2,1.6,2.1,2.2c1.2,0.9,2.6,1.4,3.5,2.5  c0.4,0.5,0.8,1.1,1.1,1.8c0.5,0.9,0.9,1.9,1.7,2.5c0.7,0.4,1.6,0.6,2.3,0.3c0.7-0.3,1.3-1,1.5-1.7c0.3-0.9,0-1.8,0.1-2.7  c0.1-0.8,0.4-1.6,0.7-2.3c1-2.5,2.1-4.8,3.3-7.1c0.1-0.2,0.2-0.4,0.3-0.5c1.2-2.1,2.4-4.2,3.6-6.3c0.9-1.8,1.8-3.5,2.5-5.4  c0.3-0.8,0.6-1.7,0.8-2.5c0.4-1.5,0.8-2.9,1.3-4.7c0.2-0.8,0.4-1.6-0.1-2.1C712.8,449.7,712.6,449.6,712.4,449.6z M711,416.2  c0.4-1.2,0.8-2.5,1-3.8c0.1-0.6,0.1-1.3,0.1-1.9c0-0.5-0.3-0.9-0.8-1.1c-0.5-0.2-1,0-1.3,0.4c-0.6,0.8-1,1.6-1.3,2.5  c-0.4,1.2-0.6,2.6-0.8,3.9c-0.2,1.4-0.5,2.8-1,4.2c-0.4,1.3-1,2.7-1.8,3.7c-0.8,0.9-1.8,1.7-2.5,2.7c-0.5,0.8-0.8,1.7-0.5,2.5  c0.1,0.4,0.4,0.7,0.7,0.8c0.3,0.1,0.6,0,0.9,0c0.7-0.2,1.2-0.6,1.7-1.1c0.7-0.5,1.4-1,2-1.5c0.2-0.2,0.4-0.3,0.6-0.5  c0.4-0.4,0.9-0.7,1.3-1.1c0.8-0.7,1.6-1.5,1.6-2.5c0-0.4-0.2-0.8-0.3-1.1c-0.2-0.6-0.5-1.1-0.6-1.7c-0.1-0.4,0-0.9,0-1.4  C710.3,418.2,710.7,417.2,711,416.2z M700.9,456c0.7,0.3,1.4,0.2,2.1-0.1c0.9-0.4,1.5-1.3,2-2.1c0.3-0.4,0.5-0.8,0.8-1.2  c0.4-0.6,0.7-1.3,1-1.9c0.4-1,0.5-2.1,0.5-3.1c0-1.1,0-2.1,0.1-3.2c0.1-1.6,0.3-3.2,0.4-4.9c0.1-0.9,0.1-1.9,0.5-2.7  c0.2-0.4,0.4-0.7,0.6-1.2c0.2-0.5,0.3-1,0-1.3c-0.3-0.3-1-0.3-1.5-0.1c-0.3,0.1-0.5,0.3-0.6,0.6c-0.3,0.6-0.4,1.3-0.4,2  c-0.1,1.2-0.1,2.3-0.3,3.4c-0.2,1.2-0.6,2.3-1,3.5c-0.1,0.3-0.2,0.7-0.3,1c-0.2,0.6-0.5,1.3-0.8,1.8c-0.6,0.9-1.4,1.7-2.1,2.5  c-0.8,0.9-1.3,1.9-1.7,3.1c-0.4,1-0.7,2.1-0.2,3C700,455.4,700.4,455.8,700.9,456z M691.5,427.4c1.2-0.8,1.8-2.1,2.3-3.5  c0-0.1,0-0.1,0.1-0.2c0.4-1.2,0.7-2.5,1.4-3.5c0.4-0.7,1-1.2,1.6-1.8c1.6-1.5,3.2-2.8,4.8-4.2c1.3-1.1,2.5-2.2,3.6-3.5  c0.7-0.8,1.4-1.7,2-2.5c-0.1-0.4-0.2-0.8-0.5-1.1c-0.3-0.3-1-0.4-1.4-0.3c-0.6,0.1-1,0.6-1.4,1c-1.2,1.1-2.5,1.9-3.7,3  c-1,0.8-1.8,1.8-2.9,2.6c-1.2,0.9-2.5,1.6-3.9,2.2c-1.1,0.5-2.1,1-3,1.7c-1,0.9-1.8,2.1-2.3,3.3c-0.6,1.4-0.8,2.8-0.8,4.3  c0,0.6,0,1.2,0.3,1.8c0.3,0.5,0.7,1,1.2,1.2C689.8,428.2,690.8,427.9,691.5,427.4z M686,441.4c-0.3,1.1-0.5,2.3-0.6,3.5  c0,0.9,0,1.8,0.4,2.6c0.3,0.4,0.6,0.9,1.1,1c0.6,0.2,1.3,0,2-0.4c1.3-0.8,2.1-2.1,2.7-3.5c0.4-0.9,0.8-1.9,1-2.9  c0.4-1.5,0.5-3,0.9-4.5c0.5-1.7,1.3-3.3,2.2-4.8c1.5-2.5,3.4-4.6,5-7c1-1.4,2-2.9,2.9-4.4c0.4-0.7,0.8-1.4,1.1-2.1  c0.4-0.8,0.7-1.7,0.7-2.6c0-0.4,0-0.9-0.1-1.3c-0.5,0.1-0.9,0.2-1.3,0.4c-0.7,0.4-1,1.3-1.5,2.1c-0.5,0.8-1.1,1.4-1.7,2.1  c-0.9,1.1-1.6,2.5-2.5,3.6c-0.8,1-1.7,2-2.4,3.1c-0.6,1-1,2-1.5,3c-0.9,1.5-2.2,2.7-3.4,4c-1,0.9-1.9,1.8-2.6,2.9  c-0.9,1.2-1.5,2.5-2,3.9C686.3,440.5,686.2,441,686,441.4z M676.8,432.9c1.3-0.9,2.5-1.8,3.8-2.7c0.7-0.5,1.5-0.9,2-1.5  c0.5-0.6,0.8-1.4,0.6-2.1c-0.1-0.5-0.5-0.9-0.7-1.5c-0.4-0.9-0.5-2.3-0.5-3.4c0-1.2,0.1-2,0.5-2.8c0.7-1.2,2.2-2.3,3.6-3.2  c2-1.3,3.8-2.3,5.8-3.2c1.7-0.8,3.5-1.6,5.1-2.8c1.6-1.2,3-2.7,4.3-4.2c-0.3-0.5-0.5-0.9-0.9-1.3c-1.1-1.2-3.1-1.4-4.8-1.2  c-2.2,0.3-4.1,1.4-5.9,2.5c-2.5,1.5-5,3-7.5,4.3c-3.5,1.7-7.1,2.9-10.8,3.9c-3.8,1-7.7,1.8-11.6,2c-3.5,0.2-7,0.1-10.5,0.1  c-1.9,0-3.9,0-5.8,0.1c-1.2-0.6-2.3-1.2-3.6-1.6c-1.9-0.6-3.9-0.7-6-0.5c-1.5,0.1-3,0.2-4,1.1c-0.6,0.5-1,1.2-1.2,1.9  c-0.6,1.6-0.5,3.3-0.3,5.1c0.3,0.3,0.6,0.6,0.9,0.9c0.7,0.9,0.9,2.1,1.5,3.1c0.6,1,1.5,1.7,2.4,2.3c1,0.7,2,1.3,2.9,2.2  c1.5,1.5,2.4,3.6,3,5.6c0.5,1.6,0.8,3.1,1.3,4.7c0.4,1.2,0.8,2.4,1.5,3.5c0.6,0.9,1.4,1.6,2.3,2.1c1.4,0.8,3.2,1,4.9,0.8  c2.5-0.3,4.7-1.4,6.9-2.4c3.4-1.5,6.9-2.8,10.2-4.5c2.1-1.1,4.1-2.3,6-3.7C673.6,435.4,675.2,434.1,676.8,432.9z M690.2,452.6  c-2,0.4-3.9,0.6-5.5-0.1c-0.5-0.2-1.1-0.5-1.6-1c-0.9-0.7-1.8-1.7-1.9-2.8c-0.1-0.6,0.1-1.3-0.2-1.8c-0.1-0.2-0.3-0.4-0.5-0.7  c-0.3-0.6-0.3-1.8-0.2-2.8c0.2-2.6,0.6-3.4,1.3-4.5c1-1.6,2.4-4,4.2-5.7c0.6-0.6,1.3-1.1,2-1.6c-0.3-0.5-0.6-1-1.1-1.2  c-0.4-0.2-0.8-0.2-1.2-0.1c-0.7,0.2-1.3,0.6-1.9,1.1c-0.6,0.5-1.1,1-1.5,1.5c-1.2,1.3-2.3,2.7-3.4,4.1c-1.7,2.2-3.3,4.5-4.8,6.8  c-1.5,2.4-3,4.9-3.7,7.6c-0.7,2.8-0.6,5.9,0,8.8c0.5,2.5,1.4,4.9,2.4,7.1c1.2,2.7,2.5,5.1,4.9,7.5c1.1,1.1,2.5,2.2,3.7,1.8  c0.5-0.2,1-0.6,1.3-1.2c0.5-0.7,0.6-1.6,0.7-2.4c0.6-2.7,1.9-5.1,2.4-7.8c0.3-2.1,0.2-4.3,1-6.2c0.5-1.1,1.3-2.1,1.9-3.1  C689.1,455,689.6,453.8,690.2,452.6z M634.5,378.8c0,1.4-0.4,2.8-0.7,4.1c-0.6,3-0.7,6-0.1,8.9c0.3,1.7,1,3.5,1.9,5  c1.3,2.1,3.2,3.9,5.3,5.3c2.4,1.7,4.9,3,7.6,3.9c3.1,1.1,6.4,1.6,9.7,2c2.5,0.3,4.9,0.5,7.4,0.4c3-0.1,6-0.4,8.8-1.2  c2.5-0.7,4.9-1.7,7.4-2.7c2.1-0.8,4.2-1.7,6.2-2.5c0-0.7-0.1-1.4-0.4-2c-0.5-0.9-1.7-1.5-2.9-1.6c-1.7-0.3-3.2,0.3-4.8,0.6  c-1.7,0.3-3.6,0.2-5.3-0.2c-3.5-0.8-6.5-3-9.1-5.5c-2.2-2.1-4.1-4.5-6-7c-1.5-2-2.9-4-4.5-5.9c-0.6-0.7-1.2-1.4-1.9-2  c-2-1.8-4.5-2.9-7-4c-1.3-0.6-2.7-1.1-3.8-2c-0.9-0.7-1.7-1.6-2.3-2.5c-0.4-0.6-0.8-1.3-1.3-1.8c-1-0.9-2.6-1.4-3.8-0.9  c-0.7,0.3-1.3,1.1-1.5,1.9c-0.6,1.6-0.1,3.4,0.4,5.1C634.1,375.9,634.5,377.4,634.5,378.8z"
     id="flower3"
     inkscape:label="#path4700" /><g
     id="sunflower"
     inkscape:label="#g4832"><path
       class="st8"
       d="M41.8,743.2c8.9,16,21.9,29.4,37.7,38.9C67.8,768.2,55.2,755.2,41.8,743.2z"
       id="path4702" /><path
       class="st8"
       d="M137.5,810.3c-4.6,1.5-9.2,3-13.8,4.5c5.3-0.2,10.6-0.3,15.7-1.3c5-0.9,9.7-2.6,14.6-4.2   c4.5-1.5,9.1-2.8,13-5.3c1.6-1,3.1-2.3,4.5-3.5c-5.2,1.4-10.3,2.7-15.5,4.2C149.8,806.4,143.6,808.3,137.5,810.3z"
       id="path4704" /><path
       class="st9"
       d="M147.4,641.9c6.7,0.4,13.3,1.8,19.6,4.3c4.3-1.3,8.2-3.5,11.4-6.5c0.7-0.6,0.7-1.6,0.1-2.3   c-0.1-0.1-0.2-0.2-0.4-0.3c-3.8-2.2-8.1-3.5-12.6-3.8C159.9,637.2,153.8,640,147.4,641.9z"
       id="path4706" /><path
       class="st9"
       d="M175.4,793.2c-3.3,0.5-6.8,0.5-10.2,0.1c-4.6-0.5-9.2-1.6-13.7-2.5c-3.8-0.8-7.7-1.4-11.6-1.9   c-3.7-0.5-7.3-0.8-11-0.4c-2.6,0.3-5.3,1-7.5,2.4c-2,1.2-3.6,3-4.8,4.9c-0.9,1.5-1.4,3.1-1.8,4.7c-0.5,2.6-0.5,5.3-0.2,8   c0.3,2.4,0.7,4.7,1.2,7c-1.6,0.4-3.3,0.8-4.9,1.1c-1.5,0.3-3,0.5-4.5,0.8c-1.2,0.3-2.3,0.5-3.5,1.3c-0.9,0.5-1.9,1.3-1.9,2.1   c0,0.8,1,1.6,2,2.1c0.8,0.4,1.7,0.6,2.5,0.5c1-0.1,1.9-0.5,2.9-0.9c2.1-0.7,4.3-0.8,6.7-0.9c1,0,1.9-0.1,2.7,0.2   c1.3,0.4,2.2,1.7,3.2,2.9c2.4,2.8,5.1,5,8.2,6.6c3.2,1.7,6.8,2.8,10.5,3.2c3.9,0.5,7.8,0.2,11.6-0.6c3.6-0.8,7.1-2.2,10.2-4.2   c2.6-1.7,5-4,6.9-6.5c3.6-4.8,5.5-10.6,7.6-16.2c2-5.3,4.2-10.4,6.3-15.5C180,792.2,177.7,792.9,175.4,793.2z M167,804   c-3.9,2.5-8.5,3.9-13,5.3c-4.9,1.6-9.7,3.3-14.6,4.2c-5.1,1-10.4,1.1-15.7,1.3c4.6-1.5,9.2-3,13.8-4.5c6.2-2,12.4-3.9,18.6-5.6   c5.2-1.5,10.3-2.8,15.5-4.2C170.1,801.7,168.6,802.9,167,804z"
       id="path4708" /><path
       class="st9"
       d="M176.3,653.7c0.1-0.6-0.2-1.2-0.7-1.5c-0.1-0.1-0.3-0.2-0.5-0.3c-2.5-1.6-5.2-3-8-4.1c-3.6-1.5-7.3-2.7-11-3.5   c-3.3-0.8-6.7-1.3-10.1-1.4c-1.7,0-3.4,0-5,0.1c-0.5,0-1,0.1-1.5,0.2c-1.2,0.1-2.4,0.3-3.9,0.6c-1,0.2-2.1,0.4-3.3,0.6   c0.1,1.6,0.1,3.1,0,4.7c1.7-0.1,2.8-0.2,3.9-0.3c1.4-0.1,2.8-0.2,4.3-0.2c1.8,0,3.6,0.1,7,0.5c0.2,0,0.3,0.1,0.3,0.3   c0,0.2-0.1,0.3-0.3,0.3c-2.5,0.2-3.7,0.1-4.9,0c-1.5-0.1-3-0.1-4.5-0.1c-1.7,0-3.4,0.2-5.8,0.4c-0.1,1.2-0.4,2.4-0.7,3.6   c1,0.4,2,0.8,2.9,1.2c1.9,0.8,3.5,1.4,5.2,1.9c1.6,0.5,3.2,0.9,4.9,1.2c1.5,0.3,3,0.5,4.5,0.6c1.9,0.2,3.7,0.2,5.6,0.2   c3.9,0,7.7-0.4,11.5-1.1c3-0.6,5.9-1.3,8.7-2.4c0.2-0.1,0.3-0.1,0.5-0.2C175.9,654.8,176.3,654.3,176.3,653.7z"
       id="path4710" /><path
       class="st9"
       d="M175.8,668.2c0-0.2-0.1-0.3-0.2-0.4c-2.6-3.6-6-6.5-9.9-8.6c-5.5,1-11.2,1.3-16.8,0.8   c-1.1-0.1-2.2-0.2-3.3-0.3c3.1,1.6,6.1,3.5,9,5.6c2.5,1.9,4.9,4,7.2,6.3c4.4,0.6,8.9,0.1,13.1-1.3   C175.7,670,176.1,669.1,175.8,668.2z"
       id="path4712" /><path
       class="st9"
       d="M162.2,622.3c-3.9,0.1-7.7,0.5-11.5,1.3c-3.3,0.7-6.6,1.6-9.8,2.9c-1.6,0.6-3.1,1.4-4.5,2.2   c-1.5,0.8-2.9,1.7-4.7,2.9c-0.8,0.6-1.8,1.2-2.7,1.9c0.8,1.4,1.4,2.8,1.9,4.3c1.5-0.8,2.4-1.3,3.4-1.8c1.3-0.7,2.5-1.3,3.8-1.9   c1.6-0.7,3.3-1.3,6.5-2.4c0.2-0.1,0.3,0,0.4,0.2c0.1,0.2,0,0.3-0.1,0.4c-2.2,1.2-3.3,1.6-4.4,2c-1.4,0.5-2.8,1.1-4.1,1.7   c-1.5,0.7-3,1.5-5.2,2.7c0.4,1.2,0.7,2.4,0.9,3.6c1.1,0,2.1,0,3.1-0.1c1.5,0,2.9-0.1,4.2-0.2c0.4,0,0.9-0.1,1.3-0.2   c1.6-0.2,3.3-0.5,4.9-0.9c3.3-0.8,6.5-2,9.6-3.4c3.5-1.6,6.9-3.5,10.1-5.7c2.5-1.7,4.8-3.6,7-5.7c0.1-0.1,0.3-0.3,0.4-0.4   c0.4-0.4,0.6-1,0.4-1.6c-0.2-0.6-0.7-1-1.3-1.1c-0.2,0-0.3-0.1-0.5-0.1C168.2,622.4,165.2,622.2,162.2,622.3z"
       id="path4714" /><path
       class="st9"
       d="M141.7,625c6.3-2.4,12.9-3.7,19.6-4c3.4-2.9,6-6.5,7.8-10.6c0.3-0.8,0-1.8-0.9-2.1c-0.1-0.1-0.3-0.1-0.5-0.1   c-4.4-0.5-8.9,0.1-13,1.6C151.3,615.5,146.8,620.7,141.7,625z"
       id="path4716" /><path
       class="st9"
       d="M165.9,683c0.6,0,1.1-0.3,1.5-0.8c0.3-0.5,0.3-1.1,0-1.7c-0.1-0.2-0.2-0.3-0.3-0.5c-1.7-2.5-3.6-4.8-5.6-7   c-2.3-2.5-4.8-4.7-7.5-6.8c-0.4-0.3-0.8-0.6-1.2-0.9c-2.7-2-5.6-3.9-8.7-5.3c-1.5-0.7-3.1-1.4-4.6-1.9c-1.6-0.6-3.2-1-5.3-1.5   c-1-0.2-2.1-0.5-3.2-0.8c-0.5,1.5-1.2,2.9-1.9,4.3c1.6,0.6,2.6,0.9,3.7,1.3c1.3,0.5,2.7,1,4,1.5c1.6,0.7,3.2,1.6,6.2,3.3   c0.2,0.1,0.2,0.3,0.1,0.4c-0.1,0.2-0.2,0.2-0.4,0.2c-2.4-0.9-3.4-1.4-4.5-2c-1.3-0.7-2.7-1.3-4.1-1.9c-1.5-0.7-3.1-1.2-5.5-2   c-0.6,1.1-1.3,2.1-2.1,3c0.7,0.8,1.5,1.6,2.1,2.3c1.4,1.5,2.6,2.7,4,3.8c1.3,1.1,2.6,2.1,4,3c1.4,1,2.9,1.8,4.3,2.6   c1.5,0.8,3,1.5,4.6,2.2c3.6,1.5,7.2,2.8,11,3.7c2.9,0.7,5.9,1.2,8.9,1.4C165.5,683,165.7,683,165.9,683z"
       id="path4718" /><path
       class="st9"
       d="M160.9,695.3c0-0.2,0-0.3,0-0.5c-0.9-4.3-2.8-8.4-5.6-11.9c-5.3-1.3-10.4-3.3-15.2-5.8   c-1.1-0.6-2.2-1.2-3.3-1.9c4.2,5.3,7.5,11.1,9.9,17.4c3.8,2.3,8,3.7,12.5,4.1C160.1,696.8,160.9,696.2,160.9,695.3z"
       id="path4720" /><path
       class="st9"
       d="M137.3,606.9c-2.8,2-5.4,4.1-7.8,6.6c-0.9,0.9-1.7,1.9-2.5,2.8c-0.3,0.3-0.5,0.6-0.8,1c-1.1,1.4-2,2.7-3.1,4.6   c-0.5,0.9-1.1,1.9-1.7,2.9c1.3,1,2.4,2,3.5,3.2c1-1.3,1.7-2.2,2.4-3.1c0.9-1.1,1.7-2.3,2.7-3.3c1.2-1.3,2.5-2.6,5-4.9   c0.1-0.1,0.3-0.1,0.4,0s0.1,0.3,0,0.4c-1.6,2-2.4,2.8-3.2,3.6c-1.1,1.1-2.1,2.1-3.1,3.3c-1.1,1.3-2.1,2.6-3.6,4.6   c0.8,0.9,1.6,1.9,2.2,2.9c1-0.5,1.9-0.9,2.8-1.3c1.8-0.9,3.3-1.7,4.9-2.6c0,0,0.1-0.1,0.2-0.1c1.3-0.8,2.7-1.7,4-2.7   c2.7-2.1,5.1-4.5,7.4-7c2.5-2.9,4.8-6,6.9-9.3c1.6-2.6,3-5.2,4.1-8c0.1-0.2,0.1-0.3,0.2-0.5c0.2-0.6,0.1-1.2-0.3-1.6   c-0.4-0.5-1-0.6-1.6-0.5c-0.2,0.1-0.3,0.1-0.5,0.2c-2.9,0.8-5.7,1.9-8.4,3.2C143.8,602.7,140.5,604.7,137.3,606.9z"
       id="path4722" /><path
       class="st9"
       d="M146,600.2c1.9-4,2.9-8.4,2.8-12.8c0-0.9-0.7-1.6-1.6-1.6c-0.2,0-0.3,0-0.5,0.1c-4.2,1.4-8.1,3.7-11.2,6.8   c-0.9,6.7-2.8,13.2-5.8,19.2C134.5,607.1,140,603.2,146,600.2z"
       id="path4724" /><path
       class="st9"
       d="M145.4,704.5c0.2,0.1,0.3,0.2,0.5,0.3c0.5,0.3,1.2,0.2,1.7-0.1c0.5-0.4,0.7-0.9,0.6-1.5c0-0.2-0.1-0.3-0.1-0.5   c-0.5-3-1.3-5.9-2.3-8.7c-1.3-3.7-2.9-7.2-4.8-10.5c-1.5-2.6-3.1-5.1-4.9-7.4c-0.3-0.3-0.5-0.6-0.8-1c-1.1-1.3-2.3-2.5-3.5-3.6   c-1.3-1.2-2.5-2.2-4.2-3.5c-0.8-0.6-1.7-1.3-2.7-2c-1.1,1.1-2.3,2.2-3.5,3.1c1.2,1.2,2,1.9,2.8,2.7c1,1,2.1,2,3,3   c1.2,1.3,2.3,2.8,4.3,5.5c0.1,0.1,0.1,0.3-0.1,0.4c-0.1,0.1-0.3,0.1-0.4,0c-1.8-1.8-2.5-2.7-3.3-3.6c-0.9-1.2-1.9-2.3-2.9-3.4   c-1.1-1.2-2.4-2.4-4.2-4.1c-1,0.7-2,1.4-3.1,1.9c0.3,1,0.7,2,1,3c0.7,1.9,1.3,3.5,2.1,5.1c0,0.1,0,0.1,0.1,0.2   c0.7,1.4,1.4,2.8,2.3,4.2c1.8,2.9,3.9,5.5,6.2,8c2.6,2.8,5.5,5.5,8.6,7.8C140.2,701.4,142.7,703.1,145.4,704.5z"
       id="path4726" /><path
       class="st9"
       d="M134.2,714.6c0.8,0.4,1.7,0.2,2.2-0.6c0.1-0.1,0.1-0.3,0.2-0.4c0.7-3.2,0.8-6.4,0.4-9.6   c-0.1-0.6-0.2-1.2-0.3-1.8c-0.1-0.6-0.3-1.2-0.4-1.8c-5.3-4.1-10-9-13.7-14.6c1.7,6.5,2.4,13.3,2,20   C127,709.4,130.3,712.4,134.2,714.6z"
       id="path4728" /><path
       class="st9"
       d="M113.9,606.3c-0.6,1.6-1,3.2-1.4,4.8c-0.1,0.4-0.2,0.8-0.3,1.3c-0.3,1.3-0.5,2.6-0.7,4.2   c-0.1,1-0.3,2.2-0.4,3.3c1.5,0.4,3,0.8,4.5,1.5c0.4-1.6,0.7-2.7,0.9-3.8c0.3-1.4,0.7-2.8,1.1-4.1c0.6-1.7,1.2-3.4,2.6-6.5   c0.1-0.2,0.2-0.2,0.4-0.2c0.2,0.1,0.2,0.2,0.2,0.4c-0.6,2.5-1,3.5-1.5,4.6c-0.5,1.4-1,2.8-1.5,4.2c-0.5,1.6-0.9,3.2-1.4,5.6   c1.1,0.5,2.2,1.1,3.2,1.8c0.7-0.8,1.4-1.6,2.1-2.4c1.3-1.5,2.4-2.9,3.4-4.3c0.2-0.3,0.5-0.7,0.7-1c0.7-1,1.3-2.1,1.9-3.2   c1.6-3,2.9-6.2,3.9-9.4c1.2-3.7,2-7.5,2.5-11.3c0.4-3,0.6-6,0.4-9c0-0.2,0-0.4,0-0.5c0-0.6-0.4-1.1-1-1.4c-0.6-0.3-1.2-0.2-1.6,0.2   c-0.1,0.1-0.3,0.2-0.4,0.3c-2.3,1.9-4.4,4.1-6.4,6.3c-2.5,2.9-4.8,6.1-6.8,9.4C116.5,600,115,603,113.9,606.3z"
       id="path4730" /><path
       class="st9"
       d="M119.6,646c1.7,1.4,3.5,2.8,5.2,4.1c1.1-1.4,2.3-2.9,3.3-4.4c0-0.5,0-1-0.1-1.5c-1.5-1.1-3-2.3-4.4-3.5   C122.4,642.5,121,644.3,119.6,646z"
       id="path4732" /><path
       class="st9"
       d="M127.9,650.4c-0.3,0.4-0.6,0.8-0.9,1.2c0.2,0.1,0.4,0.3,0.6,0.4C127.7,651.5,127.8,651,127.9,650.4z"
       id="path4734" /><path
       class="st9"
       d="M126.9,654.6c-0.5-0.3-1-0.7-1.5-1c-1.4,1.7-2.9,3.3-4.4,4.9c0.9,0.6,1.9,1.3,2.8,1.9   C125.1,658.7,126.1,656.7,126.9,654.6z"
       id="path4736" /><path
       class="st9"
       d="M122.6,770.7c2.1-5.1,3.6-10.4,4.1-16c0.5-5.6-0.1-11.3-2-16.4c-1-2.6-2.5-5.1-4-7.6c-1.4-2.3-3-4.5-3.6-7.1   c-0.3-1.3-0.3-2.8-0.2-4.2c0-0.8-0.4-1.4-1.2-1.7c-1.4-0.4-2.9-0.3-4.1,0.5c-0.4,0.3-0.7,0.6-0.8,1.1c-0.3,1.5-0.5,2.9-0.4,4.3   c0.3,3.6,2.6,7,4.9,10.1c1.1,1.6,2.2,3.1,2.9,4.8c1.7,3.9,1.7,8.5,1.2,12.9c-0.9,8.2-3.3,15.8-6.5,23c-2.9,6.5-6.5,12.7-10,19   c-4.2,7.6-8.1,15.3-11.4,23.3c-4.6,10.9-8.1,22.4-10.5,34c-2.6,12.8-3.7,25.8-4.9,38.8c1.3-0.3,2.7-0.6,4-0.6   c1.2,0,2.5,0.3,3.7,0.5c0.1-4.2,0.2-8.4,0.5-12.5c0.7-8.4,2.3-16.8,4.3-25.1c2.5-10.8,5.5-21.5,9.5-31.8   c4.3-11.1,9.7-21.7,15.5-32.1C116.8,782.3,120.1,776.7,122.6,770.7z"
       id="path4738" /><path
       class="st9"
       d="M125.2,638.6c0.7,0.6,1.4,1.2,2.1,1.8c-0.3-1.1-0.7-2.2-1.2-3.2C125.9,637.6,125.5,638.1,125.2,638.6z"
       id="path4740" /><path
       class="st9"
       d="M120.4,629.3c-0.7,1-1.3,2-2,3c1.5,1.6,3.2,3.1,4.8,4.6c0.5-0.8,1.1-1.6,1.6-2.4   C123.6,632.6,122.1,630.8,120.4,629.3z"
       id="path4742" /><path
       class="st9"
       d="M113.3,604.7c2.5-6.3,5.9-12.1,10.1-17.3c0.1-4.4-0.8-8.8-2.7-12.9c-0.4-0.8-1.3-1.1-2.1-0.8   c-0.1,0.1-0.3,0.1-0.4,0.3c-3.3,3-5.9,6.6-7.5,10.8C112.7,591.3,113.5,598,113.3,604.7z"
       id="path4744" /><path
       class="st9"
       d="M118.4,716c0.1,0.1,0.2,0.3,0.3,0.4c0.4,0.5,1,0.7,1.6,0.6c0.6-0.1,1.1-0.5,1.2-1.1c0-0.2,0.1-0.4,0.1-0.5   c0.8-2.9,1.2-5.9,1.4-8.9c0.3-3.9,0.3-7.7-0.1-11.6c-0.3-3.4-0.8-6.7-1.8-10c-0.5-1.6-1.1-3.2-1.7-4.7c-0.7-1.6-1.4-3.1-2.4-5   c-0.5-0.9-1-1.9-1.6-2.9c-1.4,0.6-2.9,1.1-4.5,1.4c0.6,1.6,1.1,2.6,1.5,3.6c0.6,1.3,1.1,2.6,1.5,4c0.6,1.7,1,3.5,1.7,6.8   c0,0.2-0.1,0.3-0.2,0.4c-0.2,0-0.3,0-0.4-0.2c-0.9-2.3-1.2-3.5-1.5-4.6c-0.4-1.4-0.8-2.9-1.3-4.3c-0.5-1.6-1.2-3.1-2.1-5.4   c-1.2,0.2-2.4,0.4-3.7,0.5c-0.1,1.1-0.2,2.1-0.3,3.1c-0.1,1.7-0.2,3.2-0.2,4.6c0,0.3,0,0.6,0,0.9c0,1.6,0.2,3.3,0.4,5   c0.4,3.4,1.3,6.7,2.4,9.9c1.2,3.7,2.8,7.2,4.6,10.6C114.9,711.1,116.5,713.7,118.4,716z"
       id="path4746" /><path
       class="st9"
       d="M123.2,652.1c-1.8-1.3-3.6-2.7-5.3-4.1c-1.4,1.7-2.9,3.3-4.5,4.9c1.7,1.4,3.5,2.8,5.3,4.1   C120.4,655.4,121.8,653.8,123.2,652.1z"
       id="path4748" /><path
       class="st9"
       d="M122.2,662.5c-1-0.7-2-1.3-3-2c-1.6,1.6-3.2,3.1-4.8,4.6c0.9,0.6,1.8,1.2,2.6,1.8   C118.9,665.6,120.7,664.2,122.2,662.5z"
       id="path4750" /><path
       class="st9"
       d="M112.8,639.8c1.6,1.6,3.2,3.1,4.9,4.5c1.4-1.7,2.8-3.5,4.1-5.3c-1.7-1.5-3.3-3-4.8-4.5   C115.6,636.3,114.2,638.1,112.8,639.8z"
       id="path4752" /><path
       class="st9"
       d="M112.1,625.4c1.4,1.7,2.9,3.4,4.5,5.1c0.6-0.9,1.2-1.8,1.8-2.8c-1.8-1.3-3.7-2.3-5.8-3   C112.5,624.9,112.3,625.1,112.1,625.4z"
       id="path4754" /><path
       class="st9"
       d="M117,658.9c-1.8-1.3-3.6-2.7-5.3-4.1c-1.6,1.6-3.2,3.1-4.9,4.6c1.8,1.4,3.5,2.8,5.4,4.2   C113.8,662,115.4,660.5,117,658.9z"
       id="path4756" /><path
       class="st9"
       d="M112.3,666.8c-1.3,1.1-2.5,2.1-3.9,3.1c2-0.3,4-0.9,5.9-1.8C113.6,667.7,113,667.3,112.3,666.8z"
       id="path4758" /><path
       class="st9"
       d="M106.6,646.7c1.6,1.6,3.3,3.1,4.9,4.5c1.6-1.6,3.1-3.2,4.5-4.9c-1.7-1.5-3.3-3-4.9-4.5   C109.6,643.5,108.1,645.1,106.6,646.7z"
       id="path4760" /><path
       class="st9"
       d="M106.4,633c1.5,1.7,3,3.4,4.5,5c1.4-1.8,2.8-3.5,4.1-5.4c-1.5-1.6-3-3.3-4.5-5   C109.2,629.4,107.9,631.2,106.4,633z"
       id="path4762" /><path
       class="st9"
       d="M96.6,606c0.1,1.7,0.4,3.4,0.7,5c0.1,0.3,0.1,0.6,0.2,0.9c0.3,1.4,0.7,2.8,1.2,4.5c0.3,1,0.6,2.1,1,3.2   c1.5-0.3,3.1-0.5,4.7-0.5c-0.3-1.7-0.5-2.7-0.7-3.8c-0.3-1.4-0.5-2.8-0.7-4.2c-0.2-1.8-0.3-3.6-0.3-7c0-0.2,0.1-0.3,0.3-0.3   c0.2,0,0.3,0.1,0.3,0.3c0.4,2.5,0.5,3.7,0.5,4.8c0.1,1.5,0.2,3,0.4,4.5c0.2,1.7,0.5,3.3,1,5.7c1.2,0,2.5,0.1,3.7,0.3   c0.3-1,0.6-2,0.9-3c0.4-1.5,0.8-2.8,1.1-4c0.1-0.4,0.2-0.9,0.3-1.3c0.3-1.6,0.5-3.3,0.7-5c0.3-3.4,0.1-6.8-0.3-10.2   c-0.5-3.8-1.2-7.6-2.3-11.3c-0.8-2.9-1.9-5.7-3.3-8.4c-0.1-0.2-0.2-0.3-0.2-0.5c-0.3-0.5-0.8-0.9-1.4-0.9c-0.6,0-1.1,0.3-1.4,0.9   c-0.1,0.2-0.2,0.3-0.2,0.5c-1.3,2.7-2.4,5.5-3.3,8.4c-1.1,3.7-1.9,7.5-2.3,11.3C96.5,599.2,96.3,602.6,96.6,606z"
       id="path4764" /><path
       class="st9"
       d="M106.3,721c0.1-0.1,0.2-0.2,0.3-0.3c2.6-3.6,4.4-7.7,5.1-12.1c-3.2-5.9-5.4-12.3-6.6-18.9   c-1.1,6.6-3.2,13.1-6.3,19c0.8,4.4,2.6,8.5,5.3,12C104.6,721.4,105.6,721.5,106.3,721z"
       id="path4766" /><path
       class="st9"
       d="M102.2,623.4c-0.5,0.7-1.1,1.4-1.6,2.1c1.3,1.9,2.7,3.7,4.1,5.4c1.4-1.8,2.8-3.6,4.1-5.4   c-0.6-0.7-1.1-1.4-1.6-2.1C105.6,623.2,103.9,623.2,102.2,623.4z"
       id="path4768" /><path
       class="st9"
       d="M109.7,653.1c-1.7-1.5-3.3-3-4.9-4.5c-1.6,1.6-3.3,3.1-4.9,4.5c1.6,1.6,3.3,3.1,4.9,4.6   C106.4,656.2,108.1,654.7,109.7,653.1z"
       id="path4770" /><path
       class="st9"
       d="M100.2,640c1.5,1.7,3,3.4,4.5,5c1.6-1.6,3.1-3.3,4.5-5c-1.6-1.6-3.1-3.3-4.5-5   C103.3,636.7,101.8,638.3,100.2,640z"
       id="path4772" /><path
       class="st9"
       d="M110.1,665.3c-1.8-1.3-3.6-2.7-5.4-4.2c-1.8,1.5-3.5,2.9-5.4,4.2c1.7,1.5,3.5,2.9,5.4,4.2   C106.6,668.1,108.4,666.7,110.1,665.3z"
       id="path4774" /><path
       class="st9"
       d="M89,715.6c0,0.2,0.1,0.4,0.1,0.5c0.2,0.6,0.6,1,1.2,1.2c0.6,0.1,1.2-0.1,1.6-0.6c0.1-0.1,0.2-0.3,0.3-0.4   c1.9-2.3,3.5-4.9,4.9-7.5c1.8-3.4,3.4-7,4.6-10.6c1.1-3.2,2-6.5,2.4-9.9c0.2-1.7,0.3-3.4,0.4-5c0-0.4,0-0.7,0-1.1   c0-1.3-0.1-2.7-0.2-4.4c-0.1-1-0.2-2.2-0.3-3.3c-1.6,0-3.1-0.2-4.7-0.5c0,1.7-0.1,2.8-0.1,3.9c0,1.4-0.1,2.9-0.2,4.3   c-0.2,1.8-0.5,3.6-1.2,6.9c0,0.2-0.2,0.3-0.4,0.3c-0.2,0-0.3-0.2-0.3-0.3c0.1-2.5,0.3-3.7,0.5-4.8c0.2-1.5,0.4-3,0.6-4.5   c0.1-1.7,0.2-3.4,0.2-5.8c-1.2-0.3-2.4-0.6-3.5-1c-0.5,0.9-1,1.9-1.5,2.7c-0.8,1.5-1.5,2.9-2.1,4.3c-0.1,0.2-0.2,0.4-0.3,0.6   c-0.6,1.5-1.2,3.1-1.7,4.7c-1,3.3-1.5,6.6-1.8,10c-0.4,3.8-0.4,7.7-0.1,11.6C87.8,709.7,88.2,712.7,89,715.6z"
       id="path4776" /><path
       class="st9"
       d="M93.5,646.3c1.5,1.7,3,3.3,4.5,4.9c1.7-1.5,3.3-3,4.9-4.5c-1.6-1.6-3.1-3.2-4.5-4.9   C96.8,643.4,95.1,644.9,93.5,646.3z"
       id="path4778" /><path
       class="st9"
       d="M94.4,632.6c1.3,1.8,2.7,3.6,4.1,5.4c1.6-1.6,3.1-3.3,4.5-5c-1.4-1.8-2.8-3.6-4.2-5.4   C97.4,629.3,95.9,631,94.4,632.6z"
       id="path4780" /><path
       class="st9"
       d="M97.2,666.8c-0.7,0.5-1.4,0.9-2,1.4c1.9,0.8,3.9,1.4,5.9,1.8C99.7,668.9,98.4,667.9,97.2,666.8z"
       id="path4782" /><path
       class="st9"
       d="M92.5,658.9c1.6,1.6,3.2,3.1,4.9,4.6c1.8-1.3,3.6-2.7,5.4-4.2c-1.7-1.5-3.3-3-4.9-4.6   C96.1,656.2,94.3,657.6,92.5,658.9z"
       id="path4784" /><path
       class="st9"
       d="M91.1,627.7c0.6,0.9,1.2,1.8,1.8,2.8c1.5-1.6,3-3.3,4.5-5.1c-0.2-0.3-0.3-0.5-0.5-0.8   C94.8,625.4,92.8,626.4,91.1,627.7z"
       id="path4786" /><path
       class="st9"
       d="M76.9,603.5c1,3.2,2.2,6.4,3.9,9.4c0.8,1.5,1.7,2.9,2.6,4.3c0.3,0.4,0.5,0.7,0.8,1.1c0.8,1,1.6,2.1,2.6,3.3   c0.7,0.8,1.4,1.6,2.2,2.5c1.3-0.9,2.7-1.7,4.1-2.3c-1-1.4-1.6-2.3-2.2-3.2c-0.8-1.2-1.6-2.4-2.3-3.6c-0.9-1.5-1.7-3.2-3.1-6.3   c-0.1-0.2,0-0.3,0.1-0.4c0.2-0.1,0.3,0,0.4,0.1c1.4,2.1,1.9,3.2,2.5,4.2c0.7,1.3,1.4,2.7,2.2,3.9c0.9,1.4,1.8,2.8,3.2,4.8   c1.1-0.5,2.3-0.9,3.5-1.2c-0.1-1.1-0.3-2.1-0.4-3.1c-0.2-1.7-0.5-3.3-0.8-4.8c0-0.2-0.1-0.4-0.2-0.6c-0.4-1.6-0.8-3.2-1.4-4.8   c-1.1-3.2-2.7-6.2-4.4-9.2c-2-3.3-4.2-6.5-6.8-9.4c-2-2.3-4.1-4.4-6.4-6.3c-0.1-0.1-0.3-0.2-0.4-0.3c-0.5-0.4-1.1-0.5-1.6-0.2   c-0.6,0.3-0.9,0.8-0.9,1.4c0,0.2,0,0.4,0,0.5c-0.1,3,0,6,0.4,9C74.9,596,75.7,599.8,76.9,603.5z"
       id="path4788" /><path
       class="st9"
       d="M95.5,604.9c-0.3-6.7,0.4-13.4,2.2-19.9c-1.7-4.1-4.3-7.8-7.7-10.7c-0.7-0.6-1.7-0.5-2.3,0.2   c-0.1,0.1-0.2,0.3-0.3,0.4c-1.8,4-2.7,8.5-2.5,12.9C89.4,592.9,92.9,598.6,95.5,604.9z"
       id="path4790" /><path
       class="st9"
       d="M81.9,791.6c1.6,1.4,3.2,2.8,4.4,4.5c1.3,1.8,2.2,3.7,3.9,5.5c0.9,0.9,2,1.8,3.1,1.6c0.7-0.2,1.3-0.7,1.7-1.4   c0.5-1,0.2-2.3-0.3-3.3c-0.6-1.3-1.6-2.2-2.6-3.1c-1.7-1.6-3.4-3.1-5-4.8c-1.9-1.9-3.7-3.9-5.4-6c3.5-2.1,6.1-5.1,8.4-8.7   c1.5-2.4,2.9-4.9,3.1-7.6c0.4-3.7-1.4-7.5-3.7-10.5c-3.6-4.6-8.7-7.5-14-9.8c-6-2.5-12.3-4.2-18.6-6c-5-1.5-10-3-14.2-5.9   c-2.2-1.5-4.1-3.4-6.1-5.3c-0.9,6.1-1.9,12.2-3.2,18.2c-0.7,3.3-1.5,6.7-1.5,10c0.1,3.3,1,6.6,2.4,9.7c1.8,3.8,4.4,7.1,7.5,9.9   c3.5,3.1,7.7,5.5,12.1,7.2c5.2,2,10.7,2.9,16.3,2.4c1.7-0.2,3.3-0.5,5-0.9c0.8,0.3,1.6,0.7,2.3,1C79,789.3,80.5,790.4,81.9,791.6z    M41.8,743.2c13.4,12.1,26,25,37.7,38.9C63.7,772.6,50.7,759.2,41.8,743.2z"
       id="path4792" /><path
       class="st9"
       d="M91.8,644.3c1.7-1.5,3.3-3,4.9-4.5c-1.4-1.7-2.8-3.5-4.1-5.3c-1.6,1.6-3.2,3.1-4.8,4.5   C89,640.8,90.4,642.6,91.8,644.3z"
       id="path4794" /><path
       class="st9"
       d="M92.5,666.8c0.9-0.6,1.8-1.2,2.7-1.8c-1.7-1.5-3.3-3-4.9-4.6c-1,0.7-2,1.4-3,2   C88.8,664.2,90.6,665.6,92.5,666.8z"
       id="path4796" /><path
       class="st9"
       d="M86.2,652.1c1.4,1.7,2.9,3.3,4.4,4.9c1.8-1.3,3.6-2.7,5.3-4.1c-1.5-1.6-3-3.2-4.5-4.9   C89.8,649.4,88,650.8,86.2,652.1z"
       id="path4798" /><path
       class="st9"
       d="M62.9,705.3c0.5,0.4,1.1,0.4,1.6,0.1c0.2-0.1,0.3-0.2,0.5-0.3c2.7-1.4,5.2-3.1,7.6-4.9c3.1-2.4,5.9-5,8.6-7.8   c2.3-2.5,4.4-5.1,6.2-8c0.9-1.4,1.7-3,2.4-4.4c0.1-0.2,0.2-0.4,0.3-0.6c0.6-1.4,1.2-2.7,1.8-4.5c0.3-1,0.7-2,1.1-3.1   c-1.4-0.7-2.8-1.5-4.1-2.4c-0.7,1.5-1.2,2.5-1.7,3.5c-0.6,1.3-1.2,2.6-1.9,3.8c-0.9,1.6-1.9,3-3.9,5.8c-0.1,0.1-0.3,0.2-0.4,0.1   c-0.2-0.1-0.2-0.3-0.1-0.4c1.1-2.3,1.8-3.2,2.4-4.2c0.8-1.3,1.6-2.5,2.3-3.8c0.8-1.5,1.5-3,2.6-5.2c-1-0.7-1.9-1.5-2.8-2.4   c-0.9,0.6-1.7,1.3-2.5,1.9c-1.6,1.2-2.9,2.3-4.2,3.5c-1.2,1.1-2.4,2.3-3.5,3.6c-1.1,1.3-2.1,2.7-3.1,4c-1,1.4-1.8,2.9-2.7,4.4   c-1.9,3.4-3.5,6.9-4.8,10.5c-1,2.8-1.8,5.7-2.3,8.7c0,0.2-0.1,0.3-0.1,0.5C62.2,704.4,62.4,704.9,62.9,705.3z"
       id="path4800" /><path
       class="st9"
       d="M84.7,634.5c0.5,0.8,1,1.6,1.6,2.4c1.6-1.5,3.3-3,4.8-4.6c-0.7-1-1.4-2-2-3C87.3,630.8,85.9,632.6,84.7,634.5z   "
       id="path4802" /><path
       class="st9"
       d="M81.3,645.7c1.1,1.5,2.2,2.9,3.3,4.4c1.8-1.3,3.5-2.7,5.3-4.1c-1.4-1.7-2.8-3.5-4.1-5.3   c-1.4,1.2-2.9,2.4-4.4,3.5C81.3,644.7,81.3,645.2,81.3,645.7z"
       id="path4804" /><path
       class="st9"
       d="M82.6,654.6c0.7,2.1,1.8,4,3,5.8c1-0.6,1.9-1.2,2.9-1.9c-1.5-1.6-3-3.3-4.4-4.9   C83.6,654,83.1,654.3,82.6,654.6z"
       id="path4806" /><path
       class="st9"
       d="M50.8,601.2c1.1,2.8,2.5,5.5,4,8c2,3.3,4.3,6.4,6.9,9.3c1.7,1.9,3.5,3.7,5.4,5.4c0.6,0.6,1.3,1.1,2,1.6   c1.3,1,2.8,2,4.1,2.8c1.5,0.9,2.9,1.7,4.8,2.6c0.9,0.4,2,0.9,3,1.4c0.8-1.3,1.7-2.6,2.8-3.8c-1.4-0.9-2.4-1.5-3.3-2   c-1.2-0.7-2.4-1.5-3.6-2.3c-1.5-1-2.8-2.2-5.4-4.5c-0.1-0.1-0.1-0.3,0-0.4c0.1-0.1,0.3-0.2,0.4-0.1c2.2,1.3,3,2.1,4,2.8   c1.2,0.9,2.3,1.9,3.6,2.7c1.4,1,2.8,1.8,4.9,3.1c0.8-0.9,1.7-1.8,2.7-2.5c-0.5-0.9-1.1-1.8-1.6-2.7c-0.9-1.5-1.8-2.8-2.7-4   c-0.1-0.2-0.3-0.4-0.4-0.5c-1-1.3-2.1-2.6-3.2-3.8c-2.3-2.5-5-4.6-7.8-6.6c-3.2-2.2-6.5-4.2-10-5.8c-2.7-1.3-5.5-2.4-8.4-3.2   c-0.2,0-0.4-0.1-0.5-0.1c-0.6-0.2-1.2,0-1.6,0.5c-0.4,0.5-0.5,1.1-0.3,1.6C50.6,600.8,50.7,601,50.8,601.2z"
       id="path4808" /><path
       class="st9"
       d="M74.1,700.9c-1,4.3-1.1,8.8-0.1,13.1c0.2,0.9,1,1.4,1.9,1.2c0.1,0,0.3-0.1,0.4-0.2c3.8-2.2,7.1-5.3,9.6-9   c-0.5-6.7,0.1-13.5,1.7-20C83.9,691.7,79.3,696.7,74.1,700.9z"
       id="path4810" /><path
       class="st9"
       d="M82.1,640.4c0.7-0.6,1.4-1.2,2.1-1.8c-0.3-0.5-0.6-1-1-1.4C82.8,638.2,82.4,639.3,82.1,640.4z"
       id="path4812" /><path
       class="st9"
       d="M82.5,651.6c-0.3-0.4-0.6-0.8-0.9-1.2c0.1,0.5,0.2,1.1,0.3,1.6C82.1,651.9,82.3,651.8,82.5,651.6z"
       id="path4814" /><path
       class="st9"
       d="M44.2,684c0.2,0,0.4,0,0.5,0c3-0.2,6-0.7,8.9-1.4c3.8-0.9,7.4-2.1,11-3.6c2.7-1.2,5.4-2.5,7.9-4.1   c0.4-0.2,0.7-0.5,1-0.7c1.4-0.9,2.7-2,4-3c1.3-1.1,2.5-2.3,4-3.8c0.7-0.7,1.5-1.6,2.3-2.4c-1-1.2-1.9-2.5-2.8-3.8   c-1.3,1.1-2.1,1.8-3,2.5c-1.1,0.9-2.2,1.8-3.3,2.7c-1.4,1.1-3,2-5.9,3.7c-0.2,0.1-0.3,0-0.4-0.1c-0.1-0.1-0.1-0.3,0.1-0.4   c1.9-1.6,2.9-2.2,3.9-2.9c1.3-0.8,2.5-1.7,3.7-2.6c1.3-1,2.6-2.1,4.5-3.7c-0.6-1.1-1.1-2.2-1.6-3.3c-1,0.2-2.1,0.5-3.1,0.7   c-2,0.5-3.6,0.9-5.3,1.5c-0.1,0-0.1,0-0.2,0.1c-1.5,0.5-3,1.1-4.4,1.8c-3.1,1.5-5.9,3.3-8.7,5.3c-3.1,2.3-6,4.9-8.7,7.7   c-2.1,2.2-4,4.5-5.6,7c-0.1,0.1-0.2,0.3-0.3,0.5c-0.3,0.5-0.3,1.1,0,1.7C43,683.8,43.6,684,44.2,684z"
       id="path4816" /><path
       class="st9"
       d="M36.9,627.1c2.1,2.1,4.5,4,7,5.7c3.2,2.2,6.6,4.1,10.1,5.7c3.1,1.4,6.3,2.6,9.6,3.4c1.6,0.4,3.3,0.7,4.9,0.9   c0.3,0,0.6,0.1,0.9,0.1c1.4,0.2,2.8,0.2,4.6,0.3c1,0,2.2,0,3.3,0.1c0.2-1.6,0.5-3.1,1-4.6c-1.7-0.2-2.8-0.4-3.9-0.5   c-1.4-0.2-2.8-0.4-4.2-0.7c-1.8-0.4-3.5-0.9-6.7-1.9c-0.2,0-0.3-0.2-0.2-0.4c0-0.2,0.2-0.3,0.4-0.3c2.5,0.4,3.6,0.7,4.8,1   c1.4,0.4,2.9,0.8,4.4,1c1.6,0.3,3.3,0.5,5.8,0.9c0.4-1.2,0.9-2.3,1.4-3.4c-0.9-0.6-1.8-1.2-2.6-1.8c-1.7-1.1-3.1-2.1-4.7-2.9   c-1.4-0.8-3-1.5-4.5-2.2c-1.6-0.6-3.2-1.2-4.8-1.7c-1.6-0.5-3.3-0.9-5-1.2c-3.8-0.8-7.6-1.2-11.5-1.3c-3-0.1-6,0-9,0.5   c-0.2,0-0.4,0.1-0.5,0.1c-0.6,0.1-1.1,0.5-1.3,1.1c-0.2,0.6-0.1,1.2,0.4,1.6C36.6,626.8,36.8,626.9,36.9,627.1z"
       id="path4818" /><path
       class="st9"
       d="M74,645c-1.7-0.3-3.3-0.5-4.8-0.7c-0.2,0-0.4,0-0.7-0.1c-1.6-0.1-3.3-0.2-5-0.2c-3.4,0.1-6.8,0.6-10.1,1.4   c-3.8,0.9-7.5,2-11,3.5c-2.8,1.2-5.5,2.5-8,4.1c-0.2,0.1-0.3,0.2-0.5,0.3c-0.5,0.3-0.8,0.9-0.7,1.5c0.1,0.6,0.4,1.1,1,1.3   c0.2,0.1,0.3,0.1,0.5,0.2c2.8,1,5.7,1.8,8.7,2.4c3.8,0.7,7.7,1.1,11.5,1.1c3.4,0,6.8-0.2,10.1-0.8c1.7-0.3,3.3-0.7,4.9-1.2   c1.7-0.5,3.2-1.1,5.2-1.9c1-0.4,2-0.8,3.1-1.3c-0.4-1.5-0.8-3-1-4.6c-1.6,0.5-2.7,0.8-3.7,1.1c-1.4,0.4-2.7,0.8-4.1,1.1   c-1.8,0.4-3.5,0.6-6.9,1c-0.2,0-0.3-0.1-0.4-0.3c0-0.2,0.1-0.3,0.2-0.4c2.4-0.7,3.6-0.9,4.8-1c1.5-0.2,3-0.5,4.4-0.8   c1.6-0.4,3.3-0.9,5.6-1.6c-0.1-1.2-0.1-2.5-0.1-3.7C76,645.4,74.9,645.1,74,645z"
       id="path4820" /><path
       class="st9"
       d="M79.3,612.2c-3-6-5.1-12.5-6.1-19.1c-3.2-3-7.1-5.3-11.3-6.6c-0.8-0.3-1.7,0.2-2,1.1c0,0.2-0.1,0.3-0.1,0.5   c0,4.4,1,8.8,3,12.8C68.8,603.7,74.4,607.6,79.3,612.2z"
       id="path4822" /><path
       class="st9"
       d="M50.6,697.6c0.2,0,0.3,0,0.5,0c4.4-0.5,8.7-1.9,12.4-4.3c1.8-5.1,4.3-10,7.4-14.5c0.7-1,1.5-2.1,2.2-3.1   c-5.7,3.6-11.9,6.3-18.4,8c-2.7,3.5-4.5,7.6-5.4,12C49.2,696.6,49.7,697.4,50.6,697.6z"
       id="path4824" /><path
       class="st9"
       d="M39.8,611.4c1.8,4.1,4.5,7.6,7.9,10.5c5.5,0.2,10.8,1,16.1,2.5c1.2,0.3,2.4,0.8,3.6,1.2   c-0.3-0.3-0.7-0.6-1-0.9c-4.8-4.1-8.9-8.8-12.3-14.1c-4.2-1.5-8.7-2-13-1.4c-0.9,0.1-1.5,0.9-1.4,1.8   C39.7,611.1,39.7,611.3,39.8,611.4z"
       id="path4826" /><path
       class="st9"
       d="M34.6,671.1c0.1,0.1,0.3,0.2,0.4,0.2c4.2,1.4,8.7,1.8,13.1,1.1c4.6-4.9,10-9,16-12.2c-6.7,1-13.4,1-20-0.1   c-3.9,2.1-7.3,5.1-9.8,8.7C33.7,669.7,33.9,670.6,34.6,671.1z"
       id="path4828" /><path
       class="st9"
       d="M62,642.6c-6.5-1.8-12.7-4.6-18.3-8.3c-4.4,0.3-8.7,1.7-12.5,4c-0.8,0.5-1,1.4-0.5,2.2   c0.1,0.1,0.2,0.3,0.3,0.4c3.3,3,7.2,5.1,11.5,6.3C48.8,644.7,55.3,643.1,62,642.6z"
       id="path4830" /></g><path
     class="st10"
     d="M489.3,874.6c7.7-24,0.5-50.3-18.5-67c2.5,1.1,5,2.4,7.4,3.9c26.7,16.8,34.7,52.1,17.8,78.8  c-35.3-14.9-53.3-54.5-41.2-90.9c-33.5,9-55.2,41.4-50.7,75.8c22.5-11.5,35.9-35.2,34.3-60.4c1,2.6,1.8,5.3,2.4,8  c7,30.8-12.4,61.3-43.1,68.3c-14.4-35.5,0.9-76.2,35.1-93.4c-30-17.3-68.3-9.7-89.4,17.8c24,7.7,50.3,0.5,67-18.5  c-1.1,2.6-2.4,5-3.9,7.4c-16.8,26.7-52.1,34.6-78.8,17.8c14.9-35.3,54.5-53.3,90.9-41.2c-9-33.5-41.4-55.2-75.8-50.7  c11.5,22.5,35.2,35.9,60.4,34.3c-2.6,1-5.3,1.8-8,2.4c-30.8,7-61.3-12.3-68.3-43.1c35.5-14.4,76.2,0.9,93.4,35.1  c17.3-30.1,9.7-68.3-17.8-89.4c-7.7,24-0.5,50.3,18.5,67c-2.5-1.1-5-2.4-7.4-3.9c-26.7-16.8-34.7-52.1-17.8-78.8  c35.3,14.9,53.3,54.5,41.2,90.9c33.5-9,55.2-41.4,50.7-75.8c-22.4,11.5-35.9,35.2-34.3,60.4c-1-2.6-1.8-5.3-2.4-8  c-7-30.8,12.3-61.3,43.1-68.3c14.4,35.5-0.9,76.2-35.1,93.4c30,17.3,68.3,9.7,89.4-17.8c-24-7.8-50.3-0.5-67,18.5  c1.1-2.6,2.4-5,3.9-7.4c16.8-26.7,52.1-34.6,78.8-17.8c-14.9,35.3-54.5,53.3-90.9,41.2c9,33.5,41.4,55.2,75.8,50.7  c-11.5-22.5-35.2-35.9-60.4-34.3c2.6-1,5.3-1.8,8-2.4c30.8-7,61.3,12.3,68.3,43.1c-35.5,14.4-76.2-0.9-93.4-35.1  C454.2,815.2,461.8,853.5,489.3,874.6z"
     id="flower4"
     inkscape:label="#path4834" /></svg>