<?xml version="1.0" encoding="UTF-8" standalone="no"?>
<svg
   xmlns:dc="http://purl.org/dc/elements/1.1/"
   xmlns:cc="http://creativecommons.org/ns#"
   xmlns:rdf="http://www.w3.org/1999/02/22-rdf-syntax-ns#"
   xmlns:svg="http://www.w3.org/2000/svg"
   xmlns="http://www.w3.org/2000/svg"
   xmlns:sodipodi="http://sodipodi.sourceforge.net/DTD/sodipodi-0.dtd"
   xmlns:inkscape="http://www.inkscape.org/namespaces/inkscape"
   width="210mm"
   height="297mm"
   viewBox="0 0 210 297"
   version="1.1"
   id="svg8"
   inkscape:version="1.0.2 (e86c870879, 2021-01-15)"
   sodipodi:docname="pigeon.svg">
  <defs
     id="defs2" />
  <sodipodi:namedview
     id="base"
     pagecolor="#ffffff"
     bordercolor="#666666"
     borderopacity="1.0"
     inkscape:pageopacity="0.0"
     inkscape:pageshadow="2"
     inkscape:zoom="0.98994949"
     inkscape:cx="377.56984"
     inkscape:cy="214.51453"
     inkscape:document-units="mm"
     inkscape:current-layer="layer1"
     inkscape:document-rotation="0"
     showgrid="false"
     inkscape:window-width="1920"
     inkscape:window-height="1007"
     inkscape:window-x="0"
     inkscape:window-y="0"
     inkscape:window-maximized="1" />
  <metadata
     id="metadata5">
    <rdf:RDF>
      <cc:Work
         rdf:about="">
        <dc:format>image/svg+xml</dc:format>
        <dc:type
           rdf:resource="http://purl.org/dc/dcmitype/StillImage" />
        <dc:title></dc:title>
      </cc:Work>
    </rdf:RDF>
  </metadata>
  <g
     inkscape:label="Layer 1"
     inkscape:groupmode="layer"
     id="layer1">
    <path
       style="fill:#000000;stroke-width:0.116818"
       d="m 93.306024,122.36984 c -0.223903,-0.15683 -0.262735,-0.2669 -0.216369,-0.61329 l 0.05651,-0.42217 -3.518585,-0.007 c -3.516793,-0.007 -4.044264,-0.0625 -4.044264,-0.42607 0,-0.073 0.08066,-0.22184 0.179239,-0.33077 0.165127,-0.18247 0.14192,-0.20403 -0.294738,-0.27385 -0.433854,-0.0694 -1.894362,0.0903 -2.123972,0.23219 -0.277876,0.17174 -0.03762,-0.2139 0.353287,-0.56706 0.779238,-0.70399 2.084393,-0.84191 3.480818,-0.36781 0.483106,0.16402 0.756051,0.16868 2.3507,0.0401 0.992272,-0.08 1.732706,-0.18325 1.645409,-0.22948 -0.0873,-0.0462 -0.652541,-0.1457 -1.256096,-0.22106 -1.334724,-0.16667 -1.5778,-0.27544 -1.480644,-0.66254 0.08266,-0.32933 0.07959,-0.32982 -0.722081,-0.1164 -0.741937,0.19751 -0.777689,0.0877 -0.169455,-0.52055 0.536758,-0.53676 1.106425,-0.67595 1.947375,-0.47581 3.050526,0.72598 5.231854,0.99927 6.078067,0.76147 0.134291,-0.0377 0.6013,-0.63794 1.098303,-1.41156 0.685842,-1.06756 0.830799,-1.36735 0.700906,-1.44959 -0.26563,-0.16818 -0.386623,-0.12681 -0.711296,0.24319 -0.393432,0.44836 -0.695884,0.44841 -2.021536,3.5e-4 -0.569723,-0.19258 -1.465716,-0.41229 -1.991095,-0.48826 -0.941377,-0.1361 -0.964185,-0.13343 -1.571979,0.18438 -0.353195,0.18468 -0.71742,0.29616 -0.852341,0.26087 -0.276246,-0.0722 -0.66578,0.11294 -1.299217,0.61763 -0.251306,0.20023 -0.750702,0.44694 -1.109768,0.54826 -0.359067,0.10131 -0.857419,0.31625 -1.107451,0.47765 -0.339747,0.21931 -0.552766,0.27752 -0.843128,0.2304 -0.366762,-0.0595 -0.392728,-0.0406 -0.463543,0.33683 -0.04126,0.21993 -0.118142,0.37322 -0.17085,0.34065 -0.181666,-0.11228 -0.260699,-1.29647 -0.106065,-1.58922 0.199066,-0.37686 0.90666,-1.03632 1.111965,-1.03632 0.0918,0 0.166909,-0.0526 0.166909,-0.11682 0,-0.15086 -0.225713,-0.14814 -0.673971,0.008 -0.24379,0.085 -0.492343,0.0879 -0.777343,0.009 -0.326469,-0.0902 -0.501494,-0.0745 -0.7928,0.0708 -0.262405,0.1309 -0.75842,0.19391 -1.664054,0.21137 -0.795624,0.0153 -1.548453,0.10044 -1.963864,0.22197 -0.980557,0.28684 -2.071568,0.0355 -2.071568,-0.47733 0,-0.15283 0.05257,-0.27787 0.116817,-0.27787 0.06425,0 0.116818,-0.0526 0.116818,-0.11682 0,-0.15206 -0.598127,-0.15011 -1.001547,0.003 -0.173717,0.066 -0.341156,0.0948 -0.372086,0.0638 -0.109285,-0.10928 0.09776,-0.66033 0.338603,-0.90117 0.21233,-0.21233 0.329523,-0.23391 0.902366,-0.16616 0.989669,0.11705 0.962226,0.11745 3.377216,-0.0495 l 2.251603,-0.15569 -0.236499,-0.25174 c -0.130072,-0.13846 -0.236497,-0.36828 -0.236497,-0.51072 0,-0.29255 -0.232275,-0.41519 -0.786365,-0.41519 -0.355919,0 -0.369541,-0.0148 -0.221132,-0.23947 0.245441,-0.37166 0.701052,-0.48464 1.272895,-0.31565 3.740692,1.10543 4.356855,1.15214 5.159225,0.39112 0.261068,-0.24762 0.711225,-0.62678 1.000348,-0.84258 2.096694,-1.56498 3.001882,-2.55795 3.260285,-3.57645 0.07935,-0.31275 0.225524,-0.84875 0.32484,-1.19112 l 0.180575,-0.6225 -0.393425,-0.33651 c -0.473829,-0.40529 -1.066214,-0.5486 -1.440252,-0.34841 -0.371506,0.19882 -0.837535,0.0726 -1.739042,-0.47117 -0.419,-0.25271 -0.840695,-0.4292 -0.937101,-0.39221 -0.102658,0.0394 -0.279122,-0.0522 -0.425903,-0.22098 -0.291217,-0.33492 -0.667378,-0.29981 -0.7217,0.0674 -0.06563,0.44365 -0.312912,0.34013 -0.615921,-0.25783 -0.203852,-0.40228 -0.37191,-0.59185 -0.524689,-0.59185 -0.123624,0 -0.263227,-0.0622 -0.310228,-0.13827 -0.05969,-0.0966 -0.107042,-0.0767 -0.157049,0.0658 -0.0591,0.16848 -0.18043,0.0931 -0.695155,-0.43164 -0.400336,-0.40816 -0.791432,-0.68605 -1.092499,-0.77625 -2.017952,-0.60459 -5.796255,-2.778336 -8.880131,-5.108946 -1.35876,-1.02687 -3.187719,-2.75659 -4.107571,-3.88469 -1.434397,-1.75913 -2.794598,-4.13918 -3.60855,-6.31415 -0.228424,-0.60957 -0.570907,-1.42779 -0.761074,-1.81747 -0.894883,-1.83374 -1.218499,-3.77974 -1.222611,-7.35191 -0.0051,-4.44441 0.463015,-6.3359 2.717686,-10.98086 0.561365,-1.1565 1.28984,-2.56709 1.618835,-3.13464 0.402398,-0.69419 0.617994,-1.21034 0.658739,-1.57704 0.05707,-0.51358 -0.04577,-0.88235 -0.252692,-0.90613 -0.05053,-0.006 -0.294162,-0.10066 -0.541404,-0.21079 -0.247241,-0.11012 -0.536365,-0.18036 -0.642497,-0.15609 -0.106131,0.0243 -0.324386,-0.0165 -0.485011,-0.0907 -0.583393,-0.26936 -1.699325,-0.0179 -3.190342,0.71887 -0.566069,0.27973 -1.129325,0.50859 -1.25168,0.50859 -0.122355,0 -0.278731,0.10514 -0.347501,0.23364 -0.342905,0.64072 -0.474711,-0.13408 -0.186002,-1.09339 0.254957,-0.84716 0.84105,-1.65602 1.628269,-2.24715 0.395372,-0.29689 1.050326,-0.95366 1.455452,-1.45949 0.405126,-0.50583 0.817465,-0.96494 0.91631,-1.02026 0.113131,-0.0633 0.265286,-0.52863 0.410671,-1.2559 0.414229,-2.07215 1.125485,-3.49096 2.391632,-4.77082 1.208629,-1.22172 2.425339,-1.7181 4.598163,-1.87589 2.450569,-0.17796 4.315474,0.5811 6.480614,2.63778 1.238192,1.17616 1.925111,2.13446 2.796145,3.90083 1.328307,2.69367 1.468951,3.3747 1.580179,7.65156 0.09955,3.82785 0.08186,3.75722 1.260615,5.0341 2.51591,2.72534 7.265116,5.60006 11.421204,6.91333 4.144962,1.30975 4.808762,1.55375 6.326642,2.32554 0.88933,0.45219 2.30536,1.17192 3.14674,1.5994 0.84138,0.42747 1.84017,1.01309 2.21953,1.30137 0.37937,0.28827 1.18033,0.80197 1.77992,1.14155 2.1494,1.21732 4.5805,2.93771 9.42342,6.66857 1.20353,0.92716 2.12397,1.55288 2.33636,1.58825 0.19275,0.0321 1.03383,0.16918 1.86908,0.30461 1.71307,0.27777 3.29411,0.74863 4.672,1.39138 0.5278,0.24621 1.54596,0.57528 2.33706,0.75533 0.771,0.17548 2.05891,0.57505 2.86203,0.88793 1.15537,0.4501 1.88701,0.64407 3.50453,0.92909 1.12437,0.19812 2.80656,0.53943 3.73818,0.75846 0.93162,0.21903 2.64008,0.51009 3.79657,0.64681 3.87216,0.45776 5.6062,0.86865 7.19969,1.70601 0.95647,0.5026 1.73686,1.15349 1.73686,1.44862 0,0.34616 -0.61196,0.44234 -3.67976,0.57832 -2.78214,0.12332 -5.44417,0.32483 -5.53859,0.41926 -0.0271,0.0271 0.0133,0.0492 0.0896,0.0492 0.27806,0 4.19059,0.71539 5.14836,0.941346 1.29688,0.30597 2.27062,0.75385 2.69852,1.2412 0.41562,0.47336 0.43638,0.73253 0.0845,1.05431 -0.68293,0.62446 -1.51276,0.836 -6.54402,1.66821 -1.9769,0.32699 -3.70669,0.63609 -3.84398,0.68687 -0.21474,0.0794 -0.0553,0.2151 1.1412,0.97125 0.76495,0.4834 2.81015,1.72001 4.54489,2.74802 3.6232,2.14712 4.62612,2.75595 5.19838,3.15574 l 0.40887,0.28564 -0.40887,-0.07 c -0.46528,-0.0797 -0.5377,-0.14727 0.89647,0.83618 0.52691,0.36132 0.82353,0.63163 0.72693,0.66245 -0.0897,0.0286 -0.23982,0.073 -0.33349,0.0986 -0.10629,0.0291 0.0177,0.15869 0.32993,0.34486 0.46339,0.27633 0.48024,0.30305 0.22872,0.36256 -0.14933,0.0353 -0.68818,0.10163 -1.19743,0.14731 -0.92476,0.083 -0.92556,0.0833 -0.64249,0.29277 0.84407,0.62453 0.87619,0.59718 -0.62853,0.53524 -1.54323,-0.0635 -1.5006,-0.10998 -0.693,0.7551 l 0.39356,0.42157 -0.6793,-0.10398 c -1.08913,-0.16672 -3.64649,-0.97593 -5.22311,-1.65273 l -1.45666,-0.6253 0.43024,0.52736 c 0.33726,0.41339 0.68472,0.64765 1.60769,1.0839 1.10229,0.521 1.56693,0.84351 1.42285,0.98759 -0.15483,0.15483 -6.07275,-2.75371 -11.06584,-5.43864 -1.68736,-0.90734 -3.18015,-1.72146 -3.31731,-1.80915 -0.13716,-0.0877 -0.69847,-0.24228 -1.24736,-0.34356 -1.26267,-0.23296 -2.82152,-0.75794 -4.03498,-1.35885 -1.79514,-0.88896 -2.23785,-0.97657 -5.14394,-1.01794 l -2.58375,-0.0368 -0.0709,0.35464 c -0.0559,0.27935 -0.13178,0.35465 -0.35755,0.35465 -0.15764,0 -0.36209,0.0755 -0.45433,0.16771 -0.12866,0.12866 -0.19975,0.13569 -0.30526,0.0302 -0.1055,-0.1055 -0.16021,-0.10085 -0.23488,0.02 -0.0724,0.1171 -0.11912,0.1223 -0.18218,0.0203 -0.0467,-0.0755 -0.15212,-0.11143 -0.23436,-0.0799 -0.0822,0.0316 -0.34387,-0.0747 -0.58141,-0.23609 -0.23753,-0.16141 -0.6096,-0.30757 -0.8268,-0.32481 -0.36847,-0.0292 -0.38614,-0.0148 -0.26378,0.21486 0.12223,0.22946 0.11595,0.23466 -0.0924,0.0765 -0.12295,-0.0933 -0.34253,-0.27399 -0.48794,-0.40147 -0.19445,-0.17048 -0.29884,-0.19734 -0.39465,-0.10153 -0.13525,0.13525 -0.43382,0.0232 -0.77581,-0.29106 -0.0874,-0.0803 -0.2667,-0.14602 -0.39847,-0.14602 -0.20488,0 -0.21746,0.0267 -0.0868,0.18413 0.12646,0.15237 0.12456,0.20158 -0.011,0.28536 -0.0975,0.0603 -0.22445,0.0509 -0.31373,-0.0232 -0.0825,-0.0684 -0.14994,-0.0857 -0.14994,-0.0383 0,0.0474 -0.1267,0.003 -0.28154,-0.0983 -0.15485,-0.10146 -0.41876,-0.20936 -0.58647,-0.23977 -0.30795,-0.0558 -0.31214,0.01 -0.0243,0.37995 0.0675,0.0868 0.13255,0.22485 0.14458,0.3068 0.012,0.0819 0.0573,0.26064 0.1006,0.39708 0.0437,0.13762 0.0278,0.24808 -0.0357,0.24808 -0.0629,0 -0.10058,0.12593 -0.0837,0.27985 0.0253,0.23059 -0.017,0.2746 -0.24066,0.25005 -0.15118,-0.0166 -0.24048,0.0202 -0.20161,0.0831 0.0424,0.0685 -0.0336,0.0801 -0.19311,0.0295 -0.17266,-0.0548 -0.23671,-0.0411 -0.18661,0.04 0.17314,0.28014 -0.68514,0.2654 -1.39042,-0.0239 -0.73178,-0.30014 -0.84674,-0.30903 -0.68632,-0.0531 0.053,0.0846 0.0807,0.24892 0.0616,0.36519 -0.0191,0.11627 0.0347,0.29691 0.11974,0.40143 0.085,0.10453 -0.0533,0.0499 -0.30726,-0.12148 -0.32363,-0.21832 -0.4869,-0.2709 -0.5457,-0.17576 -0.0634,0.10253 -0.20454,0.0996 -0.57673,-0.0119 -0.29989,-0.0898 -0.52072,-0.10464 -0.56407,-0.0378 -0.0392,0.0604 -0.39978,0.10228 -0.80134,0.093 -0.40156,-0.009 -0.73011,0.0149 -0.73011,0.0537 0,0.0388 -0.18581,0.0559 -0.41291,0.038 -0.26156,-0.0206 -0.38553,0.0118 -0.33823,0.0883 0.0511,0.0826 0.006,0.0836 -0.14198,0.003 -0.30037,-0.16343 -1.00415,-0.37738 -1.05946,-0.32207 -0.0251,0.0251 0.14114,0.16103 0.3694,0.3021 0.22825,0.14107 0.415,0.27481 0.415,0.29721 0,0.0873 -1.75403,-0.5158 -1.95265,-0.67137 -0.0781,-0.0612 -0.35209,-0.0818 -0.6089,-0.0459 -0.25681,0.0359 -0.49881,0.0137 -0.53779,-0.0494 -0.039,-0.0631 -0.11233,-0.0891 -0.16299,-0.0577 -0.0507,0.0313 -0.26696,0.007 -0.48067,-0.0545 -0.2137,-0.0613 -0.40438,-0.0956 -0.42372,-0.0763 -0.0194,0.0194 0.0692,0.23983 0.19669,0.48997 0.24171,0.47409 0.33707,0.98626 0.11961,0.64242 -0.19579,-0.30959 -0.29632,9.3e-4 -0.27103,0.83723 0.0282,0.93219 -0.18064,1.49574 -0.55425,1.49574 -0.12685,0 -0.23064,0.0557 -0.23064,0.12371 0,0.068 -0.0526,0.0912 -0.11681,0.0515 -0.0643,-0.0397 -0.11682,-0.003 -0.11682,0.0818 0,0.22098 -0.47664,0.5009 -0.57684,0.33876 -0.1553,-0.25128 -2.20395,2.5802 -3.443213,4.75895 -0.304735,0.53576 -0.529429,0.99874 -0.49932,1.02885 0.06708,0.0671 2.423293,-0.27576 2.792943,-0.40639 0.39931,-0.14111 0.65881,-0.0394 0.85188,0.334 0.25439,0.49194 0.22208,0.61752 -0.14103,0.5481 -0.24053,-0.046 -0.38693,0.0172 -0.6213,0.26809 -0.21537,0.23055 -0.4607,0.34739 -0.8243,0.39257 -0.28472,0.0354 -0.94598,0.12097 -1.469478,0.19021 l -0.951806,0.12588 -0.858868,0.84397 c -0.914528,0.89867 -2.177366,1.64883 -3.362445,1.99738 -0.799915,0.23527 -1.055911,0.23445 -1.397069,-0.005 z m 5.39199,-8.56454 c 0.508656,-0.74077 0.571657,-0.90984 0.728591,-1.95526 0.134153,-0.89367 0.143989,-1.30401 0.0449,-1.87304 -0.119995,-0.68906 -0.148252,-0.73456 -0.519929,-0.83719 -0.371354,-0.10253 -0.985588,-0.63081 -0.985588,-0.84765 0,-0.0549 -0.05054,-0.0998 -0.112315,-0.0998 -0.06177,0 -0.169982,0.21416 -0.240464,0.4759 -0.102419,0.38036 -0.159869,0.44959 -0.286146,0.34479 -0.114127,-0.0947 -0.179978,-0.0956 -0.237156,-0.003 -0.04354,0.0704 -0.171964,0.11242 -0.285392,0.0933 -0.256768,-0.0433 -1.754186,1.09235 -2.550543,1.93439 -0.327795,0.34659 -0.86479,1.04193 -1.193322,1.54519 -0.547831,0.83919 -0.578628,0.92193 -0.371642,0.9985 0.246303,0.0911 2.087052,0.37678 3.61058,0.56032 0.529097,0.0637 1.107345,0.19474 1.284994,0.2911 0.177648,0.0964 0.375565,0.17703 0.439815,0.17928 0.06425,0.002 0.367379,-0.36081 0.67362,-0.8068 z"
       id="pigeon" />
  </g>
</svg>
