<?xml version="1.0" encoding="UTF-8" standalone="no"?>
<!-- Created with Inkscape (http://www.inkscape.org/) -->

<svg
   xmlns:dc="http://purl.org/dc/elements/1.1/"
   xmlns:cc="http://creativecommons.org/ns#"
   xmlns:rdf="http://www.w3.org/1999/02/22-rdf-syntax-ns#"
   xmlns:svg="http://www.w3.org/2000/svg"
   xmlns="http://www.w3.org/2000/svg"
   xmlns:sodipodi="http://sodipodi.sourceforge.net/DTD/sodipodi-0.dtd"
   xmlns:inkscape="http://www.inkscape.org/namespaces/inkscape"
   width="210mm"
   height="297mm"
   viewBox="0 0 210 297"
   version="1.1"
   id="svg8"
   sodipodi:docname="bed-profiles.svg"
   inkscape:version="0.92.1 r15371">
  <defs
     id="defs2" />
  <sodipodi:namedview
     id="base"
     pagecolor="#ffffff"
     bordercolor="#666666"
     borderopacity="1.0"
     inkscape:pageopacity="0.0"
     inkscape:pageshadow="2"
     inkscape:zoom="1"
     inkscape:cx="55.040892"
     inkscape:cy="209.09864"
     inkscape:document-units="mm"
     inkscape:current-layer="layer1"
     showgrid="true"
     inkscape:window-width="1440"
     inkscape:window-height="835"
     inkscape:window-x="0"
     inkscape:window-y="0"
     inkscape:window-maximized="1">
    <inkscape:grid
       type="xygrid"
       id="grid4488"
       units="mm"
       spacingx="1"
       spacingy="1"
       originy="1.3" />
  </sodipodi:namedview>
  <metadata
     id="metadata5">
    <rdf:RDF>
      <cc:Work
         rdf:about="">
        <dc:format>image/svg+xml</dc:format>
        <dc:type
           rdf:resource="http://purl.org/dc/dcmitype/StillImage" />
        <dc:title></dc:title>
      </cc:Work>
    </rdf:RDF>
  </metadata>
  <g
     inkscape:label="Layer 1"
     inkscape:groupmode="layer"
     id="layer1">
    <path
       style="opacity:1;fill:#ffcc00;fill-opacity:1;stroke:none;stroke-width:1.00945568;stroke-linecap:square;stroke-linejoin:miter;stroke-miterlimit:4;stroke-dasharray:none;stroke-dashoffset:257.00787354;stroke-opacity:0.96052629;paint-order:normal"
       d="m 16,179.7 11,0 v 12 h -7 v 14 h -4 l -4,-4 v -18 z"
       id="trim"
       inkscape:connector-curvature="0"
       sodipodi:nodetypes="ccccccccc"
       inkscape:label="#rect4485" />
    <rect
       style="opacity:1;fill:#e6e6e6;fill-opacity:1;stroke:none;stroke-width:0.91544706;stroke-linecap:square;stroke-linejoin:miter;stroke-miterlimit:4;stroke-dasharray:none;stroke-dashoffset:257.00787354;stroke-opacity:0.96052629;paint-order:normal"
       id="overhang"
       width="8"
       height="11"
       x="12"
       y="167.7"
       inkscape:label="#rect4568" />
    <rect
       style="opacity:1;fill:#800080;fill-opacity:1;stroke:none;stroke-width:2.58190894;stroke-linecap:square;stroke-linejoin:miter;stroke-miterlimit:4;stroke-dasharray:none;stroke-dashoffset:257.00787354;stroke-opacity:0.96052629;paint-order:normal"
       id="ply"
       width="70"
       height="12"
       x="27"
       y="179.7"
       inkscape:label="#rect4570" />
    <rect
       style="opacity:1;fill:#008000;fill-opacity:1;stroke:none;stroke-width:2.69784832;stroke-linecap:square;stroke-linejoin:miter;stroke-miterlimit:4;stroke-dasharray:none;stroke-dashoffset:257.00787354;stroke-opacity:0.96052629;paint-order:normal"
       id="rect4574"
       width="27"
       height="94"
       x="20"
       y="191.7" />
    <path
       inkscape:label="#rect4485"
       sodipodi:nodetypes="ccccccc"
       inkscape:connector-curvature="0"
       id="trim2"
       d="m 16,259.70001 4,-1e-5 c 0,8.66667 0,17.33334 0,26.00001 h -4 l -4,-4 v -18 z"
       style="opacity:1;fill:#ffcc00;fill-opacity:1;stroke:none;stroke-width:1.00945568;stroke-linecap:square;stroke-linejoin:miter;stroke-miterlimit:4;stroke-dasharray:none;stroke-dashoffset:257.00787354;stroke-opacity:0.96052629;paint-order:normal" />
  </g>
</svg>
